{
  "_task_id": "FF",
  "_start_urls": [
"https://bcinform.ru/spb/prodazha-pomesheniya/",
"https://bcinform.ru/spb/arenda-pomesheniya/",
"https://bcinform.moscow/prodazha-pomesheniya/",
"https://bcinform.moscow/arenda-pomesheniya/",
"https://bcinform.ru/arkhangelsk/prodazha-pomesheniya/",
"https://bcinform.ru/arkhangelsk/arenda-pomesheniya/",
"https://bcinform.ru/astrakhan/prodazha-pomesheniya/",
"https://bcinform.ru/astrakhan/arenda-pomesheniya/",
"https://bcinform.ru/barnaul/prodazha-pomesheniya/",
"https://bcinform.ru/barnaul/arenda-pomesheniya/",
"https://bcinform.ru/belgorod/prodazha-pomesheniya/",
"https://bcinform.ru/belgorod/arenda-pomesheniya/",
"https://bcinform.ru/bryansk/prodazha-pomesheniya/",
"https://bcinform.ru/bryansk/arenda-pomesheniya/",
"https://bcinform.ru/vladivostok/prodazha-pomesheniya/",
"https://bcinform.ru/vladivostok/arenda-pomesheniya/",
"https://bcinform.ru/volgograd/prodazha-pomesheniya/",
"https://bcinform.ru/volgograd/arenda-pomesheniya/",
"https://bcinform.ru/voronezh/prodazha-pomesheniya/",
"https://bcinform.ru/voronezh/arenda-pomesheniya/",
"https://bcinform.ru/gatchina/prodazha-pomesheniya/",
"https://bcinform.ru/gatchina/arenda-pomesheniya/",
"https://ekb.bcinform.ru/prodazha-pomesheniya/",
"https://ekb.bcinform.ru/arenda-pomesheniya/",
"https://bcinform.ru/ivanovo/prodazha-pomesheniya/",
"https://bcinform.ru/ivanovo/arenda-pomesheniya/",
"https://bcinform.ru/izhevsk/prodazha-pomesheniya/",
"https://bcinform.ru/izhevsk/arenda-pomesheniya/",
"https://bcinform.ru/irkutsk/prodazha-pomesheniya/",
"https://bcinform.ru/irkutsk/arenda-pomesheniya/",
"https://bcinform.ru/kazan/prodazha-pomesheniya/",
"https://bcinform.ru/kazan/arenda-pomesheniya/",
"https://bcinform.ru/kaliningrad/prodazha-pomesheniya/",
"https://bcinform.ru/kaliningrad/arenda-pomesheniya/",
"https://bcinform.ru/kemerovo/prodazha-pomesheniya/",
"https://bcinform.ru/kemerovo/arenda-pomesheniya/",
"https://bcinform.ru/kirov/prodazha-pomesheniya/",
"https://bcinform.ru/kirov/arenda-pomesheniya/",
"https://bcinform.ru/kotelniki/prodazha-pomesheniya/",
"https://bcinform.ru/kotelniki/arenda-pomesheniya/",
"https://bcinform.ru/krasnogorsk/prodazha-pomesheniya/",
"https://bcinform.ru/krasnogorsk/arenda-pomesheniya/",
"https://bcinform.ru/krasnodar/prodazha-pomesheniya/",
"https://bcinform.ru/krasnodar/arenda-pomesheniya/",
"https://bcinform.ru/krasnoyarsk/prodazha-pomesheniya/",
"https://bcinform.ru/krasnoyarsk/arenda-pomesheniya/",
"https://bcinform.ru/lipetsk/prodazha-pomesheniya/",
"https://bcinform.ru/lipetsk/arenda-pomesheniya/",
"https://bcinform.ru/lomonosov/prodazha-pomesheniya/",
"https://bcinform.ru/lomonosov/arenda-pomesheniya/",
"https://bcinform.ru/murmansk/prodazha-pomesheniya/",
"https://bcinform.ru/murmansk/arenda-pomesheniya/",
"https://bcinform.ru/mytishchi/prodazha-pomesheniya/",
"https://bcinform.ru/mytishchi/arenda-pomesheniya/",
"https://bcinform.ru/naberezhnyye-chelny/prodazha-pomesheniya/",
"https://bcinform.ru/naberezhnyye-chelny/arenda-pomesheniya/",
"https://bcinform.ru/nizhniy-novgorod/prodazha-pomesheniya/",
"https://bcinform.ru/nizhniy-novgorod/arenda-pomesheniya/",
"https://bcinform.ru/novokuznetsk/prodazha-pomesheniya/",
"https://bcinform.ru/novokuznetsk/arenda-pomesheniya/",
"https://bcinform.ru/novosibirsk/prodazha-pomesheniya/",
"https://bcinform.ru/novosibirsk/arenda-pomesheniya/",
"https://bcinform.ru/omsk/prodazha-pomesheniya/",
"https://bcinform.ru/omsk/arenda-pomesheniya/",
"https://bcinform.ru/orenburg/prodazha-pomesheniya/",
"https://bcinform.ru/orenburg/arenda-pomesheniya/",
"https://bcinform.ru/penza/prodazha-pomesheniya/",
"https://bcinform.ru/penza/arenda-pomesheniya/",
"https://bcinform.ru/perm/prodazha-pomesheniya/",
"https://bcinform.ru/perm/arenda-pomesheniya/",
"https://bcinform.ru/rostov-na-donu/prodazha-pomesheniya/",
"https://bcinform.ru/rostov-na-donu/arenda-pomesheniya/",
"https://bcinform.ru/ryazan/prodazha-pomesheniya/",
"https://bcinform.ru/ryazan/arenda-pomesheniya/",
"https://bcinform.ru/samara/prodazha-pomesheniya/",
"https://bcinform.ru/samara/arenda-pomesheniya/",
"https://bcinform.ru/saratov/prodazha-pomesheniya/",
"https://bcinform.ru/saratov/arenda-pomesheniya/",
"https://bcinform.ru/sevastopol/prodazha-pomesheniya/",
"https://bcinform.ru/sevastopol/arenda-pomesheniya/",
"https://bcinform.ru/simferopol/prodazha-pomesheniya/",
"https://bcinform.ru/simferopol/arenda-pomesheniya/",
"https://bcinform.ru/sochi/prodazha-pomesheniya/",
"https://bcinform.ru/sochi/arenda-pomesheniya/",
"https://bcinform.ru/tolyatti/prodazha-pomesheniya/",
"https://bcinform.ru/tolyatti/arenda-pomesheniya/",
"https://bcinform.ru/tomsk/prodazha-pomesheniya/",
"https://bcinform.ru/tomsk/arenda-pomesheniya/",
"https://bcinform.ru/tula/prodazha-pomesheniya/",
"https://bcinform.ru/tula/arenda-pomesheniya/",
"https://bcinform.ru/tyumen/prodazha-pomesheniya/",
"https://bcinform.ru/tyumen/arenda-pomesheniya/",
"https://bcinform.ru/ulyanovsk/prodazha-pomesheniya/",
"https://bcinform.ru/ulyanovsk/arenda-pomesheniya/",
"https://bcinform.ru/ufa/prodazha-pomesheniya/",
"https://bcinform.ru/ufa/arenda-pomesheniya/",
"https://bcinform.ru/feodosiya/prodazha-pomesheniya/",
"https://bcinform.ru/feodosiya/arenda-pomesheniya/",
"https://bcinform.ru/khabarovsk/prodazha-pomesheniya/",
"https://bcinform.ru/khabarovsk/arenda-pomesheniya/",
"https://bcinform.ru/ximki/prodazha-pomesheniya/",
"https://bcinform.ru/ximki/arenda-pomesheniya/",
"https://bcinform.ru/cheboksary/prodazha-pomesheniya/",
"https://bcinform.ru/cheboksary/arenda-pomesheniya/",
"https://bcinform.ru/chelyabinsk/prodazha-pomesheniya/",
"https://bcinform.ru/chelyabinsk/arenda-pomesheniya/",
"https://bcinform.ru/elektrostal/prodazha-pomesheniya/",
"https://bcinform.ru/elektrostal/arenda-pomesheniya/",
"https://bcinform.ru/yaroslavl/prodazha-pomesheniya/",
"https://bcinform.ru/yaroslavl/arenda-pomesheniya/"
  ],
  "_segment": "",
  "_operation": "",
  "_federal_subject": "",
  "_source": "https://bcinform.ru",
  "project_id": "metaspider",
  "spider_id": "metacrawler",
  "global_settings": {
    "CONCURRENT_REQUESTS": 256,
    "SPLASH_URL": "http://0.0.0.0:8050",
    "LOG_LEVEL": "INFO",
    "AUTOTHROTTLE_ENABLED": false,
    "AUTOTHROTTLE_START_DELAY": 1,
    "AUTOTHROTTLE_MAX_DELAY": 60,
    "AUTOTHROTTLE_TARGET_CONCURRENCY": 256,
    "CONCURRENT_REQUESTS_PER_DOMAIN": 256,
    "RETRY_ENABLED": true,
    "RETRY_HTTP_CODES": [
      500,
      503,
      502,
      504,
      400,
      403,
      408,
      429,
      505,
      303,
      302,
      301,
      404,
      307,
      410,
      502,
      451
    ],
    "HTTPERROR_ALLOWED_CODES": [],
    "RETRY_TIMES": 20,
    "ROBOTSTXT_ENABLED": false,
    "ROBOTSTXT_OBEY": false,
    "REDIRECT_ENABLED": true,
    "COOKIES_ENABLED": true,
    "DOWNLOAD_FAIL_ON_DATALOSS": false,
    "RANDOM_UA_TYPE": "random",
    "DOWNLOAD_TIMEOUT": 60,
    "CLOSESPIDER_ITEMCOUNT": 0,
    "CLOSESPIDER_ERRORCOUNT": 0
  },

  "methods": {
    "crawling_type": "common",
    "allowed_domains": [],
    "proxy_settings": {
      "types": [
        "https"
      ],
      "amount": 10000,
      "save": false},
      "headers": {
                        "cookie": {
                            "type": "string",
                            "value": "beget=begetok"
      }
  }

  },
  "crawl_tree": [{
    "pagination_urls": {
      "path": "(//ul[@class='pagination']/li[@class='active']/following-sibling::li/a[text()!='']/@href)[1]", "methods": {"headers": {
                        "cookie": {
                            "type": "string",
                            "value": "beget=begetok"
      }
  }}
    },
    "item_urls": {
      "path": "//a[@itemprop='url']/@href", "methods": {"headers": {
                        "cookie": {
                            "type": "string",
                            "value": "beget=begetok"
      }
  }}
    }
  }],
  "item_page": {
    "fields": {
            "date_info": {
                "type": "date",
                "time": "now",
                "operations": []
            },
            "date_created" : {
                "type" : "date",
                "path": "//div[@class='lastModify col s12']/text()",
                "time": "from string",
                "regex": "(?<=обновлены\\s)[-\\d]+"
            },
            "federal_subject": {
                "type": "string",
                "path": "//ul[@id='city-dropdown']/li[@class='active']/a/text()"
            },            
            "intown_district": {
              "type" : "list to string",
              "path": "//div[@class='district']//text()"
            },                         
            "address": {
              "type" : "list to string",
              "path": "//div[@class='street']//text()"
            }, 
            "seller": {
              "type" : "list to string",
              "path": "//div[@class='content z-depth-4']//div[@class='name']/text()"
            },      
            "seller_type": {
              "type" : "string",
              "path": "//div[@class='content z-depth-4']//div[@class='name']/span/text()"
            },           
            "operation": {
                "type": "list to string",
                "path": "//li[@class='breadcrumb']/span/a/span/text()",
                "regex": "[Аа]ренда|[Пп]родажа"
            },
            "title_name": {
                "type": "list to string",
                "path": "//title/text()",
                "operations": []
            },
            "description": {
                "type": "string",
                "path": "//div[@class='extended-body']/text()",
                "operations": []
            },             
            "purpose": {
                "type": "string",
                "path": "//div[@class='container-table-indoor active']/preceding-sibling::h2[1]/text()",
                "operations": []
            },
            "source_longitude": {
                "type": "list to string",
                "path": "//main/div/script/text()",
                "regex":"(?<=\"longit\":)[.\\d]+",
                "operations": []
            },  
            "source_latitude": {
                "type": "list to string",
                "path": "//main/div/script/text()",
                "regex":"(?<=\"latit\":)[.\\d]+",
                "operations": []
            },
            "metro_station": {
                "type": "list to string",
                "path": "(//div[@class='metro']//p/text())[2]",
                "regex":"[-\\w\\s()]+(?=\\()",
                "operations": []
            },
            "metro_minutes": {
                "type": "list to string",
                "path": "(//div[@class='metro']//p/text())[2]",
                "regex":"(?<=\\().+(?=\\))",
                "operations": []
            },
            "purpose": {
                "type": "list to string",
                "path": "//div[@class='inner-shadow']/table/tbody/tr/td[count(//div[@class='inner-shadow']/table/thead/tr/th[contains(text(),'Тип')]/preceding-sibling::*)+1]/text()"
            },            
            "floor": {
                "type": "list to string",
                "path": "//div[@class='inner-shadow']/table/tbody/tr/td[count(//div[@class='inner-shadow']/table/thead/tr/th[contains(text(),'Этаж')]/preceding-sibling::*)+1]/text()"
            },  
            "area_total": {
                "type": "float",
                "path": "//div[@class='inner-shadow']/table/tbody/tr/td[count(//div[@class='inner-shadow']/table/thead/tr/th[contains(text(),'Метраж')]/preceding-sibling::*)+1]/text()",
                  "regex":"[.,\\d]+"  
            },  
            "rent_price_per_area": {
                "type": "float",
                "path": "//div[@class='inner-shadow']/table/tbody/tr/td[count(//div[@class='inner-shadow']/table/thead/tr/th[contains(text(),'Руб/м')]/preceding-sibling::*)+1]/text()",
                  "regex":"[.,\\d]+"  
                
            },  
            "price_total_rent": {
                "type": "float",
                "path": "//div[@class='inner-shadow']/table/tbody/tr/td[count(//div[@class='inner-shadow']/table/thead/tr/th[contains(text(),'Руб в мес')]/preceding-sibling::*)+1]/text()",
                  "regex":"[.,\\d]+"  
                
            },                                                  
            "price_total_sale": {
                "type": "float",
                "path": "//div[@class='inner-shadow']/table/tbody/tr/td[count(//div[@class='inner-shadow']/table/thead/tr/th[contains(text(),'Стоимость')]/preceding-sibling::*)+1]/text()",
                "regex":"[.,\\d]+"  
                
            },
            "for_insert": {
                "type": "list to string",
                "path": "//div[@class='bc']/span/a/@href",
                "required": true
            },   
            "for_insert_2": {
                "type": "list to string",
                "path": "//base/@href"
            },                       
            "bc_name": {
                "type": "list to string",
                "path": "normalize-space(//div[@class='bc']//a/text())"
            },            
            "phone": {
                "type" : "phone",
                "path": "//div[@class='phone color-red']//@data-phone"
            }                          
    },
    "follow": [{
            "url_constructor": {
                "insert": {
                    "_place_to_insert_1": {
                        "type": "string",
                        "path": "//base/@href",
                        "regex":"[-.\\w]+(?=bcinform)"
                    },
                    "_place_to_insert_2": {
                        "type": "string",
                        "path": "//div[@class='bc']/span/a/@href"
                    }                    
                }
            },
            "fields": {
                "parking_type": {
                    "type": "string",
                    "path": "//span[contains(text(),'Парковка')]/following-sibling::div/text()",
                    "operations": []
                },
                "ventilation_system": {
                    "type": "string",
                    "path": "//span[contains(text(),'Вентиляция')]/following-sibling::div/text()",
                    "operations": []
                },
                "nds": {
                    "type": "string",
                    "path": "//span[contains(text(),'УСН или НДС')]/following-sibling::div/text()",
                    "operations": []
                },
                "security_type": {
                    "type": "string",
                    "path": "//span[contains(text(),'Охрана')]/following-sibling::div/text()",
                    "operations": []
                },
                "conditioning_type": {
                    "type": "string",
                    "path": "//span[contains(text(),'Кондиционирование')]/following-sibling::div/text()",
                    "operations": []
                },
                "is_internet": {
                    "type": "string",
                    "path": "//span[contains(text(),'Интернет и телефония')]/following-sibling::div/text()",
                    "operations": []
                }
            },
            "methods": {
                "crawling_type": "common",
                "content_type": "html",
                "filter_duplicates": false,
                "allowed_domains": [],
                "proxy_settings": {
                    "types": [
                        "https"
                    ],
                    "amount": 10000,
                    "save": true
                },
                "save_cookies": true

            },
            "url": "https://_place_to_insert_1bcinform.ru/_place_to_insert_2",
            "priority": 10,
            "headers": {
                        "cookie": {
                            "type": "string",
                            "value": "beget=begetok"
                       }
                  }
        }]
    }
}

