 {
    "_task_id": "Бреком, 16.102.2019",
    "_start_urls": [
    	"https://kem.brekom.ru/trade/sale",
    	"https://kem.brekom.ru/trade/rent",
    	"https://kem.brekom.ru/office/sale",
    	"https://kem.brekom.ru/office/rent",
    	"https://kem.brekom.ru/product/sale",
    	"https://kem.brekom.ru/product/rent",
    	"https://kem.brekom.ru/storehouse/sale",
    	"https://kem.brekom.ru/storehouse/rent",
    	"https://kem.brekom.ru/landcom/sale",
    	"https://kem.brekom.ru/landcom/rent",
    	"https://kem.brekom.ru/complex/sale",
    	"https://kem.brekom.ru/complex/rent",
    	"https://kem.brekom.ru/other/sale",
    	"https://kem.brekom.ru/other/rent",
    	"https://kem.brekom.ru/sale?f[with_business]=1"
    ],
    "_segment": "Коммерческая Недвижимость",
    "_operation": "",
    "_federal_subject": "Кемеровская обл",
    "_source": "brekom.ru",
    "project_id": "metaspider",
    "spider_id": "metacrawler",
    "global_settings": {
        "CONCURRENT_REQUESTS": 256,
        "SPLASH_URL": "http://0.0.0.0:8050",
        "LOG_LEVEL": "INFO",
        "AUTOTHROTTLE_ENABLED": false,
        "AUTOTHROTTLE_START_DELAY": 1,
        "AUTOTHROTTLE_MAX_DELAY": 60,
        "AUTOTHROTTLE_TARGET_CONCURRENCY": 256,
        "CONCURRENT_REQUESTS_PER_DOMAIN": 256,
        "RETRY_ENABLED": true,
        "RETRY_HTTP_CODES": [
            500,
            503,
            502,
            504,
            400,
            403,
            408,
            429,
            505,
            303,
            302,
            301,
            404,
            307,
            410,
            502,
            451
        ],
        "HTTPERROR_ALLOWED_CODES": [],
        "RETRY_TIMES": 20,
        "ROBOTSTXT_ENABLED": false,
        "ROBOTSTXT_OBEY": false,
        "REDIRECT_ENABLED": false,
        "COOKIES_ENABLED": false,
        "DOWNLOAD_FAIL_ON_DATALOSS": false,
        "RANDOM_UA_TYPE": "random",
        "DOWNLOAD_TIMEOUT": 60,
        "CLOSESPIDER_ITEMCOUNT": 0,
        "CLOSESPIDER_ERRORCOUNT": 0
    },
    "methods": {
        "crawling_type": "common",
        "allowed_domains": [],
        "proxy_settings": {
            "types": [
                "https"
            ],
            "amount": 10000,
            "save": false
        }
    },
    "crawl_tree": [{
        "pagination_urls": {
            "path": "//li[@class='active']/following-sibling::li[1]/a/@href"
        },
        "item_urls": {
            "path": "//td[@class='domstor_code']/span/a/@href"
        }
    }],
    "item_page": {
        "fields": {
            "address": {
                "type": "list to string",
                "path": "//div[@class='domstor_location_options']/descendant::p/text()",
                "operations": []
            },
            "floor": {
                "type": "string",
                "path": "//th[contains(text(),'Этаж объекта:')]/following-sibling::td/text()",
                "operations": []
            },
            "floors_cnt": {
                "type": "string",
                "path": "//th[contains(text(),'Этажность здания:')]/following-sibling::td/text()",
                "regex": "(?<=до\\s)[\\d]+",
                "operations": []
            },
            "area_total": {
                "type": "float",
                "path": "//th[contains(text(),'Площадь помещений:')]/following-sibling::td/text()",
                "regex": "[\\d.,]+(?=\\sкв)",
                "operations": []
            },
            "land_area": {
                "type": "float",
                "path": "//th[contains(text(),'Площадь земельного участка:')]/following-sibling::td/text()",
                "operations": []
            },
            "ceiling_height": {
                "type": "float",
                "path": "//th[contains(text(),'Высота помещений:')]/following-sibling::td/text()",
                "operations": []
            },            
            "operation": {
                "type": "string",
                "path": "///div[@class='domstor_object_head']/p/text()",
                "regex": "Аренда|Продажа",
                "operations": []
            },
            "type_of_build": {
                "type": "string",
                "path": "//th[contains(text(),'Особенности размещения:')]/following-sibling::td/text()",
                "operations": []
            },
            "is_plumbing": {
                "type": "string",
                "path": "//th[contains(text(),'Водоснабжение:')]/following-sibling::td/text()",
                "operations": []
            },
            "is_sewage": {
                "type": "string",
                "path": "//th[contains(text(),'Канализация:')]/following-sibling::td/text()",
                "operations": []
            },
            "is_internet": {
                "type": "string",
                "path": "//th[contains(text(),'Интернет')]/following-sibling::td/text()",
                "operations": []
            },
            "ventilation_system": {
                "type": "string",
                "path": "//th[contains(text(),'Вентиляция:')]/following-sibling::td/text()",
                "operations": []
            },                          
            "decoration_type": {
                "type": "string",
                "path": "//th[contains(text(),'Состояние:')]/following-sibling::td/text()",
                "operations": []
            },
            "parking_type": {
                "type": "string",
                "path": "//th[contains(text(),'Парковка:')]/following-sibling::td/text()",
                "operations": []
            },
            "title_name": {
                "type": "string",
                "path": "///div[@class='domstor_object_head']/p/text()",
                "operations": []
            },
            "sub_segment": {
                "type": "string",
                "path": "//h1/text()",
                "operations": []
            },
            "price_total_sale": {
                "type": "float",
                "path": "//th[contains(text(),'Цена:')]/following-sibling::td/text()",
                "regex": "[\\d]+",
                "operations": []
            },
            "price_total_rent": {
                "type": "float",
                "path": "//th[contains(text(),'Арендная ставка:')]/following-sibling::td/text()",
                "regex": "[\\d]+",
                "operations": []
            },            
            "rent_price_per_area_sale": {
                "type": "float",
                "path": "//th[contains(text(),'Цена за кв.м:')]/following-sibling::td/text()",
                "regex": "[\\d]+",
                "operations": []
            },
            "rent_price_per_area_rent": {
                "type": "float",
                "path": "//th[contains(text(),'Арендная ставка за кв.м:')]/following-sibling::td/text()",
                "regex": "[\\d]+",
                "operations": []
            },            
            "description": {
                "type": "list to string",
                "path": "//h3[contains(text(),'Комментарий:')]/parent::div/descendant::td/text()",
                "operations": []
            },
            "date_info": {
                "type": "date",
                "time": "now",
                "operations": []
            },
            "date_created": {
                "type": "date",
                "path": "//p[contains(text(),'Обновлено:')]/text()",
                "time": "from string",
                "regex": "(?<=:\\s).+",
                "operations": []
            },
            "is_electricity": {
                "type": "string",
                "path": "//th[contains(text(),'Электроснабжение:')]/text()",
                "operations": []
            },
            "electricity_power": {
                "type": "string",
                "path": "//th[contains(text(),'Мощность:')]/following-sibling::td/text()",
                "regex": "[\\d., ]+",
                "operations": []
            },
            "wall_material": {
                "type": "string",
                "path": "//th[contains(text(),'Материал наружных стен:')]/following-sibling::td/text()",
                "operations": []
            },
            "slabs_type": {
                "type": "string",
                "path": "//th[contains(text(),'Материал перекрытий:')]/following-sibling::td/text()",
                "operations": []
            },
            "toilet_cnt": {
                "type": "string",
                "path": "//th[contains(text(),'Количество санузлов:')]/following-sibling::td/text()",
                "operations": []
            },                        
            "security_type": {
                "type": "string",
                "path": "//th[contains(text(),'Охрана:')]/following-sibling::td/text()",
                "operations": []
            },
            "is_gas": {
                "type": "string",
                "path": "//th[contains(text(),'Газоснабжение:')]/following-sibling::td/text()",
                "operations": []
            },            
            "purpose": {
                "type": "list to string",
                "path": "//th[contains(text(),'Фактическое использование земельного участка:')]/following-sibling::td/text()",
                "operations": []
            },                         
            "year_built": {
                "type": "float",
                "path": "//th[contains(text(),'Год постройки:')]/following-sibling::td/text()",
                "operations": []
            },
            "seller_name": {
                "type": "list to string",
                "path": "//p[contains(text(),'Агент:')]/text()",
                "regex": "(?<=:).+",
                "operations": []
            },
            "company_name": {
                "type": "list to string",
                "path": "//p[contains(text(),'Агентство:')]//text()",
                "regex": "(?<=:).+",
                "operations": []
            },
            "email": {
                "type": "list to string",
                "path": "//p[contains(text(),'Эл. почта:')]/a/text()",
                "operations": []
            },             
            "phone": {
                "type": "list to string",
                "path": "//p[contains(text(),'Телефон:')]//text()",
                "regex": "[-\\d\\s()+]+",
                "operations": []
            }
        }
    }
 }