{
        "_task_id": "",
        "_start_urls": [

          "https://chersonese.ru/kommercheskaya-sevastopol-krim-hersones"

        ],
        "_segment": "Коммерческая недвижимость",
        "_operation": "",
        "_federal_subject": "",
        "_source": "https://chersonese.ru",
        "project_id": "metaspider",
        "spider_id": "metacrawler",
        "global_settings": {
            "CONCURRENT_REQUESTS": 128,
            "SPLASH_URL": "http://0.0.0.0:8050",
            "LOG_LEVEL": "INFO",
            "AUTOTHROTTLE_ENABLED": true,
            "AUTOTHROTTLE_START_DELAY": 1,
            "AUTOTHROTTLE_MAX_DELAY": 60,
            "AUTOTHROTTLE_TARGET_CONCURRENCY": 128,
            "CONCURRENT_REQUESTS_PER_DOMAIN": 128,
            "RETRY_ENABLED": true,
            "RETRY_HTTP_CODES": [
                500,
                503,
                504,
                400,
                403,
                408,
                429,
                505,
                404,
                303,
                302,
                301,
                307,
                410,
                451
            ],
            "HTTPERROR_ALLOWED_CODES": [],
            "RETRY_TIMES": 20,
            "ROBOTSTXT_ENABLED": false,
            "ROBOTSTXT_OBEY": false,
            "REDIRECT_ENABLED": true,
            "COOKIES_ENABLED": true,
            "DOWNLOAD_FAIL_ON_DATALOSS": false,
            "RANDOM_UA_TYPE": "random",
            "DOWNLOAD_TIMEOUT": 60,
            "CLOSESPIDER_ITEMCOUNT": 0,
            "CLOSESPIDER_ERRORCOUNT": 0
        },
            "methods": {
            "crawling_type": "common",
            "allowed_domains": [],
            "proxy_settings": {
                  "types": [
                        "https"
                  ]
            }
      },
      "crawl_tree": [
           {
               "pagination_urls": {
                       "path":"//ul[contains(@class,'pagination')]/li[@class='active']/following-sibling::li[1]/a/@href"
               },
               "item_urls": {
                       "path": "//div[@class='wrapper__content']//h5/a/@href"
               }
           }],
        "item_page": {
            "fields": {
                "operation": {
                    "type": "list to string",
                    "path": "//div[contains(@class,'range')]/div/div/h5/text()",
                    "regex": "[Пп]родажа|[Аа]ренда",
                    "operations": []
                },
                "price_total": {
                    "type": "float",
                    "path": "//td[text()='Стоимость']/following-sibling::td/text()",
                    "regex": "^[\\d\\s]+",
                    "required": true,
                    "operations": []
                },
                "rent_price_per_area": {
                    "type": "float",
                    "path": "//td[text()='Стоимость за кв.м.']/following-sibling::td/text()",
                    "regex": "^[\\d\\s]+",
                    "operations": []
                },
                "area_total": {
                    "type": "float",
                    "path": "//td[contains(text(),'Площадь')]/following-sibling::td/text()",
                    "operations": []
                },
               "floor": {
                    "type": "list to string",
                    "path": "//td[text()='Этаж']/following-sibling::td/text()",
                    "operations": []
                },
               "floors_cnt": {
                    "type": "list to string",
                    "path": "//td[text()='Этажность']/following-sibling::td/text()",
                    "operations": []
                },
                "federal_subject": {
                    "type": "string",
                    "value": "Севастополь г"
                },
                "address": {
                    "type": "list to string",
                    "path": "//div[contains(@class,'yandex-map')]//input[@id='address']/@value",
                    "operations": []
                },
                "source_latitude": {
                    "type": "float",
                    "path": "//div[contains(@class,'yandex-map')]//input[@id='latitude']/@value",
                    "operations": []
                },
                "source_longitude": {
                    "type": "float",
                    "path": "//div[contains(@class,'yandex-map')]//input[@id='longitude']/@value",
                    "operations": []
                },
                "description": {
                    "type": "list to string",
                    "path": "//h5[text()='Описание']/following-sibling::p//text()",
                    "operations": []
                },
                "title_name": {
                    "type": "list to string",
                    "path": "//title/text()",
                    "operations": []
                },
                "seller_name": {
                    "type": "list to string",
                    "path": "//div[@class='unit-body']//h5/text()",
                    "operations": []
                },
                "phone": {
                    "type": "phone",
                    "path": "//div[@class='unit-body']//a[contains(@href,'callto')]/text()",
                    "operations": []
                },
                "email": {
                    "type": "list to string",
                    "path": "//div[@class='unit-body']//a[contains(@href,'mailto')]/text()",
                    "operations": []
                },
                "layout_type": {
                    "type": "list to string",
                    "path": "//td[text()='Планировка']/following-sibling::td/text()",
                    "operations": []
                },
                "decoration_type": {
                    "type": "list to string",
                    "path": "//td[text()='Ремонт']/following-sibling::td/text()",
                    "operations": []
                },
                "building_type": {
                    "type": "list to string",
                    "path": "//td[text()='Тип Здания']/following-sibling::td/text()",
                    "operations": []
                },
                "private_entrance": {
                    "type": "list to string",
                    "path": "//td[text()='Вход в помещение']/following-sibling::td/text()",
                    "operations": []
                },
                "entrance_cnt": {
                    "type": "float",
                    "path": "//td[text()='Кол-во входных групп']/following-sibling::td/text()",
                    "operations": []
                },
                "object_class": {
                    "type": "list to string",
                    "path": "//td[text()='Класс здания']/following-sibling::td/text()",
                    "operations": []
                },
                "is_plumbing": {
                    "type": "list to string",
                    "path": "//td[text()='Наличие воды']/following-sibling::td/text()",
                    "operations": []
                },
                "electricity_power": {
                    "type": "float",
                    "path": "//td[text()='Напряжение, кВт']/following-sibling::td/text()",
                    "operations": []
                },
                "ceiling_height": {
                    "type": "list to string",
                    "path": "//td[text()='Высота потолков м.']/following-sibling::td/text()",
                    "operations": []
                },
                "heating_system_type": {
                    "type": "list to string",
                    "path": "//td[text()='Отопление']/following-sibling::td/text()",
                    "operations": []
                },
                "purpose": {
                    "type": "list to string",
                    "path": "//td[text()='Тип коммерческой']/following-sibling::td/text()",
                    "operations": []
                },
                "date_info": {
                    "type": "date",
                    "time": "now",
                    "operations": []
                }
            }
        }
    }