{
  "_task_id": "",
  "_start_urls": [""],
  "_segment": "",
  "_operation": "",
  "_federal_subject": "",
  "_source": "Domclick",
  "global_settings": {
    "CONCURRENT_REQUESTS": 1000,
    "CONCURRENT_REQUESTS_PER_DOMAIN": 1000,
    "DOWNLOAD_TIMEOUT": 120,
    "SPLASH_URL": "http://0.0.0.0:8050",
    "LOG_LEVEL": "INFO",
    "AUTOTHROTTLE_ENABLED": true,
    "AUTOTHROTTLE_START_DELAY": 1.0,
    "AUTOTHROTTLE_MAX_DELAY": 60,
    "AUTOTHROTTLE_TARGET_CONCURRENCY": 1000,
    "HTTPERROR_ALLOWED_CODES": [],
    "RETRY_ENABLED": true,
    "RETRY_TIMES": 20,
    "RETRY_HTTP_CODES": [
      500,
      503,
      504,
      400,
      403,
      408,
      429,
      505,
      404,
      303,
      302,
      301,
      511,
      407,
      307,
      502
    ],
    "ROBOTSTXT_ENABLED": false,
    "ROBOTSTXT_OBEY": false,
    "REDIRECT_ENABLED": false,
    "COOKIES_ENABLED": false,
    "CLOSESPIDER_ITEMCOUNT": 0,
    "RANDOM_UA_TYPE": "random"
  },
  "methods": {
    "crawling_type": "common",
    "allowed_domains": [],
    "proxy_settings": {
      "types": [
        "https"
      ]
    }
  },
  "sitemap_urls": {
    "start": ["https://domclick.ru/robots.txt"],
    "type": "robots",
    "target": "robots",
    "crawl_tree": {
      "robots": {
        "targets": {
          "sitemap": {
            "type": "sitemap"
          }
        }
      },
      "sitemap": {
        "targets": {
          "sitemap_2": {
            "type": "sitemap"
          }
        }
      },
      "sitemap_2": {
        "targets": {
          "pagination": {
            "type": "pagination",
            "filters": [
"arenda/ofisa","pokupka/ofisa",
"arenda/torgovogo-pomeshcheniya","pokupka/torgovogo-pomeshcheniya",
"arenda/sklada","pokupka/sklada",
"arenda/pomeshcheniya-svobodnogo-naznacheniya","pokupka/pomeshcheniya-svobodnogo-naznacheniya", 
"arenda/pomeshcheniya-obshchestvennogo-pitaniya","pokupka/pomeshcheniya-obshchestvennogo-pitaniya",
"arenda/proizvodstva","pokupka/proizvodstva",
"arenda/gostinicy","pokupka/gostinicy",
"arenda/kommercheskoj-nedvizhimosti","pokupka/kommercheskoj-nedvizhimosti"]
          }
        }
      },
      "pagination": {
        "targets": {
          "pagination": {
            "type": "pagination",
            "path": "//a[@rel='next']/@href"
          },
          "item": {
            "type": "item",
            "path": "//div[@class='listing__list']/div/a/@href"
          }

        }
      },
      "item": {},
      "item_2":{}
    }
  },
  "item_page": {
    "fields": {
      "date_info": {
        "type": "date",
        "time": "now"
      },
      "date_created": {
        "type": "date",
        "path": "//script[contains(text(),'publishedDate')]/text()",
        "regex":"(?<=publishedDate\":\")[\\d]{4}[-\\d]+",
        "time": "from string"
      },
      "date_created_str": {
        "type": "date",
        "path": "//div[@class='subline__item']/text()",
        "time": "from string"
      },      
      "date_history_old": {
        "type": "date",
        "path": "(//tr[@class='price-history__row']/td/text())[last()]",
        "time": "from string"
      },
      "date_history_new": {
        "type": "date",
        "path": "(//tr[@class='price-history__row']/td/text())[1]",
        "time": "from string"
      },                      
      "source_longitude": {
        "type": "string",
        "path": "//script[contains(text(),'position')]/text()",
        "regex": "(?<=\"lon\":)[\\d.]+"
      },
      "source_latitude": {
        "type": "string",
        "path": "//script[contains(text(),'position')]/text()",
        "regex": "(?<=\"lat\":)[\\d.]+"
      },              
      "federal_subject": {
        "type": "string",
        "path": "(//a[@class='breadcrumbs__item']/text())[1]"
      },
      "address": {
        "type": "list to string",
        "path": "//div[@class='product-location__address']/span/text()"
      },      
      "area_total": {
        "type": "float",
        "path": "(//span[text()='Площадь']/preceding-sibling::div/text())[1]",
        "regex": "[\\d\\s.,]+"
      },
       "square_dimension": {
        "type": "string",
        "path": "(//span[text()='Площадь']/preceding-sibling::div/text())[1]",
        "regex": "[\\D]+"
      },
      "land_area": {
        "type": "float",
        "path": "//span[text()='Площадь']/following-sibling::span/text()",
        "regex": "[\\d\\s.,]+"
      },
       "square_land_dimension": {
        "type": "string",
        "path": "//span[text()='Площадь']/following-sibling::span/text()",
        "regex": "[\\D]+"
      },                 
      "price_total": {
        "type": "float",
        "path": "//div[@class='desktop']/meta[@itemprop='price']/@content"
      },
      "price_term": {
        "type": "list to string",
        "path": "//div[@class='desktop']/div/div/span/text()",
        "regex":"[\\D]+"
      },
      "price_currency": {
        "type": "string",
        "path": "//div[@class='desktop']/meta[@itemprop='priceCurrency']/@content"
      },
      "rent_price_per_area": {
        "type": "float",
        "path": "(//div[@data-test='square-price'])[1]",
        "regex": "[\\d\\s.,]+"
      },  
      "rent_price_per_area_year": {
        "type": "float",
        "path": "(//div[@data-test='square-price-for-year'])[1]",
        "regex": "[\\d\\s.,]+"
      },
      "title_name": {
        "type": "string",
        "path": "substring-before(//title,'– Домклик')"
      },
      "description": {
        "type": "list to string",
        "path": "//div[@id='description']/text()"
      },
      "seller_name": {
        "type": "list to string",
        "path": "//aside[@class='product-page__telephony']/descendant::div[contains(@style,'background-color')]/following-sibling::div/text()|(//a[@class='TquWs'])[1]"
      },
      "company_name": {
        "type": "string",
         "path": "(//p[@class='seller__name']/text())[1]"
      },      
      "purpose": {
        "type": "list to string",
        "path": "//meta[@itemprop='category']/@content"
      },
      "operation": {
        "type": "list to string",
        "path": "//div[@class='card-header']//a[@class='breadcrumbs__item']/text()",
        "regex": "Аренда|Продажа"
      },
      "floors": {
        "type": "float",
        "path": "//span[text()='Этаж']/following-sibling::span/text()"
      }, 
      "floors_cnt": {
        "type": "float",
        "path": "//span[text()='Этажность']/following-sibling::span/text()"
      },    
      "rooms_cnt": {
        "type": "float",
        "path": "//span[text()='Комнат в помещении']/following-sibling::span/text()"
      },
      "electricity_power": {
        "type": "float",
        "path": "//li[text()='Мощность']/text()"
      },                     
      "is_ventilation": {
        "type": "string",
        "path": "//li[text()='Вентиляция']/text()"
      },
      "is_conditioning": {
        "type": "string",
        "path": "//li[text()='Кондиционер']/text()"
      },
      "is_internet": {
        "type": "string",
        "path": "//li[text()='Интернет']/text()"
      },               
      "private_entrance": {
        "type": "string",
        "path": "//span[text()='Вход в помещение']/following-sibling::span/text()"
      },
      "object_class": {
        "type": "string",
        "path": "//span[contains(text(),'Класс')]/following-sibling::span//text()"
      },
      "decoration_type": {
        "type": "string",
        "path": "//span[contains(text(),'Состояние')]/following-sibling::span//text()"
      },
      "heating_system_type": {
        "type": "string",
        "path": "//span[contains(text(),'Отопление')]/following-sibling::span//text()"
      },
      "is_sewage": {
        "type": "string",
        "path": "//span[contains(text(),'Канализация')]/following-sibling::span//text()"
      },
      "is_plumbing": {
        "type": "string",
        "path": "//span[contains(text(),'Водопровод')]/following-sibling::span//text()"
      },            
      "firefighting": {
        "type": "string",
        "path": "//li[text()='Пожарная сигнализация']/text()"
      },
      "agent_fee": {
        "type": "string",
        "path": "//span[contains(text(),'Комиссия')]/following-sibling::span//text()"
      },
      "building_type": {
        "type": "string",
        "path": "//span[contains(text(),'Тип здания')]/following-sibling::span//text()"
      }, 
      "year_built": {
        "type": "float",
        "path": "//span[contains(text(),'Год постройки')]/following-sibling::span//text()"
      },            
      "parking_type": {
        "type": "string",
        "path": "//span[contains(text(),'Парковка')]/following-sibling::span//text()"
      },            
      "metro_station": {
        "type": "string",
        "path": "(//span[@class='PAT-G']/text())[1]"
      },
      "metro_minutes": {
        "type": "float",
        "path": "(//span[@class='PAT-G']/span[contains(.,'мин')])[1]/text()",
        "regex":"[-\\d\\s]+(?=\\sмин)"
      }      
    },
    "follow": [{
      "url_constructor": {
        "insert": {
          "place_to_insert": {
            "type": "string",
            "path": "//script[contains(text(),'window.__data')]",
            "regex": "(?<=\"_id\":)[\\d]+"
          }
        }
      },
      "fields": {
        "phone": {
          "type": "phone",
          "path": "result",
          "regex": "(?<='phone':\\s')[-+\\d\\s()]+"
        }
      },
      "methods": {
        "crawling_type": "post",
        "content_type": "json",
        "filter_duplicates": false,
        "allowed_domains": [],
        "proxy_settings": {
          "save": true
        },
        "save_cookies": true
      },
      "url": "https://offers-service.domclick.ru/research/v1/offers/phone/place_to_insert"
    }]
  }
}