{
        "_task_id": "0000-0005-0274&T0118&1_D",
        "_start_urls": [

            "https://www.farpost.ru/realty/sell_business_realty/",
            "https://www.farpost.ru/realty/sale_garage/",
            "https://www.farpost.ru/realty/rent_business_realty/",
            "https://www.farpost.ru/realty/rent_garage/"

        ],
        "_segment": "Коммерческая Недвижимость",
        "_operation": "",
        "_federal_subject": "",
        "_source": "http://www.farpost.ru",
        "project_id": "metaspider",
        "spider_id": "metacrawler",
        "global_settings": {
            "CONCURRENT_REQUESTS": 256,
            "SPLASH_URL": "http://0.0.0.0:8050",
            "LOG_LEVEL": "INFO",
            "AUTOTHROTTLE_ENABLED": true,
            "AUTOTHROTTLE_START_DELAY": 1,
            "AUTOTHROTTLE_MAX_DELAY": 60,
            "AUTOTHROTTLE_TARGET_CONCURRENCY": 256,
            "CONCURRENT_REQUESTS_PER_DOMAIN": 256,
            "RETRY_ENABLED": true,
            "RETRY_HTTP_CODES": [
                500,
                503,
                504,
                400,
                403,
                408,
                429,
                505,
                404,
                303,
                302,
                301,
                307,
                410,
                451
            ],
            "HTTPERROR_ALLOWED_CODES": [],
            "RETRY_TIMES": 20,
            "ROBOTSTXT_ENABLED": false,
            "ROBOTSTXT_OBEY": false,
            "REDIRECT_ENABLED": true,
            "COOKIES_ENABLED": true,
            "DOWNLOAD_FAIL_ON_DATALOSS": false,
            "RANDOM_UA_TYPE": "random",
            "DOWNLOAD_TIMEOUT": 60,
            "CLOSESPIDER_ITEMCOUNT": 0,
            "CLOSESPIDER_ERRORCOUNT": 0
        },
            "methods": {
            "crawling_type": "common",
            "allowed_domains": [],
            "proxy_settings": {
                  "types": [
                        "https"
                  ]
            }
      },
      "crawl_tree": [
           {
               "pagination_urls": {
                       "path":"//link[@rel='next']/@href"
               },
               "item_urls": {
                       "path": "//div[@class='text']/div[@class='title']/a/@href | //tbody/tr/td[@class='descriptionCell']/a/@href"
               }
           }],

        "item_page": {
            "fields": {
                "address": {
                    "type": "string",
                    "path": "//div[text()= 'Адрес']/following-sibling::div//a/text()",
                    "operations": []
                },
                "federal_subject": {
                    "type": "string",
                    "path": "//div[@class='popButton cityPop']/text()",
                    "operations": []
                },
                "sub_segment": {
                    "type": "string",
                    "path": "//div[@id='breadcrumbs']//a[last()]/preceding-sibling::a[1]/span/text()",
                    "operations": []
                },
                "description": {
                    "type": "list to string",
                    "path": "//p[@class='inplace mod__label_up_down auto-shy']/text()",
                    "regex": "[а-яА-Яй0-9,.-]+",
                    "operations": []
                },
                "purpose": {
                    "type": "string",
                    "path": "(//span[@data-field = 'flatType']/text())[1]",
                    "regex": "\\w+",
                    "operations": []
                },
                "area_total": {
                    "type": "float",
                    "path": "(//span[@data-field = 'areaTotal']/text())[1]",
                    "regex": "\\d+",
                    "operations": []
                },
                "seller_name": {
                    "type": "list to string",
                    "path": "//div[@class='seller-info']//span//a/text()",
                    "operations": []
                },
                "agent_fee": {
                    "type": "float",
                    "path": "(//span[@class='viewbull-summary-price__notice']/text())[1]",
                    "regex": "\\d*\\W?\\d+",
                    "operations": []
                },
                "date_info": {
                    "type": "date",
                    "time": "now",
                    "operations": []
                },
                "date_created": {
                    "type": "date",
                    "path": "//span[@class='viewbull-header__actuality']/text()",
                    "time": "from string",
                    "operations": []
                },
                "date_created_2": {
                    "type": "date",
                    "path": "//span[@class='viewbull-header__actuality']/text()",
                    "regex": "[\\w:\\s]+",
                    "time": "from string",
                    "operations": []
                },                 
                "title_name": {
                    "type": "list to string",
                    "path": "//h1[@class='subject viewbull-field__container']//span[@class='inplace auto-shy']//text()",
                    "operations": []
                },
                "price_total": {
                    "type": "float",
                    "path": "(//div[@class='viewbull-summary']/descendant::i[contains(text(),'')]/parent::span/text())[1]",
                    "operations": []
                },
                "appliances": {
                    "type": "list to string",
                    "path": "//td[@class='bulletinCell']//p[@data-field='realtyFurnitureAndHousehold']/text()",
                    "operations": []
                },
                "currency": {
                    "type": "string",
                    "path": "(//span[@class='viewbull-summary-price__value']//i[contains(@class,'currency')]/text())[1]",
                    "operations": []
                },
                "address_city": {
                    "type": "string",
                    "path": "//div[@class='popButton cityPop']/text()",
                    "operations": []
                },
                "price_term": {
                    "type": "string",
                    "path": "//span[@class='viewbull-summary-price__quantity']/text()",
                    "operations": []
                }
            },
            "follow": [
                {
                    "url_constructor": {
                        "insert": {
                            "_place_to_insert": {
                                "type": "string",
                                "path": "//a[contains(@class, 'viewAjaxContacts')]/@href"
                            }
                        }
                    },
                    "fields": {
                        "phone": {
                            "type": "phone",
                            "path": "//*[contains(@class, 'new-contact__phone') or @class='phone']/text()"
                        }
                    },
                    "methods": {
                        "crawling_type": "common",
                        "content_type": "html",
                        "filter_duplicates": false,
                        "allowed_domains": [],
                        "proxy_settings": {
                            "types": [
                                "https"
                            ],
                            "amount": 10000,
                            "save": true
                        },
                        "save_cookies": true
                    },
                    "url": "https://www.farpost.ru_place_to_insert"
                }
            ]
        }
    }