{
  "_task_id": "333",
  "_start_urls": [
    "https://adigea.mlsn.ru/prodazha-1-komnatnye-kvartiry/",
    "https://altay.mlsn.ru/prodazha-1-komnatnye-kvartiry/",
    "https://altkray.mlsn.ru/prodazha-1-komnatnye-kvartiry/",
    "https://amur.mlsn.ru/prodazha-1-komnatnye-kvartiry/",
    "https://arh.mlsn.ru/prodazha-1-komnatnye-kvartiry/",
    "https://astrahan.mlsn.ru/prodazha-1-komnatnye-kvartiry/",
    "https://belgorod.mlsn.ru/prodazha-1-komnatnye-kvartiry/",
    "https://brn.mlsn.ru/prodazha-1-komnatnye-kvartiry/",
    "https://bryansk.mlsn.ru/prodazha-1-komnatnye-kvartiry/",
    "https://chechnya.mlsn.ru/prodazha-1-komnatnye-kvartiry/",
    "https://chelyabinsk.mlsn.ru/prodazha-1-komnatnye-kvartiry/",
    "https://chuk.mlsn.ru/prodazha-1-komnatnye-kvartiry/",
    "https://chuvash.mlsn.ru/prodazha-1-komnatnye-kvartiry/",
    "https://dagestan.mlsn.ru/prodazha-1-komnatnye-kvartiry/",
    "https://ekb.mlsn.ru/prodazha-1-komnatnye-kvartiry/",
    "https://erveyskaya.mlsn.ru/prodazha-1-komnatnye-kvartiry/",
    "https://habarovsk.mlsn.ru/prodazha-1-komnatnye-kvartiry/",
    "https://hakasia.mlsn.ru/prodazha-1-komnatnye-kvartiry/",
    "https://hanti.mlsn.ru/prodazha-1-komnatnye-kvartiry/",
    "https://ingush.mlsn.ru/prodazha-1-komnatnye-kvartiry/",
    "https://irkutsk.mlsn.ru/prodazha-1-komnatnye-kvartiry/",
    "https://ivanovo.mlsn.ru/prodazha-1-komnatnye-kvartiry/",
    "https://izh.mlsn.ru/prodazha-1-komnatnye-kvartiry/",
    "https://kabardbalk.mlsn.ru/prodazha-1-komnatnye-kvartiry/",
    "https://kaliningrad.mlsn.ru/prodazha-1-komnatnye-kvartiry/",
    "https://kalmikiya.mlsn.ru/prodazha-1-komnatnye-kvartiry/",
    "https://kaluga.mlsn.ru/prodazha-1-komnatnye-kvartiry/",
    "https://karachaevo.mlsn.ru/prodazha-1-komnatnye-kvartiry/",
    "https://karelia.mlsn.ru/prodazha-1-komnatnye-kvartiry/",
    "https://kazan.mlsn.ru/prodazha-1-komnatnye-kvartiry/",
    "https://kemerovo.mlsn.ru/prodazha-1-komnatnye-kvartiry/",
    "https://kirov.mlsn.ru/prodazha-1-komnatnye-kvartiry/",
    "https://komi.mlsn.ru/prodazha-1-komnatnye-kvartiry/",
    "https://kostroma.mlsn.ru/prodazha-1-komnatnye-kvartiry/",
    "https://krasnodar.mlsn.ru/prodazha-1-komnatnye-kvartiry/",
    "https://krasnodarkray.mlsn.ru/prodazha-1-komnatnye-kvartiry/",
    "https://krs.mlsn.ru/prodazha-1-komnatnye-kvartiry/",
    "https://krym.mlsn.ru/prodazha-1-komnatnye-kvartiry/",
    "https://kurgan.mlsn.ru/prodazha-1-komnatnye-kvartiry/",
    "https://kursk.mlsn.ru/prodazha-1-komnatnye-kvartiry/",
    "https://lenobl.mlsn.ru/prodazha-1-komnatnye-kvartiry/",
    "https://lipetsk.mlsn.ru/prodazha-1-komnatnye-kvartiry/",
    "https://magadan.mlsn.ru/prodazha-1-komnatnye-kvartiry/",
    "https://modrdoviya.mlsn.ru/prodazha-1-komnatnye-kvartiry/",
    "https://mosobl.mlsn.ru/prodazha-1-komnatnye-kvartiry/",
    "https://msk.mlsn.ru/prodazha-1-komnatnye-kvartiry/",
    "https://murmansk.mlsn.ru/prodazha-1-komnatnye-kvartiry/",
    "https://nenetsk.mlsn.ru/prodazha-1-komnatnye-kvartiry/",
    "https://nizhnevartovsk.mlsn.ru/prodazha-1-komnatnye-kvartiry/",
    "https://nn.mlsn.ru/prodazha-1-komnatnye-kvartiry/",
    "https://novgorod.mlsn.ru/prodazha-1-komnatnye-kvartiry/",
    "https://nsk.mlsn.ru/prodazha-1-komnatnye-kvartiry/",
    "https://nvkz.mlsn.ru/prodazha-1-komnatnye-kvartiry/",
    "https://nvrsk.mlsn.ru/prodazha-1-komnatnye-kvartiry/",
    "https://omsk.mlsn.ru/prodazha-1-komnatnye-kvartiry/",
    "https://orel.mlsn.ru/prodazha-1-komnatnye-kvartiry/",
    "https://orenburg.mlsn.ru/prodazha-1-komnatnye-kvartiry/",
    "https://osetia.mlsn.ru/prodazha-1-komnatnye-kvartiry/",
    "https://penza.mlsn.ru/prodazha-1-komnatnye-kvartiry/",
    "https://perm.mlsn.ru/prodazha-1-komnatnye-kvartiry/",
    "https://pskov.mlsn.ru/prodazha-1-komnatnye-kvartiry/",
    "https://rostov.mlsn.ru/prodazha-1-komnatnye-kvartiry/",
    "https://ryazan.mlsn.ru/prodazha-1-komnatnye-kvartiry/",
    "https://sahalin.mlsn.ru/prodazha-1-komnatnye-kvartiry/",
    "https://samara.mlsn.ru/prodazha-1-komnatnye-kvartiry/",
    "https://saratov.mlsn.ru/prodazha-1-komnatnye-kvartiry/",
    "https://sevastopol.mlsn.ru/prodazha-1-komnatnye-kvartiry/",
    "https://smolensk.mlsn.ru/prodazha-1-komnatnye-kvartiry/",
    "https://sochi.mlsn.ru/prodazha-1-komnatnye-kvartiry/",
    "https://spb.mlsn.ru/prodazha-1-komnatnye-kvartiry/",
    "https://stavropol.mlsn.ru/prodazha-1-komnatnye-kvartiry/",
    "https://surgut.mlsn.ru/prodazha-1-komnatnye-kvartiry/",
    "https://tambov.mlsn.ru/prodazha-1-komnatnye-kvartiry/",
    "https://tatarstan.mlsn.ru/prodazha-1-komnatnye-kvartiry/",
    "https://tiva.mlsn.ru/prodazha-1-komnatnye-kvartiry/",
    "https://tmn.mlsn.ru/prodazha-1-komnatnye-kvartiry/",
    "https://tomsk.mlsn.ru/prodazha-1-komnatnye-kvartiry/",
    "https://tula.mlsn.ru/prodazha-1-komnatnye-kvartiry/",
    "https://tver.mlsn.ru/prodazha-1-komnatnye-kvartiry/",
    "https://ufa.mlsn.ru/prodazha-1-komnatnye-kvartiry/",
    "https://ul.mlsn.ru/prodazha-1-komnatnye-kvartiry/",
    "https://ulanude.mlsn.ru/prodazha-1-komnatnye-kvartiry/",
    "https://vladimir.mlsn.ru/prodazha-1-komnatnye-kvartiry/",
    "https://vladivostok.mlsn.ru/prodazha-1-komnatnye-kvartiry/",
    "https://volgograd.mlsn.ru/prodazha-1-komnatnye-kvartiry/",
    "https://vologda.mlsn.ru/prodazha-1-komnatnye-kvartiry/",
    "https://vrn.mlsn.ru/prodazha-1-komnatnye-kvartiry/",
    "https://yakutia.mlsn.ru/prodazha-1-komnatnye-kvartiry/",
    "https://yamalonenetsk.mlsn.ru/prodazha-1-komnatnye-kvartiry/",
    "https://yaroslavl.mlsn.ru/prodazha-1-komnatnye-kvartiry/",
    "https://yoshkar-ola.mlsn.ru/prodazha-1-komnatnye-kvartiry/",
    "https://zabaykalsk.mlsn.ru/prodazha-1-komnatnye-kvartiry/",

    "https://adigea.mlsn.ru/prodazha-2-komnatnye-kvartiry/",
    "https://altay.mlsn.ru/prodazha-2-komnatnye-kvartiry/",
    "https://altkray.mlsn.ru/prodazha-2-komnatnye-kvartiry/",
    "https://amur.mlsn.ru/prodazha-2-komnatnye-kvartiry/",
    "https://arh.mlsn.ru/prodazha-2-komnatnye-kvartiry/",
    "https://astrahan.mlsn.ru/prodazha-2-komnatnye-kvartiry/",
    "https://belgorod.mlsn.ru/prodazha-2-komnatnye-kvartiry/",
    "https://brn.mlsn.ru/prodazha-2-komnatnye-kvartiry/",
    "https://bryansk.mlsn.ru/prodazha-2-komnatnye-kvartiry/",
    "https://chechnya.mlsn.ru/prodazha-2-komnatnye-kvartiry/",
    "https://chelyabinsk.mlsn.ru/prodazha-2-komnatnye-kvartiry/",
    "https://chuk.mlsn.ru/prodazha-2-komnatnye-kvartiry/",
    "https://chuvash.mlsn.ru/prodazha-2-komnatnye-kvartiry/",
    "https://dagestan.mlsn.ru/prodazha-2-komnatnye-kvartiry/",
    "https://ekb.mlsn.ru/prodazha-2-komnatnye-kvartiry/",
    "https://erveyskaya.mlsn.ru/prodazha-2-komnatnye-kvartiry/",
    "https://habarovsk.mlsn.ru/prodazha-2-komnatnye-kvartiry/",
    "https://hakasia.mlsn.ru/prodazha-2-komnatnye-kvartiry/",
    "https://hanti.mlsn.ru/prodazha-2-komnatnye-kvartiry/",
    "https://ingush.mlsn.ru/prodazha-2-komnatnye-kvartiry/",
    "https://irkutsk.mlsn.ru/prodazha-2-komnatnye-kvartiry/",
    "https://ivanovo.mlsn.ru/prodazha-2-komnatnye-kvartiry/",
    "https://izh.mlsn.ru/prodazha-2-komnatnye-kvartiry/",
    "https://kabardbalk.mlsn.ru/prodazha-2-komnatnye-kvartiry/",
    "https://kaliningrad.mlsn.ru/prodazha-2-komnatnye-kvartiry/",
    "https://kalmikiya.mlsn.ru/prodazha-2-komnatnye-kvartiry/",
    "https://kaluga.mlsn.ru/prodazha-2-komnatnye-kvartiry/",
    "https://karachaevo.mlsn.ru/prodazha-2-komnatnye-kvartiry/",
    "https://karelia.mlsn.ru/prodazha-2-komnatnye-kvartiry/",
    "https://kazan.mlsn.ru/prodazha-2-komnatnye-kvartiry/",
    "https://kemerovo.mlsn.ru/prodazha-2-komnatnye-kvartiry/",
    "https://kirov.mlsn.ru/prodazha-2-komnatnye-kvartiry/",
    "https://komi.mlsn.ru/prodazha-2-komnatnye-kvartiry/",
    "https://kostroma.mlsn.ru/prodazha-2-komnatnye-kvartiry/",
    "https://krasnodar.mlsn.ru/prodazha-2-komnatnye-kvartiry/",
    "https://krasnodarkray.mlsn.ru/prodazha-2-komnatnye-kvartiry/",
    "https://krs.mlsn.ru/prodazha-2-komnatnye-kvartiry/",
    "https://krym.mlsn.ru/prodazha-2-komnatnye-kvartiry/",
    "https://kurgan.mlsn.ru/prodazha-2-komnatnye-kvartiry/",
    "https://kursk.mlsn.ru/prodazha-2-komnatnye-kvartiry/",
    "https://lenobl.mlsn.ru/prodazha-2-komnatnye-kvartiry/",
    "https://lipetsk.mlsn.ru/prodazha-2-komnatnye-kvartiry/",
    "https://magadan.mlsn.ru/prodazha-2-komnatnye-kvartiry/",
    "https://modrdoviya.mlsn.ru/prodazha-2-komnatnye-kvartiry/",
    "https://mosobl.mlsn.ru/prodazha-2-komnatnye-kvartiry/",
    "https://msk.mlsn.ru/prodazha-2-komnatnye-kvartiry/",
    "https://murmansk.mlsn.ru/prodazha-2-komnatnye-kvartiry/",
    "https://nenetsk.mlsn.ru/prodazha-2-komnatnye-kvartiry/",
    "https://nizhnevartovsk.mlsn.ru/prodazha-2-komnatnye-kvartiry/",
    "https://nn.mlsn.ru/prodazha-2-komnatnye-kvartiry/",
    "https://novgorod.mlsn.ru/prodazha-2-komnatnye-kvartiry/",
    "https://nsk.mlsn.ru/prodazha-2-komnatnye-kvartiry/",
    "https://nvkz.mlsn.ru/prodazha-2-komnatnye-kvartiry/",
    "https://nvrsk.mlsn.ru/prodazha-2-komnatnye-kvartiry/",
    "https://omsk.mlsn.ru/prodazha-2-komnatnye-kvartiry/",
    "https://orel.mlsn.ru/prodazha-2-komnatnye-kvartiry/",
    "https://orenburg.mlsn.ru/prodazha-2-komnatnye-kvartiry/",
    "https://osetia.mlsn.ru/prodazha-2-komnatnye-kvartiry/",
    "https://penza.mlsn.ru/prodazha-2-komnatnye-kvartiry/",
    "https://perm.mlsn.ru/prodazha-2-komnatnye-kvartiry/",
    "https://pskov.mlsn.ru/prodazha-2-komnatnye-kvartiry/",
    "https://rostov.mlsn.ru/prodazha-2-komnatnye-kvartiry/",
    "https://ryazan.mlsn.ru/prodazha-2-komnatnye-kvartiry/",
    "https://sahalin.mlsn.ru/prodazha-2-komnatnye-kvartiry/",
    "https://samara.mlsn.ru/prodazha-2-komnatnye-kvartiry/",
    "https://saratov.mlsn.ru/prodazha-2-komnatnye-kvartiry/",
    "https://sevastopol.mlsn.ru/prodazha-2-komnatnye-kvartiry/",
    "https://smolensk.mlsn.ru/prodazha-2-komnatnye-kvartiry/",
    "https://sochi.mlsn.ru/prodazha-2-komnatnye-kvartiry/",
    "https://spb.mlsn.ru/prodazha-2-komnatnye-kvartiry/",
    "https://stavropol.mlsn.ru/prodazha-2-komnatnye-kvartiry/",
    "https://surgut.mlsn.ru/prodazha-2-komnatnye-kvartiry/",
    "https://tambov.mlsn.ru/prodazha-2-komnatnye-kvartiry/",
    "https://tatarstan.mlsn.ru/prodazha-2-komnatnye-kvartiry/",
    "https://tiva.mlsn.ru/prodazha-2-komnatnye-kvartiry/",
    "https://tmn.mlsn.ru/prodazha-2-komnatnye-kvartiry/",
    "https://tomsk.mlsn.ru/prodazha-2-komnatnye-kvartiry/",
    "https://tula.mlsn.ru/prodazha-2-komnatnye-kvartiry/",
    "https://tver.mlsn.ru/prodazha-2-komnatnye-kvartiry/",
    "https://ufa.mlsn.ru/prodazha-2-komnatnye-kvartiry/",
    "https://ul.mlsn.ru/prodazha-2-komnatnye-kvartiry/",
    "https://ulanude.mlsn.ru/prodazha-2-komnatnye-kvartiry/",
    "https://vladimir.mlsn.ru/prodazha-2-komnatnye-kvartiry/",
    "https://vladivostok.mlsn.ru/prodazha-2-komnatnye-kvartiry/",
    "https://volgograd.mlsn.ru/prodazha-2-komnatnye-kvartiry/",
    "https://vologda.mlsn.ru/prodazha-2-komnatnye-kvartiry/",
    "https://vrn.mlsn.ru/prodazha-2-komnatnye-kvartiry/",
    "https://yakutia.mlsn.ru/prodazha-2-komnatnye-kvartiry/",
    "https://yamalonenetsk.mlsn.ru/prodazha-2-komnatnye-kvartiry/",
    "https://yaroslavl.mlsn.ru/prodazha-2-komnatnye-kvartiry/",
    "https://yoshkar-ola.mlsn.ru/prodazha-2-komnatnye-kvartiry/",
    "https://zabaykalsk.mlsn.ru/prodazha-2-komnatnye-kvartiry/",

    "https://adigea.mlsn.ru/prodazha-3-komnatnye-kvartiry/",
    "https://altay.mlsn.ru/prodazha-3-komnatnye-kvartiry/",
    "https://altkray.mlsn.ru/prodazha-3-komnatnye-kvartiry/",
    "https://amur.mlsn.ru/prodazha-3-komnatnye-kvartiry/",
    "https://arh.mlsn.ru/prodazha-3-komnatnye-kvartiry/",
    "https://astrahan.mlsn.ru/prodazha-3-komnatnye-kvartiry/",
    "https://belgorod.mlsn.ru/prodazha-3-komnatnye-kvartiry/",
    "https://brn.mlsn.ru/prodazha-3-komnatnye-kvartiry/",
    "https://bryansk.mlsn.ru/prodazha-3-komnatnye-kvartiry/",
    "https://chechnya.mlsn.ru/prodazha-3-komnatnye-kvartiry/",
    "https://chelyabinsk.mlsn.ru/prodazha-3-komnatnye-kvartiry/",
    "https://chuk.mlsn.ru/prodazha-3-komnatnye-kvartiry/",
    "https://chuvash.mlsn.ru/prodazha-3-komnatnye-kvartiry/",
    "https://dagestan.mlsn.ru/prodazha-3-komnatnye-kvartiry/",
    "https://ekb.mlsn.ru/prodazha-3-komnatnye-kvartiry/",
    "https://erveyskaya.mlsn.ru/prodazha-3-komnatnye-kvartiry/",
    "https://habarovsk.mlsn.ru/prodazha-3-komnatnye-kvartiry/",
    "https://hakasia.mlsn.ru/prodazha-3-komnatnye-kvartiry/",
    "https://hanti.mlsn.ru/prodazha-3-komnatnye-kvartiry/",
    "https://ingush.mlsn.ru/prodazha-3-komnatnye-kvartiry/",
    "https://irkutsk.mlsn.ru/prodazha-3-komnatnye-kvartiry/",
    "https://ivanovo.mlsn.ru/prodazha-3-komnatnye-kvartiry/",
    "https://izh.mlsn.ru/prodazha-3-komnatnye-kvartiry/",
    "https://kabardbalk.mlsn.ru/prodazha-3-komnatnye-kvartiry/",
    "https://kaliningrad.mlsn.ru/prodazha-3-komnatnye-kvartiry/",
    "https://kalmikiya.mlsn.ru/prodazha-3-komnatnye-kvartiry/",
    "https://kaluga.mlsn.ru/prodazha-3-komnatnye-kvartiry/",
    "https://karachaevo.mlsn.ru/prodazha-3-komnatnye-kvartiry/",
    "https://karelia.mlsn.ru/prodazha-3-komnatnye-kvartiry/",
    "https://kazan.mlsn.ru/prodazha-3-komnatnye-kvartiry/",
    "https://kemerovo.mlsn.ru/prodazha-3-komnatnye-kvartiry/",
    "https://kirov.mlsn.ru/prodazha-3-komnatnye-kvartiry/",
    "https://komi.mlsn.ru/prodazha-3-komnatnye-kvartiry/",
    "https://kostroma.mlsn.ru/prodazha-3-komnatnye-kvartiry/",
    "https://krasnodar.mlsn.ru/prodazha-3-komnatnye-kvartiry/",
    "https://krasnodarkray.mlsn.ru/prodazha-3-komnatnye-kvartiry/",
    "https://krs.mlsn.ru/prodazha-3-komnatnye-kvartiry/",
    "https://krym.mlsn.ru/prodazha-3-komnatnye-kvartiry/",
    "https://kurgan.mlsn.ru/prodazha-3-komnatnye-kvartiry/",
    "https://kursk.mlsn.ru/prodazha-3-komnatnye-kvartiry/",
    "https://lenobl.mlsn.ru/prodazha-3-komnatnye-kvartiry/",
    "https://lipetsk.mlsn.ru/prodazha-3-komnatnye-kvartiry/",
    "https://magadan.mlsn.ru/prodazha-3-komnatnye-kvartiry/",
    "https://modrdoviya.mlsn.ru/prodazha-3-komnatnye-kvartiry/",
    "https://mosobl.mlsn.ru/prodazha-3-komnatnye-kvartiry/",
    "https://msk.mlsn.ru/prodazha-3-komnatnye-kvartiry/",
    "https://murmansk.mlsn.ru/prodazha-3-komnatnye-kvartiry/",
    "https://nenetsk.mlsn.ru/prodazha-3-komnatnye-kvartiry/",
    "https://nizhnevartovsk.mlsn.ru/prodazha-3-komnatnye-kvartiry/",
    "https://nn.mlsn.ru/prodazha-3-komnatnye-kvartiry/",
    "https://novgorod.mlsn.ru/prodazha-3-komnatnye-kvartiry/",
    "https://nsk.mlsn.ru/prodazha-3-komnatnye-kvartiry/",
    "https://nvkz.mlsn.ru/prodazha-3-komnatnye-kvartiry/",
    "https://nvrsk.mlsn.ru/prodazha-3-komnatnye-kvartiry/",
    "https://omsk.mlsn.ru/prodazha-3-komnatnye-kvartiry/",
    "https://orel.mlsn.ru/prodazha-3-komnatnye-kvartiry/",
    "https://orenburg.mlsn.ru/prodazha-3-komnatnye-kvartiry/",
    "https://osetia.mlsn.ru/prodazha-3-komnatnye-kvartiry/",
    "https://penza.mlsn.ru/prodazha-3-komnatnye-kvartiry/",
    "https://perm.mlsn.ru/prodazha-3-komnatnye-kvartiry/",
    "https://pskov.mlsn.ru/prodazha-3-komnatnye-kvartiry/",
    "https://rostov.mlsn.ru/prodazha-3-komnatnye-kvartiry/",
    "https://ryazan.mlsn.ru/prodazha-3-komnatnye-kvartiry/",
    "https://sahalin.mlsn.ru/prodazha-3-komnatnye-kvartiry/",
    "https://samara.mlsn.ru/prodazha-3-komnatnye-kvartiry/",
    "https://saratov.mlsn.ru/prodazha-3-komnatnye-kvartiry/",
    "https://sevastopol.mlsn.ru/prodazha-3-komnatnye-kvartiry/",
    "https://smolensk.mlsn.ru/prodazha-3-komnatnye-kvartiry/",
    "https://sochi.mlsn.ru/prodazha-3-komnatnye-kvartiry/",
    "https://spb.mlsn.ru/prodazha-3-komnatnye-kvartiry/",
    "https://stavropol.mlsn.ru/prodazha-3-komnatnye-kvartiry/",
    "https://surgut.mlsn.ru/prodazha-3-komnatnye-kvartiry/",
    "https://tambov.mlsn.ru/prodazha-3-komnatnye-kvartiry/",
    "https://tatarstan.mlsn.ru/prodazha-3-komnatnye-kvartiry/",
    "https://tiva.mlsn.ru/prodazha-3-komnatnye-kvartiry/",
    "https://tmn.mlsn.ru/prodazha-3-komnatnye-kvartiry/",
    "https://tomsk.mlsn.ru/prodazha-3-komnatnye-kvartiry/",
    "https://tula.mlsn.ru/prodazha-3-komnatnye-kvartiry/",
    "https://tver.mlsn.ru/prodazha-3-komnatnye-kvartiry/",
    "https://ufa.mlsn.ru/prodazha-3-komnatnye-kvartiry/",
    "https://ul.mlsn.ru/prodazha-3-komnatnye-kvartiry/",
    "https://ulanude.mlsn.ru/prodazha-3-komnatnye-kvartiry/",
    "https://vladimir.mlsn.ru/prodazha-3-komnatnye-kvartiry/",
    "https://vladivostok.mlsn.ru/prodazha-3-komnatnye-kvartiry/",
    "https://volgograd.mlsn.ru/prodazha-3-komnatnye-kvartiry/",
    "https://vologda.mlsn.ru/prodazha-3-komnatnye-kvartiry/",
    "https://vrn.mlsn.ru/prodazha-3-komnatnye-kvartiry/",
    "https://yakutia.mlsn.ru/prodazha-3-komnatnye-kvartiry/",
    "https://yamalonenetsk.mlsn.ru/prodazha-3-komnatnye-kvartiry/",
    "https://yaroslavl.mlsn.ru/prodazha-3-komnatnye-kvartiry/",
    "https://yoshkar-ola.mlsn.ru/prodazha-3-komnatnye-kvartiry/",
    "https://zabaykalsk.mlsn.ru/prodazha-3-komnatnye-kvartiry/",

    "https://adigea.mlsn.ru/prodazha-4-komnatnye-kvartiry/",
    "https://altay.mlsn.ru/prodazha-4-komnatnye-kvartiry/",
    "https://altkray.mlsn.ru/prodazha-4-komnatnye-kvartiry/",
    "https://amur.mlsn.ru/prodazha-4-komnatnye-kvartiry/",
    "https://arh.mlsn.ru/prodazha-4-komnatnye-kvartiry/",
    "https://astrahan.mlsn.ru/prodazha-4-komnatnye-kvartiry/",
    "https://belgorod.mlsn.ru/prodazha-4-komnatnye-kvartiry/",
    "https://brn.mlsn.ru/prodazha-4-komnatnye-kvartiry/",
    "https://bryansk.mlsn.ru/prodazha-4-komnatnye-kvartiry/",
    "https://chechnya.mlsn.ru/prodazha-4-komnatnye-kvartiry/",
    "https://chelyabinsk.mlsn.ru/prodazha-4-komnatnye-kvartiry/",
    "https://chuk.mlsn.ru/prodazha-4-komnatnye-kvartiry/",
    "https://chuvash.mlsn.ru/prodazha-4-komnatnye-kvartiry/",
    "https://dagestan.mlsn.ru/prodazha-4-komnatnye-kvartiry/",
    "https://ekb.mlsn.ru/prodazha-4-komnatnye-kvartiry/",
    "https://erveyskaya.mlsn.ru/prodazha-4-komnatnye-kvartiry/",
    "https://habarovsk.mlsn.ru/prodazha-4-komnatnye-kvartiry/",
    "https://hakasia.mlsn.ru/prodazha-4-komnatnye-kvartiry/",
    "https://hanti.mlsn.ru/prodazha-4-komnatnye-kvartiry/",
    "https://ingush.mlsn.ru/prodazha-4-komnatnye-kvartiry/",
    "https://irkutsk.mlsn.ru/prodazha-4-komnatnye-kvartiry/",
    "https://ivanovo.mlsn.ru/prodazha-4-komnatnye-kvartiry/",
    "https://izh.mlsn.ru/prodazha-4-komnatnye-kvartiry/",
    "https://kabardbalk.mlsn.ru/prodazha-4-komnatnye-kvartiry/",
    "https://kaliningrad.mlsn.ru/prodazha-4-komnatnye-kvartiry/",
    "https://kalmikiya.mlsn.ru/prodazha-4-komnatnye-kvartiry/",
    "https://kaluga.mlsn.ru/prodazha-4-komnatnye-kvartiry/",
    "https://karachaevo.mlsn.ru/prodazha-4-komnatnye-kvartiry/",
    "https://karelia.mlsn.ru/prodazha-4-komnatnye-kvartiry/",
    "https://kazan.mlsn.ru/prodazha-4-komnatnye-kvartiry/",
    "https://kemerovo.mlsn.ru/prodazha-4-komnatnye-kvartiry/",
    "https://kirov.mlsn.ru/prodazha-4-komnatnye-kvartiry/",
    "https://komi.mlsn.ru/prodazha-4-komnatnye-kvartiry/",
    "https://kostroma.mlsn.ru/prodazha-4-komnatnye-kvartiry/",
    "https://krasnodar.mlsn.ru/prodazha-4-komnatnye-kvartiry/",
    "https://krasnodarkray.mlsn.ru/prodazha-4-komnatnye-kvartiry/",
    "https://krs.mlsn.ru/prodazha-4-komnatnye-kvartiry/",
    "https://krym.mlsn.ru/prodazha-4-komnatnye-kvartiry/",
    "https://kurgan.mlsn.ru/prodazha-4-komnatnye-kvartiry/",
    "https://kursk.mlsn.ru/prodazha-4-komnatnye-kvartiry/",
    "https://lenobl.mlsn.ru/prodazha-4-komnatnye-kvartiry/",
    "https://lipetsk.mlsn.ru/prodazha-4-komnatnye-kvartiry/",
    "https://magadan.mlsn.ru/prodazha-4-komnatnye-kvartiry/",
    "https://modrdoviya.mlsn.ru/prodazha-4-komnatnye-kvartiry/",
    "https://mosobl.mlsn.ru/prodazha-4-komnatnye-kvartiry/",
    "https://msk.mlsn.ru/prodazha-4-komnatnye-kvartiry/",
    "https://murmansk.mlsn.ru/prodazha-4-komnatnye-kvartiry/",
    "https://nenetsk.mlsn.ru/prodazha-4-komnatnye-kvartiry/",
    "https://nizhnevartovsk.mlsn.ru/prodazha-4-komnatnye-kvartiry/",
    "https://nn.mlsn.ru/prodazha-4-komnatnye-kvartiry/",
    "https://novgorod.mlsn.ru/prodazha-4-komnatnye-kvartiry/",
    "https://nsk.mlsn.ru/prodazha-4-komnatnye-kvartiry/",
    "https://nvkz.mlsn.ru/prodazha-4-komnatnye-kvartiry/",
    "https://nvrsk.mlsn.ru/prodazha-4-komnatnye-kvartiry/",
    "https://omsk.mlsn.ru/prodazha-4-komnatnye-kvartiry/",
    "https://orel.mlsn.ru/prodazha-4-komnatnye-kvartiry/",
    "https://orenburg.mlsn.ru/prodazha-4-komnatnye-kvartiry/",
    "https://osetia.mlsn.ru/prodazha-4-komnatnye-kvartiry/",
    "https://penza.mlsn.ru/prodazha-4-komnatnye-kvartiry/",
    "https://perm.mlsn.ru/prodazha-4-komnatnye-kvartiry/",
    "https://pskov.mlsn.ru/prodazha-4-komnatnye-kvartiry/",
    "https://rostov.mlsn.ru/prodazha-4-komnatnye-kvartiry/",
    "https://ryazan.mlsn.ru/prodazha-4-komnatnye-kvartiry/",
    "https://sahalin.mlsn.ru/prodazha-4-komnatnye-kvartiry/",
    "https://samara.mlsn.ru/prodazha-4-komnatnye-kvartiry/",
    "https://saratov.mlsn.ru/prodazha-4-komnatnye-kvartiry/",
    "https://sevastopol.mlsn.ru/prodazha-4-komnatnye-kvartiry/",
    "https://smolensk.mlsn.ru/prodazha-4-komnatnye-kvartiry/",
    "https://sochi.mlsn.ru/prodazha-4-komnatnye-kvartiry/",
    "https://spb.mlsn.ru/prodazha-4-komnatnye-kvartiry/",
    "https://stavropol.mlsn.ru/prodazha-4-komnatnye-kvartiry/",
    "https://surgut.mlsn.ru/prodazha-4-komnatnye-kvartiry/",
    "https://tambov.mlsn.ru/prodazha-4-komnatnye-kvartiry/",
    "https://tatarstan.mlsn.ru/prodazha-4-komnatnye-kvartiry/",
    "https://tiva.mlsn.ru/prodazha-4-komnatnye-kvartiry/",
    "https://tmn.mlsn.ru/prodazha-4-komnatnye-kvartiry/",
    "https://tomsk.mlsn.ru/prodazha-4-komnatnye-kvartiry/",
    "https://tula.mlsn.ru/prodazha-4-komnatnye-kvartiry/",
    "https://tver.mlsn.ru/prodazha-4-komnatnye-kvartiry/",
    "https://ufa.mlsn.ru/prodazha-4-komnatnye-kvartiry/",
    "https://ul.mlsn.ru/prodazha-4-komnatnye-kvartiry/",
    "https://ulanude.mlsn.ru/prodazha-4-komnatnye-kvartiry/",
    "https://vladimir.mlsn.ru/prodazha-4-komnatnye-kvartiry/",
    "https://vladivostok.mlsn.ru/prodazha-4-komnatnye-kvartiry/",
    "https://volgograd.mlsn.ru/prodazha-4-komnatnye-kvartiry/",
    "https://vologda.mlsn.ru/prodazha-4-komnatnye-kvartiry/",
    "https://vrn.mlsn.ru/prodazha-4-komnatnye-kvartiry/",
    "https://yakutia.mlsn.ru/prodazha-4-komnatnye-kvartiry/",
    "https://yamalonenetsk.mlsn.ru/prodazha-4-komnatnye-kvartiry/",
    "https://yaroslavl.mlsn.ru/prodazha-4-komnatnye-kvartiry/",
    "https://yoshkar-ola.mlsn.ru/prodazha-4-komnatnye-kvartiry/",
    "https://zabaykalsk.mlsn.ru/prodazha-4-komnatnye-kvartiry/",

    "https://adigea.mlsn.ru/prodazha-5-komnatnye-kvartiry/",
    "https://altay.mlsn.ru/prodazha-5-komnatnye-kvartiry/",
    "https://altkray.mlsn.ru/prodazha-5-komnatnye-kvartiry/",
    "https://amur.mlsn.ru/prodazha-5-komnatnye-kvartiry/",
    "https://arh.mlsn.ru/prodazha-5-komnatnye-kvartiry/",
    "https://astrahan.mlsn.ru/prodazha-5-komnatnye-kvartiry/",
    "https://belgorod.mlsn.ru/prodazha-5-komnatnye-kvartiry/",
    "https://brn.mlsn.ru/prodazha-5-komnatnye-kvartiry/",
    "https://bryansk.mlsn.ru/prodazha-5-komnatnye-kvartiry/",
    "https://chechnya.mlsn.ru/prodazha-5-komnatnye-kvartiry/",
    "https://chelyabinsk.mlsn.ru/prodazha-5-komnatnye-kvartiry/",
    "https://chuk.mlsn.ru/prodazha-5-komnatnye-kvartiry/",
    "https://chuvash.mlsn.ru/prodazha-5-komnatnye-kvartiry/",
    "https://dagestan.mlsn.ru/prodazha-5-komnatnye-kvartiry/",
    "https://ekb.mlsn.ru/prodazha-5-komnatnye-kvartiry/",
    "https://erveyskaya.mlsn.ru/prodazha-5-komnatnye-kvartiry/",
    "https://habarovsk.mlsn.ru/prodazha-5-komnatnye-kvartiry/",
    "https://hakasia.mlsn.ru/prodazha-5-komnatnye-kvartiry/",
    "https://hanti.mlsn.ru/prodazha-5-komnatnye-kvartiry/",
    "https://ingush.mlsn.ru/prodazha-5-komnatnye-kvartiry/",
    "https://irkutsk.mlsn.ru/prodazha-5-komnatnye-kvartiry/",
    "https://ivanovo.mlsn.ru/prodazha-5-komnatnye-kvartiry/",
    "https://izh.mlsn.ru/prodazha-5-komnatnye-kvartiry/",
    "https://kabardbalk.mlsn.ru/prodazha-5-komnatnye-kvartiry/",
    "https://kaliningrad.mlsn.ru/prodazha-5-komnatnye-kvartiry/",
    "https://kalmikiya.mlsn.ru/prodazha-5-komnatnye-kvartiry/",
    "https://kaluga.mlsn.ru/prodazha-5-komnatnye-kvartiry/",
    "https://karachaevo.mlsn.ru/prodazha-5-komnatnye-kvartiry/",
    "https://karelia.mlsn.ru/prodazha-5-komnatnye-kvartiry/",
    "https://kazan.mlsn.ru/prodazha-5-komnatnye-kvartiry/",
    "https://kemerovo.mlsn.ru/prodazha-5-komnatnye-kvartiry/",
    "https://kirov.mlsn.ru/prodazha-5-komnatnye-kvartiry/",
    "https://komi.mlsn.ru/prodazha-5-komnatnye-kvartiry/",
    "https://kostroma.mlsn.ru/prodazha-5-komnatnye-kvartiry/",
    "https://krasnodar.mlsn.ru/prodazha-5-komnatnye-kvartiry/",
    "https://krasnodarkray.mlsn.ru/prodazha-5-komnatnye-kvartiry/",
    "https://krs.mlsn.ru/prodazha-5-komnatnye-kvartiry/",
    "https://krym.mlsn.ru/prodazha-5-komnatnye-kvartiry/",
    "https://kurgan.mlsn.ru/prodazha-5-komnatnye-kvartiry/",
    "https://kursk.mlsn.ru/prodazha-5-komnatnye-kvartiry/",
    "https://lenobl.mlsn.ru/prodazha-5-komnatnye-kvartiry/",
    "https://lipetsk.mlsn.ru/prodazha-5-komnatnye-kvartiry/",
    "https://magadan.mlsn.ru/prodazha-5-komnatnye-kvartiry/",
    "https://modrdoviya.mlsn.ru/prodazha-5-komnatnye-kvartiry/",
    "https://mosobl.mlsn.ru/prodazha-5-komnatnye-kvartiry/",
    "https://msk.mlsn.ru/prodazha-5-komnatnye-kvartiry/",
    "https://murmansk.mlsn.ru/prodazha-5-komnatnye-kvartiry/",
    "https://nenetsk.mlsn.ru/prodazha-5-komnatnye-kvartiry/",
    "https://nizhnevartovsk.mlsn.ru/prodazha-5-komnatnye-kvartiry/",
    "https://nn.mlsn.ru/prodazha-5-komnatnye-kvartiry/",
    "https://novgorod.mlsn.ru/prodazha-5-komnatnye-kvartiry/",
    "https://nsk.mlsn.ru/prodazha-5-komnatnye-kvartiry/",
    "https://nvkz.mlsn.ru/prodazha-5-komnatnye-kvartiry/",
    "https://nvrsk.mlsn.ru/prodazha-5-komnatnye-kvartiry/",
    "https://omsk.mlsn.ru/prodazha-5-komnatnye-kvartiry/",
    "https://orel.mlsn.ru/prodazha-5-komnatnye-kvartiry/",
    "https://orenburg.mlsn.ru/prodazha-5-komnatnye-kvartiry/",
    "https://osetia.mlsn.ru/prodazha-5-komnatnye-kvartiry/",
    "https://penza.mlsn.ru/prodazha-5-komnatnye-kvartiry/",
    "https://perm.mlsn.ru/prodazha-5-komnatnye-kvartiry/",
    "https://pskov.mlsn.ru/prodazha-5-komnatnye-kvartiry/",
    "https://rostov.mlsn.ru/prodazha-5-komnatnye-kvartiry/",
    "https://ryazan.mlsn.ru/prodazha-5-komnatnye-kvartiry/",
    "https://sahalin.mlsn.ru/prodazha-5-komnatnye-kvartiry/",
    "https://samara.mlsn.ru/prodazha-5-komnatnye-kvartiry/",
    "https://saratov.mlsn.ru/prodazha-5-komnatnye-kvartiry/",
    "https://sevastopol.mlsn.ru/prodazha-5-komnatnye-kvartiry/",
    "https://smolensk.mlsn.ru/prodazha-5-komnatnye-kvartiry/",
    "https://sochi.mlsn.ru/prodazha-5-komnatnye-kvartiry/",
    "https://spb.mlsn.ru/prodazha-5-komnatnye-kvartiry/",
    "https://stavropol.mlsn.ru/prodazha-5-komnatnye-kvartiry/",
    "https://surgut.mlsn.ru/prodazha-5-komnatnye-kvartiry/",
    "https://tambov.mlsn.ru/prodazha-5-komnatnye-kvartiry/",
    "https://tatarstan.mlsn.ru/prodazha-5-komnatnye-kvartiry/",
    "https://tiva.mlsn.ru/prodazha-5-komnatnye-kvartiry/",
    "https://tmn.mlsn.ru/prodazha-5-komnatnye-kvartiry/",
    "https://tomsk.mlsn.ru/prodazha-5-komnatnye-kvartiry/",
    "https://tula.mlsn.ru/prodazha-5-komnatnye-kvartiry/",
    "https://tver.mlsn.ru/prodazha-5-komnatnye-kvartiry/",
    "https://ufa.mlsn.ru/prodazha-5-komnatnye-kvartiry/",
    "https://ul.mlsn.ru/prodazha-5-komnatnye-kvartiry/",
    "https://ulanude.mlsn.ru/prodazha-5-komnatnye-kvartiry/",
    "https://vladimir.mlsn.ru/prodazha-5-komnatnye-kvartiry/",
    "https://vladivostok.mlsn.ru/prodazha-5-komnatnye-kvartiry/",
    "https://volgograd.mlsn.ru/prodazha-5-komnatnye-kvartiry/",
    "https://vologda.mlsn.ru/prodazha-5-komnatnye-kvartiry/",
    "https://vrn.mlsn.ru/prodazha-5-komnatnye-kvartiry/",
    "https://yakutia.mlsn.ru/prodazha-5-komnatnye-kvartiry/",
    "https://yamalonenetsk.mlsn.ru/prodazha-5-komnatnye-kvartiry/",
    "https://yaroslavl.mlsn.ru/prodazha-5-komnatnye-kvartiry/",
    "https://yoshkar-ola.mlsn.ru/prodazha-5-komnatnye-kvartiry/",
    "https://zabaykalsk.mlsn.ru/prodazha-5-komnatnye-kvartiry/",

    "https://adigea.mlsn.ru/prodazha-komnaty/",
    "https://altay.mlsn.ru/prodazha-komnaty/",
    "https://altkray.mlsn.ru/prodazha-komnaty/",
    "https://amur.mlsn.ru/prodazha-komnaty/",
    "https://arh.mlsn.ru/prodazha-komnaty/",
    "https://astrahan.mlsn.ru/prodazha-komnaty/",
    "https://belgorod.mlsn.ru/prodazha-komnaty/",
    "https://brn.mlsn.ru/prodazha-komnaty/",
    "https://bryansk.mlsn.ru/prodazha-komnaty/",
    "https://chechnya.mlsn.ru/prodazha-komnaty/",
    "https://chelyabinsk.mlsn.ru/prodazha-komnaty/",
    "https://chuk.mlsn.ru/prodazha-komnaty/",
    "https://chuvash.mlsn.ru/prodazha-komnaty/",
    "https://dagestan.mlsn.ru/prodazha-komnaty/",
    "https://ekb.mlsn.ru/prodazha-komnaty/",
    "https://erveyskaya.mlsn.ru/prodazha-komnaty/",
    "https://habarovsk.mlsn.ru/prodazha-komnaty/",
    "https://hakasia.mlsn.ru/prodazha-komnaty/",
    "https://hanti.mlsn.ru/prodazha-komnaty/",
    "https://ingush.mlsn.ru/prodazha-komnaty/",
    "https://irkutsk.mlsn.ru/prodazha-komnaty/",
    "https://ivanovo.mlsn.ru/prodazha-komnaty/",
    "https://izh.mlsn.ru/prodazha-komnaty/",
    "https://kabardbalk.mlsn.ru/prodazha-komnaty/",
    "https://kaliningrad.mlsn.ru/prodazha-komnaty/",
    "https://kalmikiya.mlsn.ru/prodazha-komnaty/",
    "https://kaluga.mlsn.ru/prodazha-komnaty/",
    "https://karachaevo.mlsn.ru/prodazha-komnaty/",
    "https://karelia.mlsn.ru/prodazha-komnaty/",
    "https://kazan.mlsn.ru/prodazha-komnaty/",
    "https://kemerovo.mlsn.ru/prodazha-komnaty/",
    "https://kirov.mlsn.ru/prodazha-komnaty/",
    "https://komi.mlsn.ru/prodazha-komnaty/",
    "https://kostroma.mlsn.ru/prodazha-komnaty/",
    "https://krasnodar.mlsn.ru/prodazha-komnaty/",
    "https://krasnodarkray.mlsn.ru/prodazha-komnaty/",
    "https://krs.mlsn.ru/prodazha-komnaty/",
    "https://krym.mlsn.ru/prodazha-komnaty/",
    "https://kurgan.mlsn.ru/prodazha-komnaty/",
    "https://kursk.mlsn.ru/prodazha-komnaty/",
    "https://lenobl.mlsn.ru/prodazha-komnaty/",
    "https://lipetsk.mlsn.ru/prodazha-komnaty/",
    "https://magadan.mlsn.ru/prodazha-komnaty/",
    "https://modrdoviya.mlsn.ru/prodazha-komnaty/",
    "https://mosobl.mlsn.ru/prodazha-komnaty/",
    "https://msk.mlsn.ru/prodazha-komnaty/",
    "https://murmansk.mlsn.ru/prodazha-komnaty/",
    "https://nenetsk.mlsn.ru/prodazha-komnaty/",
    "https://nizhnevartovsk.mlsn.ru/prodazha-komnaty/",
    "https://nn.mlsn.ru/prodazha-komnaty/",
    "https://novgorod.mlsn.ru/prodazha-komnaty/",
    "https://nsk.mlsn.ru/prodazha-komnaty/",
    "https://nvkz.mlsn.ru/prodazha-komnaty/",
    "https://nvrsk.mlsn.ru/prodazha-komnaty/",
    "https://omsk.mlsn.ru/prodazha-komnaty/",
    "https://orel.mlsn.ru/prodazha-komnaty/",
    "https://orenburg.mlsn.ru/prodazha-komnaty/",
    "https://osetia.mlsn.ru/prodazha-komnaty/",
    "https://penza.mlsn.ru/prodazha-komnaty/",
    "https://perm.mlsn.ru/prodazha-komnaty/",
    "https://pskov.mlsn.ru/prodazha-komnaty/",
    "https://rostov.mlsn.ru/prodazha-komnaty/",
    "https://ryazan.mlsn.ru/prodazha-komnaty/",
    "https://sahalin.mlsn.ru/prodazha-komnaty/",
    "https://samara.mlsn.ru/prodazha-komnaty/",
    "https://saratov.mlsn.ru/prodazha-komnaty/",
    "https://sevastopol.mlsn.ru/prodazha-komnaty/",
    "https://smolensk.mlsn.ru/prodazha-komnaty/",
    "https://sochi.mlsn.ru/prodazha-komnaty/",
    "https://spb.mlsn.ru/prodazha-komnaty/",
    "https://stavropol.mlsn.ru/prodazha-komnaty/",
    "https://surgut.mlsn.ru/prodazha-komnaty/",
    "https://tambov.mlsn.ru/prodazha-komnaty/",
    "https://tatarstan.mlsn.ru/prodazha-komnaty/",
    "https://tiva.mlsn.ru/prodazha-komnaty/",
    "https://tmn.mlsn.ru/prodazha-komnaty/",
    "https://tomsk.mlsn.ru/prodazha-komnaty/",
    "https://tula.mlsn.ru/prodazha-komnaty/",
    "https://tver.mlsn.ru/prodazha-komnaty/",
    "https://ufa.mlsn.ru/prodazha-komnaty/",
    "https://ul.mlsn.ru/prodazha-komnaty/",
    "https://ulanude.mlsn.ru/prodazha-komnaty/",
    "https://vladimir.mlsn.ru/prodazha-komnaty/",
    "https://vladivostok.mlsn.ru/prodazha-komnaty/",
    "https://volgograd.mlsn.ru/prodazha-komnaty/",
    "https://vologda.mlsn.ru/prodazha-komnaty/",
    "https://vrn.mlsn.ru/prodazha-komnaty/",
    "https://yakutia.mlsn.ru/prodazha-komnaty/",
    "https://yamalonenetsk.mlsn.ru/prodazha-komnaty/",
    "https://yaroslavl.mlsn.ru/prodazha-komnaty/",
    "https://yoshkar-ola.mlsn.ru/prodazha-komnaty/",
    "https://zabaykalsk.mlsn.ru/prodazha-komnaty/",

    "https://adigea.mlsn.ru/arenda-1-komnatnye-kvartiry/",
    "https://altay.mlsn.ru/arenda-1-komnatnye-kvartiry/",
    "https://altkray.mlsn.ru/arenda-1-komnatnye-kvartiry/",
    "https://amur.mlsn.ru/arenda-1-komnatnye-kvartiry/",
    "https://arh.mlsn.ru/arenda-1-komnatnye-kvartiry/",
    "https://astrahan.mlsn.ru/arenda-1-komnatnye-kvartiry/",
    "https://belgorod.mlsn.ru/arenda-1-komnatnye-kvartiry/",
    "https://brn.mlsn.ru/arenda-1-komnatnye-kvartiry/",
    "https://bryansk.mlsn.ru/arenda-1-komnatnye-kvartiry/",
    "https://chechnya.mlsn.ru/arenda-1-komnatnye-kvartiry/",
    "https://chelyabinsk.mlsn.ru/arenda-1-komnatnye-kvartiry/",
    "https://chuk.mlsn.ru/arenda-1-komnatnye-kvartiry/",
    "https://chuvash.mlsn.ru/arenda-1-komnatnye-kvartiry/",
    "https://dagestan.mlsn.ru/arenda-1-komnatnye-kvartiry/",
    "https://ekb.mlsn.ru/arenda-1-komnatnye-kvartiry/",
    "https://erveyskaya.mlsn.ru/arenda-1-komnatnye-kvartiry/",
    "https://habarovsk.mlsn.ru/arenda-1-komnatnye-kvartiry/",
    "https://hakasia.mlsn.ru/arenda-1-komnatnye-kvartiry/",
    "https://hanti.mlsn.ru/arenda-1-komnatnye-kvartiry/",
    "https://ingush.mlsn.ru/arenda-1-komnatnye-kvartiry/",
    "https://irkutsk.mlsn.ru/arenda-1-komnatnye-kvartiry/",
    "https://ivanovo.mlsn.ru/arenda-1-komnatnye-kvartiry/",
    "https://izh.mlsn.ru/arenda-1-komnatnye-kvartiry/",
    "https://kabardbalk.mlsn.ru/arenda-1-komnatnye-kvartiry/",
    "https://kaliningrad.mlsn.ru/arenda-1-komnatnye-kvartiry/",
    "https://kalmikiya.mlsn.ru/arenda-1-komnatnye-kvartiry/",
    "https://kaluga.mlsn.ru/arenda-1-komnatnye-kvartiry/",
    "https://karachaevo.mlsn.ru/arenda-1-komnatnye-kvartiry/",
    "https://karelia.mlsn.ru/arenda-1-komnatnye-kvartiry/",
    "https://kazan.mlsn.ru/arenda-1-komnatnye-kvartiry/",
    "https://kemerovo.mlsn.ru/arenda-1-komnatnye-kvartiry/",
    "https://kirov.mlsn.ru/arenda-1-komnatnye-kvartiry/",
    "https://komi.mlsn.ru/arenda-1-komnatnye-kvartiry/",
    "https://kostroma.mlsn.ru/arenda-1-komnatnye-kvartiry/",
    "https://krasnodar.mlsn.ru/arenda-1-komnatnye-kvartiry/",
    "https://krasnodarkray.mlsn.ru/arenda-1-komnatnye-kvartiry/",
    "https://krs.mlsn.ru/arenda-1-komnatnye-kvartiry/",
    "https://krym.mlsn.ru/arenda-1-komnatnye-kvartiry/",
    "https://kurgan.mlsn.ru/arenda-1-komnatnye-kvartiry/",
    "https://kursk.mlsn.ru/arenda-1-komnatnye-kvartiry/",
    "https://lenobl.mlsn.ru/arenda-1-komnatnye-kvartiry/",
    "https://lipetsk.mlsn.ru/arenda-1-komnatnye-kvartiry/",
    "https://magadan.mlsn.ru/arenda-1-komnatnye-kvartiry/",
    "https://modrdoviya.mlsn.ru/arenda-1-komnatnye-kvartiry/",
    "https://mosobl.mlsn.ru/arenda-1-komnatnye-kvartiry/",
    "https://msk.mlsn.ru/arenda-1-komnatnye-kvartiry/",
    "https://murmansk.mlsn.ru/arenda-1-komnatnye-kvartiry/",
    "https://nenetsk.mlsn.ru/arenda-1-komnatnye-kvartiry/",
    "https://nizhnevartovsk.mlsn.ru/arenda-1-komnatnye-kvartiry/",
    "https://nn.mlsn.ru/arenda-1-komnatnye-kvartiry/",
    "https://novgorod.mlsn.ru/arenda-1-komnatnye-kvartiry/",
    "https://nsk.mlsn.ru/arenda-1-komnatnye-kvartiry/",
    "https://nvkz.mlsn.ru/arenda-1-komnatnye-kvartiry/",
    "https://nvrsk.mlsn.ru/arenda-1-komnatnye-kvartiry/",
    "https://omsk.mlsn.ru/arenda-1-komnatnye-kvartiry/",
    "https://orel.mlsn.ru/arenda-1-komnatnye-kvartiry/",
    "https://orenburg.mlsn.ru/arenda-1-komnatnye-kvartiry/",
    "https://osetia.mlsn.ru/arenda-1-komnatnye-kvartiry/",
    "https://penza.mlsn.ru/arenda-1-komnatnye-kvartiry/",
    "https://perm.mlsn.ru/arenda-1-komnatnye-kvartiry/",
    "https://pskov.mlsn.ru/arenda-1-komnatnye-kvartiry/",
    "https://rostov.mlsn.ru/arenda-1-komnatnye-kvartiry/",
    "https://ryazan.mlsn.ru/arenda-1-komnatnye-kvartiry/",
    "https://sahalin.mlsn.ru/arenda-1-komnatnye-kvartiry/",
    "https://samara.mlsn.ru/arenda-1-komnatnye-kvartiry/",
    "https://saratov.mlsn.ru/arenda-1-komnatnye-kvartiry/",
    "https://sevastopol.mlsn.ru/arenda-1-komnatnye-kvartiry/",
    "https://smolensk.mlsn.ru/arenda-1-komnatnye-kvartiry/",
    "https://sochi.mlsn.ru/arenda-1-komnatnye-kvartiry/",
    "https://spb.mlsn.ru/arenda-1-komnatnye-kvartiry/",
    "https://stavropol.mlsn.ru/arenda-1-komnatnye-kvartiry/",
    "https://surgut.mlsn.ru/arenda-1-komnatnye-kvartiry/",
    "https://tambov.mlsn.ru/arenda-1-komnatnye-kvartiry/",
    "https://tatarstan.mlsn.ru/arenda-1-komnatnye-kvartiry/",
    "https://tiva.mlsn.ru/arenda-1-komnatnye-kvartiry/",
    "https://tmn.mlsn.ru/arenda-1-komnatnye-kvartiry/",
    "https://tomsk.mlsn.ru/arenda-1-komnatnye-kvartiry/",
    "https://tula.mlsn.ru/arenda-1-komnatnye-kvartiry/",
    "https://tver.mlsn.ru/arenda-1-komnatnye-kvartiry/",
    "https://ufa.mlsn.ru/arenda-1-komnatnye-kvartiry/",
    "https://ul.mlsn.ru/arenda-1-komnatnye-kvartiry/",
    "https://ulanude.mlsn.ru/arenda-1-komnatnye-kvartiry/",
    "https://vladimir.mlsn.ru/arenda-1-komnatnye-kvartiry/",
    "https://vladivostok.mlsn.ru/arenda-1-komnatnye-kvartiry/",
    "https://volgograd.mlsn.ru/arenda-1-komnatnye-kvartiry/",
    "https://vologda.mlsn.ru/arenda-1-komnatnye-kvartiry/",
    "https://vrn.mlsn.ru/arenda-1-komnatnye-kvartiry/",
    "https://yakutia.mlsn.ru/arenda-1-komnatnye-kvartiry/",
    "https://yamalonenetsk.mlsn.ru/arenda-1-komnatnye-kvartiry/",
    "https://yaroslavl.mlsn.ru/arenda-1-komnatnye-kvartiry/",
    "https://yoshkar-ola.mlsn.ru/arenda-1-komnatnye-kvartiry/",
    "https://zabaykalsk.mlsn.ru/arenda-1-komnatnye-kvartiry/",

    "https://adigea.mlsn.ru/arenda-2-komnatnye-kvartiry/",
    "https://altay.mlsn.ru/arenda-2-komnatnye-kvartiry/",
    "https://altkray.mlsn.ru/arenda-2-komnatnye-kvartiry/",
    "https://amur.mlsn.ru/arenda-2-komnatnye-kvartiry/",
    "https://arh.mlsn.ru/arenda-2-komnatnye-kvartiry/",
    "https://astrahan.mlsn.ru/arenda-2-komnatnye-kvartiry/",
    "https://belgorod.mlsn.ru/arenda-2-komnatnye-kvartiry/",
    "https://brn.mlsn.ru/arenda-2-komnatnye-kvartiry/",
    "https://bryansk.mlsn.ru/arenda-2-komnatnye-kvartiry/",
    "https://chechnya.mlsn.ru/arenda-2-komnatnye-kvartiry/",
    "https://chelyabinsk.mlsn.ru/arenda-2-komnatnye-kvartiry/",
    "https://chuk.mlsn.ru/arenda-2-komnatnye-kvartiry/",
    "https://chuvash.mlsn.ru/arenda-2-komnatnye-kvartiry/",
    "https://dagestan.mlsn.ru/arenda-2-komnatnye-kvartiry/",
    "https://ekb.mlsn.ru/arenda-2-komnatnye-kvartiry/",
    "https://erveyskaya.mlsn.ru/arenda-2-komnatnye-kvartiry/",
    "https://habarovsk.mlsn.ru/arenda-2-komnatnye-kvartiry/",
    "https://hakasia.mlsn.ru/arenda-2-komnatnye-kvartiry/",
    "https://hanti.mlsn.ru/arenda-2-komnatnye-kvartiry/",
    "https://ingush.mlsn.ru/arenda-2-komnatnye-kvartiry/",
    "https://irkutsk.mlsn.ru/arenda-2-komnatnye-kvartiry/",
    "https://ivanovo.mlsn.ru/arenda-2-komnatnye-kvartiry/",
    "https://izh.mlsn.ru/arenda-2-komnatnye-kvartiry/",
    "https://kabardbalk.mlsn.ru/arenda-2-komnatnye-kvartiry/",
    "https://kaliningrad.mlsn.ru/arenda-2-komnatnye-kvartiry/",
    "https://kalmikiya.mlsn.ru/arenda-2-komnatnye-kvartiry/",
    "https://kaluga.mlsn.ru/arenda-2-komnatnye-kvartiry/",
    "https://karachaevo.mlsn.ru/arenda-2-komnatnye-kvartiry/",
    "https://karelia.mlsn.ru/arenda-2-komnatnye-kvartiry/",
    "https://kazan.mlsn.ru/arenda-2-komnatnye-kvartiry/",
    "https://kemerovo.mlsn.ru/arenda-2-komnatnye-kvartiry/",
    "https://kirov.mlsn.ru/arenda-2-komnatnye-kvartiry/",
    "https://komi.mlsn.ru/arenda-2-komnatnye-kvartiry/",
    "https://kostroma.mlsn.ru/arenda-2-komnatnye-kvartiry/",
    "https://krasnodar.mlsn.ru/arenda-2-komnatnye-kvartiry/",
    "https://krasnodarkray.mlsn.ru/arenda-2-komnatnye-kvartiry/",
    "https://krs.mlsn.ru/arenda-2-komnatnye-kvartiry/",
    "https://krym.mlsn.ru/arenda-2-komnatnye-kvartiry/",
    "https://kurgan.mlsn.ru/arenda-2-komnatnye-kvartiry/",
    "https://kursk.mlsn.ru/arenda-2-komnatnye-kvartiry/",
    "https://lenobl.mlsn.ru/arenda-2-komnatnye-kvartiry/",
    "https://lipetsk.mlsn.ru/arenda-2-komnatnye-kvartiry/",
    "https://magadan.mlsn.ru/arenda-2-komnatnye-kvartiry/",
    "https://modrdoviya.mlsn.ru/arenda-2-komnatnye-kvartiry/",
    "https://mosobl.mlsn.ru/arenda-2-komnatnye-kvartiry/",
    "https://msk.mlsn.ru/arenda-2-komnatnye-kvartiry/",
    "https://murmansk.mlsn.ru/arenda-2-komnatnye-kvartiry/",
    "https://nenetsk.mlsn.ru/arenda-2-komnatnye-kvartiry/",
    "https://nizhnevartovsk.mlsn.ru/arenda-2-komnatnye-kvartiry/",
    "https://nn.mlsn.ru/arenda-2-komnatnye-kvartiry/",
    "https://novgorod.mlsn.ru/arenda-2-komnatnye-kvartiry/",
    "https://nsk.mlsn.ru/arenda-2-komnatnye-kvartiry/",
    "https://nvkz.mlsn.ru/arenda-2-komnatnye-kvartiry/",
    "https://nvrsk.mlsn.ru/arenda-2-komnatnye-kvartiry/",
    "https://omsk.mlsn.ru/arenda-2-komnatnye-kvartiry/",
    "https://orel.mlsn.ru/arenda-2-komnatnye-kvartiry/",
    "https://orenburg.mlsn.ru/arenda-2-komnatnye-kvartiry/",
    "https://osetia.mlsn.ru/arenda-2-komnatnye-kvartiry/",
    "https://penza.mlsn.ru/arenda-2-komnatnye-kvartiry/",
    "https://perm.mlsn.ru/arenda-2-komnatnye-kvartiry/",
    "https://pskov.mlsn.ru/arenda-2-komnatnye-kvartiry/",
    "https://rostov.mlsn.ru/arenda-2-komnatnye-kvartiry/",
    "https://ryazan.mlsn.ru/arenda-2-komnatnye-kvartiry/",
    "https://sahalin.mlsn.ru/arenda-2-komnatnye-kvartiry/",
    "https://samara.mlsn.ru/arenda-2-komnatnye-kvartiry/",
    "https://saratov.mlsn.ru/arenda-2-komnatnye-kvartiry/",
    "https://sevastopol.mlsn.ru/arenda-2-komnatnye-kvartiry/",
    "https://smolensk.mlsn.ru/arenda-2-komnatnye-kvartiry/",
    "https://sochi.mlsn.ru/arenda-2-komnatnye-kvartiry/",
    "https://spb.mlsn.ru/arenda-2-komnatnye-kvartiry/",
    "https://stavropol.mlsn.ru/arenda-2-komnatnye-kvartiry/",
    "https://surgut.mlsn.ru/arenda-2-komnatnye-kvartiry/",
    "https://tambov.mlsn.ru/arenda-2-komnatnye-kvartiry/",
    "https://tatarstan.mlsn.ru/arenda-2-komnatnye-kvartiry/",
    "https://tiva.mlsn.ru/arenda-2-komnatnye-kvartiry/",
    "https://tmn.mlsn.ru/arenda-2-komnatnye-kvartiry/",
    "https://tomsk.mlsn.ru/arenda-2-komnatnye-kvartiry/",
    "https://tula.mlsn.ru/arenda-2-komnatnye-kvartiry/",
    "https://tver.mlsn.ru/arenda-2-komnatnye-kvartiry/",
    "https://ufa.mlsn.ru/arenda-2-komnatnye-kvartiry/",
    "https://ul.mlsn.ru/arenda-2-komnatnye-kvartiry/",
    "https://ulanude.mlsn.ru/arenda-2-komnatnye-kvartiry/",
    "https://vladimir.mlsn.ru/arenda-2-komnatnye-kvartiry/",
    "https://vladivostok.mlsn.ru/arenda-2-komnatnye-kvartiry/",
    "https://volgograd.mlsn.ru/arenda-2-komnatnye-kvartiry/",
    "https://vologda.mlsn.ru/arenda-2-komnatnye-kvartiry/",
    "https://vrn.mlsn.ru/arenda-2-komnatnye-kvartiry/",
    "https://yakutia.mlsn.ru/arenda-2-komnatnye-kvartiry/",
    "https://yamalonenetsk.mlsn.ru/arenda-2-komnatnye-kvartiry/",
    "https://yaroslavl.mlsn.ru/arenda-2-komnatnye-kvartiry/",
    "https://yoshkar-ola.mlsn.ru/arenda-2-komnatnye-kvartiry/",
    "https://zabaykalsk.mlsn.ru/arenda-2-komnatnye-kvartiry/",

    "https://adigea.mlsn.ru/arenda-3-komnatnye-kvartiry/",
    "https://altay.mlsn.ru/arenda-3-komnatnye-kvartiry/",
    "https://altkray.mlsn.ru/arenda-3-komnatnye-kvartiry/",
    "https://amur.mlsn.ru/arenda-3-komnatnye-kvartiry/",
    "https://arh.mlsn.ru/arenda-3-komnatnye-kvartiry/",
    "https://astrahan.mlsn.ru/arenda-3-komnatnye-kvartiry/",
    "https://belgorod.mlsn.ru/arenda-3-komnatnye-kvartiry/",
    "https://brn.mlsn.ru/arenda-3-komnatnye-kvartiry/",
    "https://bryansk.mlsn.ru/arenda-3-komnatnye-kvartiry/",
    "https://chechnya.mlsn.ru/arenda-3-komnatnye-kvartiry/",
    "https://chelyabinsk.mlsn.ru/arenda-3-komnatnye-kvartiry/",
    "https://chuk.mlsn.ru/arenda-3-komnatnye-kvartiry/",
    "https://chuvash.mlsn.ru/arenda-3-komnatnye-kvartiry/",
    "https://dagestan.mlsn.ru/arenda-3-komnatnye-kvartiry/",
    "https://ekb.mlsn.ru/arenda-3-komnatnye-kvartiry/",
    "https://erveyskaya.mlsn.ru/arenda-3-komnatnye-kvartiry/",
    "https://habarovsk.mlsn.ru/arenda-3-komnatnye-kvartiry/",
    "https://hakasia.mlsn.ru/arenda-3-komnatnye-kvartiry/",
    "https://hanti.mlsn.ru/arenda-3-komnatnye-kvartiry/",
    "https://ingush.mlsn.ru/arenda-3-komnatnye-kvartiry/",
    "https://irkutsk.mlsn.ru/arenda-3-komnatnye-kvartiry/",
    "https://ivanovo.mlsn.ru/arenda-3-komnatnye-kvartiry/",
    "https://izh.mlsn.ru/arenda-3-komnatnye-kvartiry/",
    "https://kabardbalk.mlsn.ru/arenda-3-komnatnye-kvartiry/",
    "https://kaliningrad.mlsn.ru/arenda-3-komnatnye-kvartiry/",
    "https://kalmikiya.mlsn.ru/arenda-3-komnatnye-kvartiry/",
    "https://kaluga.mlsn.ru/arenda-3-komnatnye-kvartiry/",
    "https://karachaevo.mlsn.ru/arenda-3-komnatnye-kvartiry/",
    "https://karelia.mlsn.ru/arenda-3-komnatnye-kvartiry/",
    "https://kazan.mlsn.ru/arenda-3-komnatnye-kvartiry/",
    "https://kemerovo.mlsn.ru/arenda-3-komnatnye-kvartiry/",
    "https://kirov.mlsn.ru/arenda-3-komnatnye-kvartiry/",
    "https://komi.mlsn.ru/arenda-3-komnatnye-kvartiry/",
    "https://kostroma.mlsn.ru/arenda-3-komnatnye-kvartiry/",
    "https://krasnodar.mlsn.ru/arenda-3-komnatnye-kvartiry/",
    "https://krasnodarkray.mlsn.ru/arenda-3-komnatnye-kvartiry/",
    "https://krs.mlsn.ru/arenda-3-komnatnye-kvartiry/",
    "https://krym.mlsn.ru/arenda-3-komnatnye-kvartiry/",
    "https://kurgan.mlsn.ru/arenda-3-komnatnye-kvartiry/",
    "https://kursk.mlsn.ru/arenda-3-komnatnye-kvartiry/",
    "https://lenobl.mlsn.ru/arenda-3-komnatnye-kvartiry/",
    "https://lipetsk.mlsn.ru/arenda-3-komnatnye-kvartiry/",
    "https://magadan.mlsn.ru/arenda-3-komnatnye-kvartiry/",
    "https://modrdoviya.mlsn.ru/arenda-3-komnatnye-kvartiry/",
    "https://mosobl.mlsn.ru/arenda-3-komnatnye-kvartiry/",
    "https://msk.mlsn.ru/arenda-3-komnatnye-kvartiry/",
    "https://murmansk.mlsn.ru/arenda-3-komnatnye-kvartiry/",
    "https://nenetsk.mlsn.ru/arenda-3-komnatnye-kvartiry/",
    "https://nizhnevartovsk.mlsn.ru/arenda-3-komnatnye-kvartiry/",
    "https://nn.mlsn.ru/arenda-3-komnatnye-kvartiry/",
    "https://novgorod.mlsn.ru/arenda-3-komnatnye-kvartiry/",
    "https://nsk.mlsn.ru/arenda-3-komnatnye-kvartiry/",
    "https://nvkz.mlsn.ru/arenda-3-komnatnye-kvartiry/",
    "https://nvrsk.mlsn.ru/arenda-3-komnatnye-kvartiry/",
    "https://omsk.mlsn.ru/arenda-3-komnatnye-kvartiry/",
    "https://orel.mlsn.ru/arenda-3-komnatnye-kvartiry/",
    "https://orenburg.mlsn.ru/arenda-3-komnatnye-kvartiry/",
    "https://osetia.mlsn.ru/arenda-3-komnatnye-kvartiry/",
    "https://penza.mlsn.ru/arenda-3-komnatnye-kvartiry/",
    "https://perm.mlsn.ru/arenda-3-komnatnye-kvartiry/",
    "https://pskov.mlsn.ru/arenda-3-komnatnye-kvartiry/",
    "https://rostov.mlsn.ru/arenda-3-komnatnye-kvartiry/",
    "https://ryazan.mlsn.ru/arenda-3-komnatnye-kvartiry/",
    "https://sahalin.mlsn.ru/arenda-3-komnatnye-kvartiry/",
    "https://samara.mlsn.ru/arenda-3-komnatnye-kvartiry/",
    "https://saratov.mlsn.ru/arenda-3-komnatnye-kvartiry/",
    "https://sevastopol.mlsn.ru/arenda-3-komnatnye-kvartiry/",
    "https://smolensk.mlsn.ru/arenda-3-komnatnye-kvartiry/",
    "https://sochi.mlsn.ru/arenda-3-komnatnye-kvartiry/",
    "https://spb.mlsn.ru/arenda-3-komnatnye-kvartiry/",
    "https://stavropol.mlsn.ru/arenda-3-komnatnye-kvartiry/",
    "https://surgut.mlsn.ru/arenda-3-komnatnye-kvartiry/",
    "https://tambov.mlsn.ru/arenda-3-komnatnye-kvartiry/",
    "https://tatarstan.mlsn.ru/arenda-3-komnatnye-kvartiry/",
    "https://tiva.mlsn.ru/arenda-3-komnatnye-kvartiry/",
    "https://tmn.mlsn.ru/arenda-3-komnatnye-kvartiry/",
    "https://tomsk.mlsn.ru/arenda-3-komnatnye-kvartiry/",
    "https://tula.mlsn.ru/arenda-3-komnatnye-kvartiry/",
    "https://tver.mlsn.ru/arenda-3-komnatnye-kvartiry/",
    "https://ufa.mlsn.ru/arenda-3-komnatnye-kvartiry/",
    "https://ul.mlsn.ru/arenda-3-komnatnye-kvartiry/",
    "https://ulanude.mlsn.ru/arenda-3-komnatnye-kvartiry/",
    "https://vladimir.mlsn.ru/arenda-3-komnatnye-kvartiry/",
    "https://vladivostok.mlsn.ru/arenda-3-komnatnye-kvartiry/",
    "https://volgograd.mlsn.ru/arenda-3-komnatnye-kvartiry/",
    "https://vologda.mlsn.ru/arenda-3-komnatnye-kvartiry/",
    "https://vrn.mlsn.ru/arenda-3-komnatnye-kvartiry/",
    "https://yakutia.mlsn.ru/arenda-3-komnatnye-kvartiry/",
    "https://yamalonenetsk.mlsn.ru/arenda-3-komnatnye-kvartiry/",
    "https://yaroslavl.mlsn.ru/arenda-3-komnatnye-kvartiry/",
    "https://yoshkar-ola.mlsn.ru/arenda-3-komnatnye-kvartiry/",
    "https://zabaykalsk.mlsn.ru/arenda-3-komnatnye-kvartiry/",

    "https://adigea.mlsn.ru/arenda-4-komnatnye-kvartiry/",
    "https://altay.mlsn.ru/arenda-4-komnatnye-kvartiry/",
    "https://altkray.mlsn.ru/arenda-4-komnatnye-kvartiry/",
    "https://amur.mlsn.ru/arenda-4-komnatnye-kvartiry/",
    "https://arh.mlsn.ru/arenda-4-komnatnye-kvartiry/",
    "https://astrahan.mlsn.ru/arenda-4-komnatnye-kvartiry/",
    "https://belgorod.mlsn.ru/arenda-4-komnatnye-kvartiry/",
    "https://brn.mlsn.ru/arenda-4-komnatnye-kvartiry/",
    "https://bryansk.mlsn.ru/arenda-4-komnatnye-kvartiry/",
    "https://chechnya.mlsn.ru/arenda-4-komnatnye-kvartiry/",
    "https://chelyabinsk.mlsn.ru/arenda-4-komnatnye-kvartiry/",
    "https://chuk.mlsn.ru/arenda-4-komnatnye-kvartiry/",
    "https://chuvash.mlsn.ru/arenda-4-komnatnye-kvartiry/",
    "https://dagestan.mlsn.ru/arenda-4-komnatnye-kvartiry/",
    "https://ekb.mlsn.ru/arenda-4-komnatnye-kvartiry/",
    "https://erveyskaya.mlsn.ru/arenda-4-komnatnye-kvartiry/",
    "https://habarovsk.mlsn.ru/arenda-4-komnatnye-kvartiry/",
    "https://hakasia.mlsn.ru/arenda-4-komnatnye-kvartiry/",
    "https://hanti.mlsn.ru/arenda-4-komnatnye-kvartiry/",
    "https://ingush.mlsn.ru/arenda-4-komnatnye-kvartiry/",
    "https://irkutsk.mlsn.ru/arenda-4-komnatnye-kvartiry/",
    "https://ivanovo.mlsn.ru/arenda-4-komnatnye-kvartiry/",
    "https://izh.mlsn.ru/arenda-4-komnatnye-kvartiry/",
    "https://kabardbalk.mlsn.ru/arenda-4-komnatnye-kvartiry/",
    "https://kaliningrad.mlsn.ru/arenda-4-komnatnye-kvartiry/",
    "https://kalmikiya.mlsn.ru/arenda-4-komnatnye-kvartiry/",
    "https://kaluga.mlsn.ru/arenda-4-komnatnye-kvartiry/",
    "https://karachaevo.mlsn.ru/arenda-4-komnatnye-kvartiry/",
    "https://karelia.mlsn.ru/arenda-4-komnatnye-kvartiry/",
    "https://kazan.mlsn.ru/arenda-4-komnatnye-kvartiry/",
    "https://kemerovo.mlsn.ru/arenda-4-komnatnye-kvartiry/",
    "https://kirov.mlsn.ru/arenda-4-komnatnye-kvartiry/",
    "https://komi.mlsn.ru/arenda-4-komnatnye-kvartiry/",
    "https://kostroma.mlsn.ru/arenda-4-komnatnye-kvartiry/",
    "https://krasnodar.mlsn.ru/arenda-4-komnatnye-kvartiry/",
    "https://krasnodarkray.mlsn.ru/arenda-4-komnatnye-kvartiry/",
    "https://krs.mlsn.ru/arenda-4-komnatnye-kvartiry/",
    "https://krym.mlsn.ru/arenda-4-komnatnye-kvartiry/",
    "https://kurgan.mlsn.ru/arenda-4-komnatnye-kvartiry/",
    "https://kursk.mlsn.ru/arenda-4-komnatnye-kvartiry/",
    "https://lenobl.mlsn.ru/arenda-4-komnatnye-kvartiry/",
    "https://lipetsk.mlsn.ru/arenda-4-komnatnye-kvartiry/",
    "https://magadan.mlsn.ru/arenda-4-komnatnye-kvartiry/",
    "https://modrdoviya.mlsn.ru/arenda-4-komnatnye-kvartiry/",
    "https://mosobl.mlsn.ru/arenda-4-komnatnye-kvartiry/",
    "https://msk.mlsn.ru/arenda-4-komnatnye-kvartiry/",
    "https://murmansk.mlsn.ru/arenda-4-komnatnye-kvartiry/",
    "https://nenetsk.mlsn.ru/arenda-4-komnatnye-kvartiry/",
    "https://nizhnevartovsk.mlsn.ru/arenda-4-komnatnye-kvartiry/",
    "https://nn.mlsn.ru/arenda-4-komnatnye-kvartiry/",
    "https://novgorod.mlsn.ru/arenda-4-komnatnye-kvartiry/",
    "https://nsk.mlsn.ru/arenda-4-komnatnye-kvartiry/",
    "https://nvkz.mlsn.ru/arenda-4-komnatnye-kvartiry/",
    "https://nvrsk.mlsn.ru/arenda-4-komnatnye-kvartiry/",
    "https://omsk.mlsn.ru/arenda-4-komnatnye-kvartiry/",
    "https://orel.mlsn.ru/arenda-4-komnatnye-kvartiry/",
    "https://orenburg.mlsn.ru/arenda-4-komnatnye-kvartiry/",
    "https://osetia.mlsn.ru/arenda-4-komnatnye-kvartiry/",
    "https://penza.mlsn.ru/arenda-4-komnatnye-kvartiry/",
    "https://perm.mlsn.ru/arenda-4-komnatnye-kvartiry/",
    "https://pskov.mlsn.ru/arenda-4-komnatnye-kvartiry/",
    "https://rostov.mlsn.ru/arenda-4-komnatnye-kvartiry/",
    "https://ryazan.mlsn.ru/arenda-4-komnatnye-kvartiry/",
    "https://sahalin.mlsn.ru/arenda-4-komnatnye-kvartiry/",
    "https://samara.mlsn.ru/arenda-4-komnatnye-kvartiry/",
    "https://saratov.mlsn.ru/arenda-4-komnatnye-kvartiry/",
    "https://sevastopol.mlsn.ru/arenda-4-komnatnye-kvartiry/",
    "https://smolensk.mlsn.ru/arenda-4-komnatnye-kvartiry/",
    "https://sochi.mlsn.ru/arenda-4-komnatnye-kvartiry/",
    "https://spb.mlsn.ru/arenda-4-komnatnye-kvartiry/",
    "https://stavropol.mlsn.ru/arenda-4-komnatnye-kvartiry/",
    "https://surgut.mlsn.ru/arenda-4-komnatnye-kvartiry/",
    "https://tambov.mlsn.ru/arenda-4-komnatnye-kvartiry/",
    "https://tatarstan.mlsn.ru/arenda-4-komnatnye-kvartiry/",
    "https://tiva.mlsn.ru/arenda-4-komnatnye-kvartiry/",
    "https://tmn.mlsn.ru/arenda-4-komnatnye-kvartiry/",
    "https://tomsk.mlsn.ru/arenda-4-komnatnye-kvartiry/",
    "https://tula.mlsn.ru/arenda-4-komnatnye-kvartiry/",
    "https://tver.mlsn.ru/arenda-4-komnatnye-kvartiry/",
    "https://ufa.mlsn.ru/arenda-4-komnatnye-kvartiry/",
    "https://ul.mlsn.ru/arenda-4-komnatnye-kvartiry/",
    "https://ulanude.mlsn.ru/arenda-4-komnatnye-kvartiry/",
    "https://vladimir.mlsn.ru/arenda-4-komnatnye-kvartiry/",
    "https://vladivostok.mlsn.ru/arenda-4-komnatnye-kvartiry/",
    "https://volgograd.mlsn.ru/arenda-4-komnatnye-kvartiry/",
    "https://vologda.mlsn.ru/arenda-4-komnatnye-kvartiry/",
    "https://vrn.mlsn.ru/arenda-4-komnatnye-kvartiry/",
    "https://yakutia.mlsn.ru/arenda-4-komnatnye-kvartiry/",
    "https://yamalonenetsk.mlsn.ru/arenda-4-komnatnye-kvartiry/",
    "https://yaroslavl.mlsn.ru/arenda-4-komnatnye-kvartiry/",
    "https://yoshkar-ola.mlsn.ru/arenda-4-komnatnye-kvartiry/",
    "https://zabaykalsk.mlsn.ru/arenda-4-komnatnye-kvartiry/",

    "https://adigea.mlsn.ru/arenda-5-komnatnye-kvartiry/",
    "https://altay.mlsn.ru/arenda-5-komnatnye-kvartiry/",
    "https://altkray.mlsn.ru/arenda-5-komnatnye-kvartiry/",
    "https://amur.mlsn.ru/arenda-5-komnatnye-kvartiry/",
    "https://arh.mlsn.ru/arenda-5-komnatnye-kvartiry/",
    "https://astrahan.mlsn.ru/arenda-5-komnatnye-kvartiry/",
    "https://belgorod.mlsn.ru/arenda-5-komnatnye-kvartiry/",
    "https://brn.mlsn.ru/arenda-5-komnatnye-kvartiry/",
    "https://bryansk.mlsn.ru/arenda-5-komnatnye-kvartiry/",
    "https://chechnya.mlsn.ru/arenda-5-komnatnye-kvartiry/",
    "https://chelyabinsk.mlsn.ru/arenda-5-komnatnye-kvartiry/",
    "https://chuk.mlsn.ru/arenda-5-komnatnye-kvartiry/",
    "https://chuvash.mlsn.ru/arenda-5-komnatnye-kvartiry/",
    "https://dagestan.mlsn.ru/arenda-5-komnatnye-kvartiry/",
    "https://ekb.mlsn.ru/arenda-5-komnatnye-kvartiry/",
    "https://erveyskaya.mlsn.ru/arenda-5-komnatnye-kvartiry/",
    "https://habarovsk.mlsn.ru/arenda-5-komnatnye-kvartiry/",
    "https://hakasia.mlsn.ru/arenda-5-komnatnye-kvartiry/",
    "https://hanti.mlsn.ru/arenda-5-komnatnye-kvartiry/",
    "https://ingush.mlsn.ru/arenda-5-komnatnye-kvartiry/",
    "https://irkutsk.mlsn.ru/arenda-5-komnatnye-kvartiry/",
    "https://ivanovo.mlsn.ru/arenda-5-komnatnye-kvartiry/",
    "https://izh.mlsn.ru/arenda-5-komnatnye-kvartiry/",
    "https://kabardbalk.mlsn.ru/arenda-5-komnatnye-kvartiry/",
    "https://kaliningrad.mlsn.ru/arenda-5-komnatnye-kvartiry/",
    "https://kalmikiya.mlsn.ru/arenda-5-komnatnye-kvartiry/",
    "https://kaluga.mlsn.ru/arenda-5-komnatnye-kvartiry/",
    "https://karachaevo.mlsn.ru/arenda-5-komnatnye-kvartiry/",
    "https://karelia.mlsn.ru/arenda-5-komnatnye-kvartiry/",
    "https://kazan.mlsn.ru/arenda-5-komnatnye-kvartiry/",
    "https://kemerovo.mlsn.ru/arenda-5-komnatnye-kvartiry/",
    "https://kirov.mlsn.ru/arenda-5-komnatnye-kvartiry/",
    "https://komi.mlsn.ru/arenda-5-komnatnye-kvartiry/",
    "https://kostroma.mlsn.ru/arenda-5-komnatnye-kvartiry/",
    "https://krasnodar.mlsn.ru/arenda-5-komnatnye-kvartiry/",
    "https://krasnodarkray.mlsn.ru/arenda-5-komnatnye-kvartiry/",
    "https://krs.mlsn.ru/arenda-5-komnatnye-kvartiry/",
    "https://krym.mlsn.ru/arenda-5-komnatnye-kvartiry/",
    "https://kurgan.mlsn.ru/arenda-5-komnatnye-kvartiry/",
    "https://kursk.mlsn.ru/arenda-5-komnatnye-kvartiry/",
    "https://lenobl.mlsn.ru/arenda-5-komnatnye-kvartiry/",
    "https://lipetsk.mlsn.ru/arenda-5-komnatnye-kvartiry/",
    "https://magadan.mlsn.ru/arenda-5-komnatnye-kvartiry/",
    "https://modrdoviya.mlsn.ru/arenda-5-komnatnye-kvartiry/",
    "https://mosobl.mlsn.ru/arenda-5-komnatnye-kvartiry/",
    "https://msk.mlsn.ru/arenda-5-komnatnye-kvartiry/",
    "https://murmansk.mlsn.ru/arenda-5-komnatnye-kvartiry/",
    "https://nenetsk.mlsn.ru/arenda-5-komnatnye-kvartiry/",
    "https://nizhnevartovsk.mlsn.ru/arenda-5-komnatnye-kvartiry/",
    "https://nn.mlsn.ru/arenda-5-komnatnye-kvartiry/",
    "https://novgorod.mlsn.ru/arenda-5-komnatnye-kvartiry/",
    "https://nsk.mlsn.ru/arenda-5-komnatnye-kvartiry/",
    "https://nvkz.mlsn.ru/arenda-5-komnatnye-kvartiry/",
    "https://nvrsk.mlsn.ru/arenda-5-komnatnye-kvartiry/",
    "https://omsk.mlsn.ru/arenda-5-komnatnye-kvartiry/",
    "https://orel.mlsn.ru/arenda-5-komnatnye-kvartiry/",
    "https://orenburg.mlsn.ru/arenda-5-komnatnye-kvartiry/",
    "https://osetia.mlsn.ru/arenda-5-komnatnye-kvartiry/",
    "https://penza.mlsn.ru/arenda-5-komnatnye-kvartiry/",
    "https://perm.mlsn.ru/arenda-5-komnatnye-kvartiry/",
    "https://pskov.mlsn.ru/arenda-5-komnatnye-kvartiry/",
    "https://rostov.mlsn.ru/arenda-5-komnatnye-kvartiry/",
    "https://ryazan.mlsn.ru/arenda-5-komnatnye-kvartiry/",
    "https://sahalin.mlsn.ru/arenda-5-komnatnye-kvartiry/",
    "https://samara.mlsn.ru/arenda-5-komnatnye-kvartiry/",
    "https://saratov.mlsn.ru/arenda-5-komnatnye-kvartiry/",
    "https://sevastopol.mlsn.ru/arenda-5-komnatnye-kvartiry/",
    "https://smolensk.mlsn.ru/arenda-5-komnatnye-kvartiry/",
    "https://sochi.mlsn.ru/arenda-5-komnatnye-kvartiry/",
    "https://spb.mlsn.ru/arenda-5-komnatnye-kvartiry/",
    "https://stavropol.mlsn.ru/arenda-5-komnatnye-kvartiry/",
    "https://surgut.mlsn.ru/arenda-5-komnatnye-kvartiry/",
    "https://tambov.mlsn.ru/arenda-5-komnatnye-kvartiry/",
    "https://tatarstan.mlsn.ru/arenda-5-komnatnye-kvartiry/",
    "https://tiva.mlsn.ru/arenda-5-komnatnye-kvartiry/",
    "https://tmn.mlsn.ru/arenda-5-komnatnye-kvartiry/",
    "https://tomsk.mlsn.ru/arenda-5-komnatnye-kvartiry/",
    "https://tula.mlsn.ru/arenda-5-komnatnye-kvartiry/",
    "https://tver.mlsn.ru/arenda-5-komnatnye-kvartiry/",
    "https://ufa.mlsn.ru/arenda-5-komnatnye-kvartiry/",
    "https://ul.mlsn.ru/arenda-5-komnatnye-kvartiry/",
    "https://ulanude.mlsn.ru/arenda-5-komnatnye-kvartiry/",
    "https://vladimir.mlsn.ru/arenda-5-komnatnye-kvartiry/",
    "https://vladivostok.mlsn.ru/arenda-5-komnatnye-kvartiry/",
    "https://volgograd.mlsn.ru/arenda-5-komnatnye-kvartiry/",
    "https://vologda.mlsn.ru/arenda-5-komnatnye-kvartiry/",
    "https://vrn.mlsn.ru/arenda-5-komnatnye-kvartiry/",
    "https://yakutia.mlsn.ru/arenda-5-komnatnye-kvartiry/",
    "https://yamalonenetsk.mlsn.ru/arenda-5-komnatnye-kvartiry/",
    "https://yaroslavl.mlsn.ru/arenda-5-komnatnye-kvartiry/",
    "https://yoshkar-ola.mlsn.ru/arenda-5-komnatnye-kvartiry/",
    "https://zabaykalsk.mlsn.ru/arenda-5-komnatnye-kvartiry/",

    "https://adigea.mlsn.ru/arenda-komnaty/",
    "https://altay.mlsn.ru/arenda-komnaty/",
    "https://altkray.mlsn.ru/arenda-komnaty/",
    "https://amur.mlsn.ru/arenda-komnaty/",
    "https://arh.mlsn.ru/arenda-komnaty/",
    "https://astrahan.mlsn.ru/arenda-komnaty/",
    "https://belgorod.mlsn.ru/arenda-komnaty/",
    "https://brn.mlsn.ru/arenda-komnaty/",
    "https://bryansk.mlsn.ru/arenda-komnaty/",
    "https://chechnya.mlsn.ru/arenda-komnaty/",
    "https://chelyabinsk.mlsn.ru/arenda-komnaty/",
    "https://chuk.mlsn.ru/arenda-komnaty/",
    "https://chuvash.mlsn.ru/arenda-komnaty/",
    "https://dagestan.mlsn.ru/arenda-komnaty/",
    "https://ekb.mlsn.ru/arenda-komnaty/",
    "https://erveyskaya.mlsn.ru/arenda-komnaty/",
    "https://habarovsk.mlsn.ru/arenda-komnaty/",
    "https://hakasia.mlsn.ru/arenda-komnaty/",
    "https://hanti.mlsn.ru/arenda-komnaty/",
    "https://ingush.mlsn.ru/arenda-komnaty/",
    "https://irkutsk.mlsn.ru/arenda-komnaty/",
    "https://ivanovo.mlsn.ru/arenda-komnaty/",
    "https://izh.mlsn.ru/arenda-komnaty/",
    "https://kabardbalk.mlsn.ru/arenda-komnaty/",
    "https://kaliningrad.mlsn.ru/arenda-komnaty/",
    "https://kalmikiya.mlsn.ru/arenda-komnaty/",
    "https://kaluga.mlsn.ru/arenda-komnaty/",
    "https://karachaevo.mlsn.ru/arenda-komnaty/",
    "https://karelia.mlsn.ru/arenda-komnaty/",
    "https://kazan.mlsn.ru/arenda-komnaty/",
    "https://kemerovo.mlsn.ru/arenda-komnaty/",
    "https://kirov.mlsn.ru/arenda-komnaty/",
    "https://komi.mlsn.ru/arenda-komnaty/",
    "https://kostroma.mlsn.ru/arenda-komnaty/",
    "https://krasnodar.mlsn.ru/arenda-komnaty/",
    "https://krasnodarkray.mlsn.ru/arenda-komnaty/",
    "https://krs.mlsn.ru/arenda-komnaty/",
    "https://krym.mlsn.ru/arenda-komnaty/",
    "https://kurgan.mlsn.ru/arenda-komnaty/",
    "https://kursk.mlsn.ru/arenda-komnaty/",
    "https://lenobl.mlsn.ru/arenda-komnaty/",
    "https://lipetsk.mlsn.ru/arenda-komnaty/",
    "https://magadan.mlsn.ru/arenda-komnaty/",
    "https://modrdoviya.mlsn.ru/arenda-komnaty/",
    "https://mosobl.mlsn.ru/arenda-komnaty/",
    "https://msk.mlsn.ru/arenda-komnaty/",
    "https://murmansk.mlsn.ru/arenda-komnaty/",
    "https://nenetsk.mlsn.ru/arenda-komnaty/",
    "https://nizhnevartovsk.mlsn.ru/arenda-komnaty/",
    "https://nn.mlsn.ru/arenda-komnaty/",
    "https://novgorod.mlsn.ru/arenda-komnaty/",
    "https://nsk.mlsn.ru/arenda-komnaty/",
    "https://nvkz.mlsn.ru/arenda-komnaty/",
    "https://nvrsk.mlsn.ru/arenda-komnaty/",
    "https://omsk.mlsn.ru/arenda-komnaty/",
    "https://orel.mlsn.ru/arenda-komnaty/",
    "https://orenburg.mlsn.ru/arenda-komnaty/",
    "https://osetia.mlsn.ru/arenda-komnaty/",
    "https://penza.mlsn.ru/arenda-komnaty/",
    "https://perm.mlsn.ru/arenda-komnaty/",
    "https://pskov.mlsn.ru/arenda-komnaty/",
    "https://rostov.mlsn.ru/arenda-komnaty/",
    "https://ryazan.mlsn.ru/arenda-komnaty/",
    "https://sahalin.mlsn.ru/arenda-komnaty/",
    "https://samara.mlsn.ru/arenda-komnaty/",
    "https://saratov.mlsn.ru/arenda-komnaty/",
    "https://sevastopol.mlsn.ru/arenda-komnaty/",
    "https://smolensk.mlsn.ru/arenda-komnaty/",
    "https://sochi.mlsn.ru/arenda-komnaty/",
    "https://spb.mlsn.ru/arenda-komnaty/",
    "https://stavropol.mlsn.ru/arenda-komnaty/",
    "https://surgut.mlsn.ru/arenda-komnaty/",
    "https://tambov.mlsn.ru/arenda-komnaty/",
    "https://tatarstan.mlsn.ru/arenda-komnaty/",
    "https://tiva.mlsn.ru/arenda-komnaty/",
    "https://tmn.mlsn.ru/arenda-komnaty/",
    "https://tomsk.mlsn.ru/arenda-komnaty/",
    "https://tula.mlsn.ru/arenda-komnaty/",
    "https://tver.mlsn.ru/arenda-komnaty/",
    "https://ufa.mlsn.ru/arenda-komnaty/",
    "https://ul.mlsn.ru/arenda-komnaty/",
    "https://ulanude.mlsn.ru/arenda-komnaty/",
    "https://vladimir.mlsn.ru/arenda-komnaty/",
    "https://vladivostok.mlsn.ru/arenda-komnaty/",
    "https://volgograd.mlsn.ru/arenda-komnaty/",
    "https://vologda.mlsn.ru/arenda-komnaty/",
    "https://vrn.mlsn.ru/arenda-komnaty/",
    "https://yakutia.mlsn.ru/arenda-komnaty/",
    "https://yamalonenetsk.mlsn.ru/arenda-komnaty/",
    "https://yaroslavl.mlsn.ru/arenda-komnaty/",
    "https://yoshkar-ola.mlsn.ru/arenda-komnaty/",
    "https://zabaykalsk.mlsn.ru/arenda-komnaty/",

    "https://adigea.mlsn.ru/pokupka-kvartiry-v-novostrojke/",
    "https://altay.mlsn.ru/pokupka-kvartiry-v-novostrojke/",
    "https://altkray.mlsn.ru/pokupka-kvartiry-v-novostrojke/",
    "https://amur.mlsn.ru/pokupka-kvartiry-v-novostrojke/",
    "https://arh.mlsn.ru/pokupka-kvartiry-v-novostrojke/",
    "https://astrahan.mlsn.ru/pokupka-kvartiry-v-novostrojke/",
    "https://belgorod.mlsn.ru/pokupka-kvartiry-v-novostrojke/",
    "https://brn.mlsn.ru/pokupka-kvartiry-v-novostrojke/",
    "https://bryansk.mlsn.ru/pokupka-kvartiry-v-novostrojke/",
    "https://chechnya.mlsn.ru/pokupka-kvartiry-v-novostrojke/",
    "https://chelyabinsk.mlsn.ru/pokupka-kvartiry-v-novostrojke/",
    "https://chuk.mlsn.ru/pokupka-kvartiry-v-novostrojke/",
    "https://chuvash.mlsn.ru/pokupka-kvartiry-v-novostrojke/",
    "https://dagestan.mlsn.ru/pokupka-kvartiry-v-novostrojke/",
    "https://ekb.mlsn.ru/pokupka-kvartiry-v-novostrojke/",
    "https://erveyskaya.mlsn.ru/pokupka-kvartiry-v-novostrojke/",
    "https://habarovsk.mlsn.ru/pokupka-kvartiry-v-novostrojke/",
    "https://hakasia.mlsn.ru/pokupka-kvartiry-v-novostrojke/",
    "https://hanti.mlsn.ru/pokupka-kvartiry-v-novostrojke/",
    "https://ingush.mlsn.ru/pokupka-kvartiry-v-novostrojke/",
    "https://irkutsk.mlsn.ru/pokupka-kvartiry-v-novostrojke/",
    "https://ivanovo.mlsn.ru/pokupka-kvartiry-v-novostrojke/",
    "https://izh.mlsn.ru/pokupka-kvartiry-v-novostrojke/",
    "https://kabardbalk.mlsn.ru/pokupka-kvartiry-v-novostrojke/",
    "https://kaliningrad.mlsn.ru/pokupka-kvartiry-v-novostrojke/",
    "https://kalmikiya.mlsn.ru/pokupka-kvartiry-v-novostrojke/",
    "https://kaluga.mlsn.ru/pokupka-kvartiry-v-novostrojke/",
    "https://karachaevo.mlsn.ru/pokupka-kvartiry-v-novostrojke/",
    "https://karelia.mlsn.ru/pokupka-kvartiry-v-novostrojke/",
    "https://kazan.mlsn.ru/pokupka-kvartiry-v-novostrojke/",
    "https://kemerovo.mlsn.ru/pokupka-kvartiry-v-novostrojke/",
    "https://kirov.mlsn.ru/pokupka-kvartiry-v-novostrojke/",
    "https://komi.mlsn.ru/pokupka-kvartiry-v-novostrojke/",
    "https://kostroma.mlsn.ru/pokupka-kvartiry-v-novostrojke/",
    "https://krasnodar.mlsn.ru/pokupka-kvartiry-v-novostrojke/",
    "https://krasnodarkray.mlsn.ru/pokupka-kvartiry-v-novostrojke/",
    "https://krs.mlsn.ru/pokupka-kvartiry-v-novostrojke/",
    "https://krym.mlsn.ru/pokupka-kvartiry-v-novostrojke/",
    "https://kurgan.mlsn.ru/pokupka-kvartiry-v-novostrojke/",
    "https://kursk.mlsn.ru/pokupka-kvartiry-v-novostrojke/",
    "https://lenobl.mlsn.ru/pokupka-kvartiry-v-novostrojke/",
    "https://lipetsk.mlsn.ru/pokupka-kvartiry-v-novostrojke/",
    "https://magadan.mlsn.ru/pokupka-kvartiry-v-novostrojke/",
    "https://modrdoviya.mlsn.ru/pokupka-kvartiry-v-novostrojke/",
    "https://mosobl.mlsn.ru/pokupka-kvartiry-v-novostrojke/",
    "https://msk.mlsn.ru/pokupka-kvartiry-v-novostrojke/",
    "https://murmansk.mlsn.ru/pokupka-kvartiry-v-novostrojke/",
    "https://nenetsk.mlsn.ru/pokupka-kvartiry-v-novostrojke/",
    "https://nizhnevartovsk.mlsn.ru/pokupka-kvartiry-v-novostrojke/",
    "https://nn.mlsn.ru/pokupka-kvartiry-v-novostrojke/",
    "https://novgorod.mlsn.ru/pokupka-kvartiry-v-novostrojke/",
    "https://nsk.mlsn.ru/pokupka-kvartiry-v-novostrojke/",
    "https://nvkz.mlsn.ru/pokupka-kvartiry-v-novostrojke/",
    "https://nvrsk.mlsn.ru/pokupka-kvartiry-v-novostrojke/",
    "https://omsk.mlsn.ru/pokupka-kvartiry-v-novostrojke/",
    "https://orel.mlsn.ru/pokupka-kvartiry-v-novostrojke/",
    "https://orenburg.mlsn.ru/pokupka-kvartiry-v-novostrojke/",
    "https://osetia.mlsn.ru/pokupka-kvartiry-v-novostrojke/",
    "https://penza.mlsn.ru/pokupka-kvartiry-v-novostrojke/",
    "https://perm.mlsn.ru/pokupka-kvartiry-v-novostrojke/",
    "https://pskov.mlsn.ru/pokupka-kvartiry-v-novostrojke/",
    "https://rostov.mlsn.ru/pokupka-kvartiry-v-novostrojke/",
    "https://ryazan.mlsn.ru/pokupka-kvartiry-v-novostrojke/",
    "https://sahalin.mlsn.ru/pokupka-kvartiry-v-novostrojke/",
    "https://samara.mlsn.ru/pokupka-kvartiry-v-novostrojke/",
    "https://saratov.mlsn.ru/pokupka-kvartiry-v-novostrojke/",
    "https://sevastopol.mlsn.ru/pokupka-kvartiry-v-novostrojke/",
    "https://smolensk.mlsn.ru/pokupka-kvartiry-v-novostrojke/",
    "https://sochi.mlsn.ru/pokupka-kvartiry-v-novostrojke/",
    "https://spb.mlsn.ru/pokupka-kvartiry-v-novostrojke/",
    "https://stavropol.mlsn.ru/pokupka-kvartiry-v-novostrojke/",
    "https://surgut.mlsn.ru/pokupka-kvartiry-v-novostrojke/",
    "https://tambov.mlsn.ru/pokupka-kvartiry-v-novostrojke/",
    "https://tatarstan.mlsn.ru/pokupka-kvartiry-v-novostrojke/",
    "https://tiva.mlsn.ru/pokupka-kvartiry-v-novostrojke/",
    "https://tmn.mlsn.ru/pokupka-kvartiry-v-novostrojke/",
    "https://tomsk.mlsn.ru/pokupka-kvartiry-v-novostrojke/",
    "https://tula.mlsn.ru/pokupka-kvartiry-v-novostrojke/",
    "https://tver.mlsn.ru/pokupka-kvartiry-v-novostrojke/",
    "https://ufa.mlsn.ru/pokupka-kvartiry-v-novostrojke/",
    "https://ul.mlsn.ru/pokupka-kvartiry-v-novostrojke/",
    "https://ulanude.mlsn.ru/pokupka-kvartiry-v-novostrojke/",
    "https://vladimir.mlsn.ru/pokupka-kvartiry-v-novostrojke/",
    "https://vladivostok.mlsn.ru/pokupka-kvartiry-v-novostrojke/",
    "https://volgograd.mlsn.ru/pokupka-kvartiry-v-novostrojke/",
    "https://vologda.mlsn.ru/pokupka-kvartiry-v-novostrojke/",
    "https://vrn.mlsn.ru/pokupka-kvartiry-v-novostrojke/",
    "https://yakutia.mlsn.ru/pokupka-kvartiry-v-novostrojke/",
    "https://yamalonenetsk.mlsn.ru/pokupka-kvartiry-v-novostrojke/",
    "https://yaroslavl.mlsn.ru/pokupka-kvartiry-v-novostrojke/",
    "https://yoshkar-ola.mlsn.ru/pokupka-kvartiry-v-novostrojke/",
    "https://zabaykalsk.mlsn.ru/pokupka-kvartiry-v-novostrojke/"
  ],
  "_segment": "Жилая недвижимость",
  "_operation": "",
  "_federal_subject": "",
  "_source": "MLSN",
  "project_id": "metaspider",
  "spider_id": "metacrawler",
  "global_settings": {
    "CONCURRENT_REQUESTS": 1000,
    "SPLASH_URL": "http://0.0.0.0:8050",
    "LOG_LEVEL": "INFO",
    "AUTOTHROTTLE_ENABLED": true,
    "AUTOTHROTTLE_START_DELAY": 1,
    "AUTOTHROTTLE_MAX_DELAY": 60,
    "AUTOTHROTTLE_TARGET_CONCURRENCY": 1000,
    "CONCURRENT_REQUESTS_PER_DOMAIN": 1000,
    "RETRY_ENABLED": true,
    "RETRY_HTTP_CODES": [
      500,
      503,
      504,
      400,
      403,
      408,
      429,
      505,
      404,
      301,
      302,
      303,
      451,
      307,
      410,
      502,
      407
    ],
    "HTTPERROR_ALLOWED_CODES": [],
    "RETRY_TIMES": 20,
    "ROBOTSTXT_ENABLED": false,
    "ROBOTSTXT_OBEY": false,
    "REDIRECT_ENABLED": false,
    "COOKIES_ENABLED": true,
    "DOWNLOAD_FAIL_ON_DATALOSS": false,
    "RANDOM_UA_TYPE": "random",
    "DOWNLOAD_TIMEOUT": 60,
    "CLOSESPIDER_ITEMCOUNT": 0,
    "CLOSESPIDER_ERRORCOUNT": 0
  },
  "methods": {
    "crawling_type": "common",
    "filter_duplicates": true,
    "allowed_domains": [],
    "proxy_settings": {
      "types": [
        "https"
      ],
      "amount": 10000,
      "save": false
    }
  },
  "crawl_tree": [
    {
      "pagination_urls": {
        "path": "//link[@rel='next']/@href"
      },
      "item_urls": {
        "path": "//table[@class='table table-bordered grid-view mode-grid'][1]//a[@class='location']/@href"
      }
    }
  ],
  "item_page": {
    "fields": {
      "address_city": {
        "type": "string",
        "path": "//head/title/text()",
        "regex": "(?<=MLSN\\.RU\\s).+"
      },
      "title_name": {
        "type": "string",
        "path": "//title/text()"
      },
      "date_info": {
        "type": "date",
        "time": "now"
      },
      "price_total": {
        "type": "float",
        "path": "//div[@class='ColumnLeft__base']//span[@class='Price__base']/text()",
        "regex": "\\d+ ?\\d* ?\\d*"
      },
      "address": {
        "type": "string",
        "path": "//span[@itemprop='name']//span[2]/text()"
      },
      "operation": {
        "type": "string",
        "path": "//head/title/text()",
        "regex": "[Пп]род|[Аа]ренд",
        "string_operations": [
          "lower"
        ]
      },
      "area_total": {
        "type": "float",
        "path": "//td[contains(@class, 'ParamsList__paramName')][contains(text(), 'Площадь общая')]/following-sibling::td//text()",
        "regex": "[\\d\\.]+"
      },
      "area_total_reg": {
        "type": "float",
        "path": "//title/text()",
        "regex": "[\\d.,]+(?= м²)"
      },
      "description": {
        "type": "string",
        "path": "//div[@itemprop='description']//p/text()"
      },
      "rent_price_per_area": {
        "type": "float",
        "path": "//div[@class='PropertyHeader__priceAddition typography__bodySmall fonts__mainFont']/text()",
        "regex": "\\d+"
      },
      "date_created": {
        "type": "date",
        "time": "from string",
        "path": "//div[@class='PropertyStats__propertyStatistics typography__bodySmall fonts__mainFont']/div[3]/span/text()"
      },
      "date_updated": {
        "type": "date",
        "time": "from string",
        "path": "//div[@class='PropertyStats__propertyStatistics typography__bodySmall fonts__mainFont']/div[4]/span/text()"
      },
      "seller_name": {
        "type": "string",
        "path": "//*[contains(@class, 'ContactsCard__contactName')][1]/text()"
      },
      "company_name": {
        "type": "string",
        "path": "//div[contains(@class, 'ContactsCard__agencyName')][1]/span/text()[3]|//div[contains(@class, 'ContactsCard__agencyName')][1]/a/text()[3]"
      },
      "phone": {
        "type": "phone",
        "path": "//html/body/script[2]/text()",
        "regex": "(?<=number\":\")\\d+"
      },
      "area_living": {
        "type": "float",
        "path": "//td[contains(@class, 'ParamsList__paramName')][contains(text(), 'Площадь жилая')]/following-sibling::td//text()",
        "regex": "[\\d\\.]+"
      },
      "floor": {
        "type": "float",
        "path": "//td[contains(@class, 'ParamsList__paramName')][contains(text(), 'Этаж')]/following-sibling::td//text()",
        "regex": "\\d+(?=/)"
      },
      "floors_cnt": {
        "type": "float",
        "path": "//td[contains(@class, 'ParamsList__paramName')][contains(text(), 'Этаж')]/following-sibling::td//text()",
        "regex": "(?<=/)\\d+"
      },
      "kitchen_area": {
        "type": "float",
        "path": "//td[contains(@class, 'ParamsList__paramName')][contains(text(), 'Площадь кухни')]/following-sibling::td//text()",
        "regex": "[\\d\\.]+"
      },
      "bathroom": {
        "type": "string",
        "path": "//td[contains(@class, 'ParamsList__paramName')][contains(text(), 'Санузел')]/following-sibling::td//text()"
      },
      "is_balcony": {
        "type": "string",
        "path": "//td[contains(@class, 'ParamsList__paramName')][contains(text(), 'Балкон')]/following-sibling::td//text()"
      },
      "renovation": {
        "type": "string",
        "path": "//td[contains(@class, 'ParamsList__paramName')][contains(text(), 'ремонт')]/following-sibling::td//text()"
      },
      "window_view": {
        "type": "string",
        "path": "//td[contains(@class, 'ParamsList__paramName')][contains(text(), 'Вид из окон')]/following-sibling::td//text()"
      },
      "wall_material": {
        "type": "string",
        "path": "//td[contains(@class, 'ParamsList__paramName')][contains(text(), 'Материал дома')]/following-sibling::td//text()"
      },
      "ceiling_height": {
        "type": "string",
        "path": "//td[contains(@class, 'ParamsList__paramName')][contains(text(), 'Высота потолка')]/following-sibling::td//text()"
      },
      "is_elevator": {
        "type": "string",
        "path": "//td[contains(@class, 'ParamsList__paramName')][contains(text(), 'Лифт')]/following-sibling::td//text()"
      },
      "parking": {
        "type": "string",
        "path": "//td[contains(@class, 'ParamsList__paramName')][contains(text(), 'Парковка')]/following-sibling::td//text()"
      },
      "year_built": {
        "type": "float",
        "path": "//td[contains(@class, 'ParamsList__paramName')][contains(text(), 'Год постройки')]/following-sibling::td//text()"
      }
    }
  }
}