 {       "_comment":"устранен и точка",
        "_task_id": "",
        "_start_urls": [
"https://www.multilisting.su/ao-chukotskiy/sale-land-lot",
"https://www.multilisting.su/ao-chukotskiy/for-rent-land-lot",
"https://www.multilisting.su/ao-evreyskaya/sale-land-lot",
"https://www.multilisting.su/ao-evreyskaya/for-rent-land-lot",
"https://www.multilisting.su/ao-hanty-mansiyskiy/sale-land-lot",
"https://www.multilisting.su/ao-hanty-mansiyskiy/for-rent-land-lot",
"https://www.multilisting.su/ao-nenetskiy/sale-land-lot",
"https://www.multilisting.su/ao-nenetskiy/for-rent-land-lot",
"https://www.multilisting.su/ao-yamalo-nenetskiy/sale-land-lot",
"https://www.multilisting.su/ao-yamalo-nenetskiy/for-rent-land-lot",
"https://www.multilisting.su/g-moskva/sale-land-lot",
"https://www.multilisting.su/g-moskva/for-rent-land-lot",
"https://www.multilisting.su/g-sankt-peterburg/sale-land-lot",
"https://www.multilisting.su/g-sankt-peterburg/for-rent-land-lot",
"https://www.multilisting.su/g-sevastopol/sale-land-lot",
"https://www.multilisting.su/g-sevastopol/for-rent-land-lot",
"https://www.multilisting.su/kray-altayskiy/sale-land-lot",
"https://www.multilisting.su/kray-altayskiy/for-rent-land-lot",
"https://www.multilisting.su/kray-habarovskiy/sale-land-lot",
"https://www.multilisting.su/kray-habarovskiy/for-rent-land-lot",
"https://www.multilisting.su/kray-kamchatskiy/sale-land-lot",
"https://www.multilisting.su/kray-kamchatskiy/for-rent-land-lot",
"https://www.multilisting.su/kray-krasnodarskiy/sale-land-lot",
"https://www.multilisting.su/kray-krasnodarskiy/for-rent-land-lot",
"https://www.multilisting.su/kray-krasnoyarskiy/sale-land-lot",
"https://www.multilisting.su/kray-krasnoyarskiy/for-rent-land-lot",
"https://www.multilisting.su/kray-permskiy/sale-land-lot",
"https://www.multilisting.su/kray-permskiy/for-rent-land-lot",
"https://www.multilisting.su/kray-primorskiy/sale-land-lot",
"https://www.multilisting.su/kray-primorskiy/for-rent-land-lot",
"https://www.multilisting.su/kray-stavropolskiy/sale-land-lot",
"https://www.multilisting.su/kray-stavropolskiy/for-rent-land-lot",
"https://www.multilisting.su/kray-zabaykalskiy/sale-land-lot",
"https://www.multilisting.su/kray-zabaykalskiy/for-rent-land-lot",
"https://www.multilisting.su/obl-amurskaya/sale-land-lot",
"https://www.multilisting.su/obl-amurskaya/for-rent-land-lot",
"https://www.multilisting.su/obl-arhangelskaya/sale-land-lot",
"https://www.multilisting.su/obl-arhangelskaya/for-rent-land-lot",
"https://www.multilisting.su/obl-astrahanskaya/sale-land-lot",
"https://www.multilisting.su/obl-astrahanskaya/for-rent-land-lot",
"https://www.multilisting.su/obl-belgorodskaya/sale-land-lot",
"https://www.multilisting.su/obl-belgorodskaya/for-rent-land-lot",
"https://www.multilisting.su/obl-bryanskaya/sale-land-lot",
"https://www.multilisting.su/obl-bryanskaya/for-rent-land-lot",
"https://www.multilisting.su/obl-chelyabinskaya/sale-land-lot",
"https://www.multilisting.su/obl-chelyabinskaya/for-rent-land-lot",
"https://www.multilisting.su/obl-irkutskaya/sale-land-lot",
"https://www.multilisting.su/obl-irkutskaya/for-rent-land-lot",
"https://www.multilisting.su/obl-ivanovskaya/sale-land-lot",
"https://www.multilisting.su/obl-ivanovskaya/for-rent-land-lot",
"https://www.multilisting.su/obl-kaliningradskaya/sale-land-lot",
"https://www.multilisting.su/obl-kaliningradskaya/for-rent-land-lot",
"https://www.multilisting.su/obl-kaluzhskaya/sale-land-lot",
"https://www.multilisting.su/obl-kaluzhskaya/for-rent-land-lot",
"https://www.multilisting.su/obl-kemerovskaya/sale-land-lot",
"https://www.multilisting.su/obl-kemerovskaya/for-rent-land-lot",
"https://www.multilisting.su/obl-kirovskaya/sale-land-lot",
"https://www.multilisting.su/obl-kirovskaya/for-rent-land-lot",
"https://www.multilisting.su/obl-kostromskaya/sale-land-lot",
"https://www.multilisting.su/obl-kostromskaya/for-rent-land-lot",
"https://www.multilisting.su/obl-kurganskaya/sale-land-lot",
"https://www.multilisting.su/obl-kurganskaya/for-rent-land-lot",
"https://www.multilisting.su/obl-kurskaya/sale-land-lot",
"https://www.multilisting.su/obl-kurskaya/for-rent-land-lot",
"https://www.multilisting.su/obl-leningradskaya/sale-land-lot",
"https://www.multilisting.su/obl-leningradskaya/for-rent-land-lot",
"https://www.multilisting.su/obl-lipetskaya/sale-land-lot",
"https://www.multilisting.su/obl-lipetskaya/for-rent-land-lot",
"https://www.multilisting.su/obl-magadanskaya/sale-land-lot",
"https://www.multilisting.su/obl-magadanskaya/for-rent-land-lot",
"https://www.multilisting.su/obl-moskovskaya/sale-land-lot",
"https://www.multilisting.su/obl-moskovskaya/for-rent-land-lot",
"https://www.multilisting.su/obl-murmanskaya/sale-land-lot",
"https://www.multilisting.su/obl-murmanskaya/for-rent-land-lot",
"https://www.multilisting.su/obl-nizhegorodskaya/sale-land-lot",
"https://www.multilisting.su/obl-nizhegorodskaya/for-rent-land-lot",
"https://www.multilisting.su/obl-novgorodskaya/sale-land-lot",
"https://www.multilisting.su/obl-novgorodskaya/for-rent-land-lot",
"https://www.multilisting.su/obl-novosibirskaya/sale-land-lot",
"https://www.multilisting.su/obl-novosibirskaya/for-rent-land-lot",
"https://www.multilisting.su/obl-omskaya/sale-land-lot",
"https://www.multilisting.su/obl-omskaya/for-rent-land-lot",
"https://www.multilisting.su/obl-orenburgskaya/sale-land-lot",
"https://www.multilisting.su/obl-orenburgskaya/for-rent-land-lot",
"https://www.multilisting.su/obl-orlovskaya/sale-land-lot",
"https://www.multilisting.su/obl-orlovskaya/for-rent-land-lot",
"https://www.multilisting.su/obl-penzenskaya/sale-land-lot",
"https://www.multilisting.su/obl-penzenskaya/for-rent-land-lot",
"https://www.multilisting.su/obl-pskovskaya/sale-land-lot",
"https://www.multilisting.su/obl-pskovskaya/for-rent-land-lot",
"https://www.multilisting.su/obl-rostovskaya/sale-land-lot",
"https://www.multilisting.su/obl-rostovskaya/for-rent-land-lot",
"https://www.multilisting.su/obl-ryazanskaya/sale-land-lot",
"https://www.multilisting.su/obl-ryazanskaya/for-rent-land-lot",
"https://www.multilisting.su/obl-sahalinskaya/sale-land-lot",
"https://www.multilisting.su/obl-sahalinskaya/for-rent-land-lot",
"https://www.multilisting.su/obl-samarskaya/sale-land-lot",
"https://www.multilisting.su/obl-samarskaya/for-rent-land-lot",
"https://www.multilisting.su/obl-saratovskaya/sale-land-lot",
"https://www.multilisting.su/obl-saratovskaya/for-rent-land-lot",
"https://www.multilisting.su/obl-smolenskaya/sale-land-lot",
"https://www.multilisting.su/obl-smolenskaya/for-rent-land-lot",
"https://www.multilisting.su/obl-sverdlovskaya/sale-land-lot",
"https://www.multilisting.su/obl-sverdlovskaya/for-rent-land-lot",
"https://www.multilisting.su/obl-tambovskaya/sale-land-lot",
"https://www.multilisting.su/obl-tambovskaya/for-rent-land-lot",
"https://www.multilisting.su/obl-tomskaya/sale-land-lot",
"https://www.multilisting.su/obl-tomskaya/for-rent-land-lot",
"https://www.multilisting.su/obl-tulskaya/sale-land-lot",
"https://www.multilisting.su/obl-tulskaya/for-rent-land-lot",
"https://www.multilisting.su/obl-tverskaya/sale-land-lot",
"https://www.multilisting.su/obl-tverskaya/for-rent-land-lot",
"https://www.multilisting.su/obl-tyumenskaya/sale-land-lot",
"https://www.multilisting.su/obl-tyumenskaya/for-rent-land-lot",
"https://www.multilisting.su/obl-ulyanovskaya/sale-land-lot",
"https://www.multilisting.su/obl-ulyanovskaya/for-rent-land-lot",
"https://www.multilisting.su/obl-vladimirskaya/sale-land-lot",
"https://www.multilisting.su/obl-vladimirskaya/for-rent-land-lot",
"https://www.multilisting.su/obl-volgogradskaya/sale-land-lot",
"https://www.multilisting.su/obl-volgogradskaya/for-rent-land-lot",
"https://www.multilisting.su/obl-vologodskaya/sale-land-lot",
"https://www.multilisting.su/obl-vologodskaya/for-rent-land-lot",
"https://www.multilisting.su/obl-voronezhskaya/sale-land-lot",
"https://www.multilisting.su/obl-voronezhskaya/for-rent-land-lot",
"https://www.multilisting.su/obl-yaroslavskaya/sale-land-lot",
"https://www.multilisting.su/obl-yaroslavskaya/for-rent-land-lot",
"https://www.multilisting.su/okrug-zabaykalskiy-kray-aginskiy-buryatskiy/sale-land-lot",
"https://www.multilisting.su/okrug-zabaykalskiy-kray-aginskiy-buryatskiy/for-rent-land-lot",
"https://www.multilisting.su/resp-adygeya/sale-land-lot",
"https://www.multilisting.su/resp-adygeya/for-rent-land-lot",
"https://www.multilisting.su/resp-altay/sale-land-lot",
"https://www.multilisting.su/resp-altay/for-rent-land-lot",
"https://www.multilisting.su/resp-bashkortostan/sale-land-lot",
"https://www.multilisting.su/resp-bashkortostan/for-rent-land-lot",
"https://www.multilisting.su/resp-buryatiya/sale-land-lot",
"https://www.multilisting.su/resp-buryatiya/for-rent-land-lot",
"https://www.multilisting.su/resp-chechenskaya/sale-land-lot",
"https://www.multilisting.su/resp-chechenskaya/for-rent-land-lot",
"https://www.multilisting.su/resp-chuvashskaya/sale-land-lot",
"https://www.multilisting.su/resp-chuvashskaya/for-rent-land-lot",
"https://www.multilisting.su/resp-dagestan/sale-land-lot",
"https://www.multilisting.su/resp-dagestan/for-rent-land-lot",
"https://www.multilisting.su/resp-hakasiya/sale-land-lot",
"https://www.multilisting.su/resp-hakasiya/for-rent-land-lot",
"https://www.multilisting.su/resp-ingushetiya/sale-land-lot",
"https://www.multilisting.su/resp-ingushetiya/for-rent-land-lot",
"https://www.multilisting.su/resp-kabardino-balkarskaya/sale-land-lot",
"https://www.multilisting.su/resp-kabardino-balkarskaya/for-rent-land-lot",
"https://www.multilisting.su/resp-kalmykiya/sale-land-lot",
"https://www.multilisting.su/resp-kalmykiya/for-rent-land-lot",
"https://www.multilisting.su/resp-karachaevo-cherkesskaya/sale-land-lot",
"https://www.multilisting.su/resp-karachaevo-cherkesskaya/for-rent-land-lot",
"https://www.multilisting.su/resp-kareliya/sale-land-lot",
"https://www.multilisting.su/resp-kareliya/for-rent-land-lot",
"https://www.multilisting.su/resp-komi/sale-land-lot",
"https://www.multilisting.su/resp-komi/for-rent-land-lot",
"https://www.multilisting.su/resp-krym/sale-land-lot",
"https://www.multilisting.su/resp-krym/for-rent-land-lot",
"https://www.multilisting.su/resp-mariy-el/sale-land-lot",
"https://www.multilisting.su/resp-mariy-el/for-rent-land-lot",
"https://www.multilisting.su/resp-mordoviya/sale-land-lot",
"https://www.multilisting.su/resp-mordoviya/for-rent-land-lot",
"https://www.multilisting.su/resp-saha-yakutiya/sale-land-lot",
"https://www.multilisting.su/resp-saha-yakutiya/for-rent-land-lot",
"https://www.multilisting.su/resp-severnaya-osetiya-alaniya/sale-land-lot",
"https://www.multilisting.su/resp-severnaya-osetiya-alaniya/for-rent-land-lot",
"https://www.multilisting.su/resp-tatarstan/sale-land-lot",
"https://www.multilisting.su/resp-tatarstan/for-rent-land-lot",
"https://www.multilisting.su/resp-tyva/sale-land-lot",
"https://www.multilisting.su/resp-tyva/for-rent-land-lot",
"https://www.multilisting.su/resp-udmurtskaya/sale-land-lot",
"https://www.multilisting.su/resp-udmurtskaya/for-rent-land-lot"
        ],
        "_segment": "Земельные участки",
        "_operation": "",
        "_federal_subject": "",
        "_source": "https://multilisting.su/",
        "project_id": "metaspider",
        "spider_id": "metacrawler",
        "global_settings": {
            "CONCURRENT_REQUESTS": 1024,
            "SPLASH_URL": "http://0.0.0.0:8050",
            "LOG_LEVEL": "INFO",
            "AUTOTHROTTLE_ENABLED": false,
            "AUTOTHROTTLE_START_DELAY": 1,
            "AUTOTHROTTLE_MAX_DELAY": 60,
            "AUTOTHROTTLE_TARGET_CONCURRENCY": 1024,
            "CONCURRENT_REQUESTS_PER_DOMAIN": 1024,
            "RETRY_ENABLED": true,
            "RETRY_HTTP_CODES": [
                500,
                503,
                502,
                504,
                400,
                403,
                408,
                429,
                505,
                303,
                302,
                301,
                404,
                307,
                410,
                502,
                451,
                407
            ],
            "HTTPERROR_ALLOWED_CODES": [],
            "RETRY_TIMES": 20,
            "ROBOTSTXT_ENABLED": false,
            "ROBOTSTXT_OBEY": false,
            "REDIRECT_ENABLED": false,
            "COOKIES_ENABLED": false,
            "DOWNLOAD_FAIL_ON_DATALOSS": false,
            "RANDOM_UA_TYPE": "random",
            "DOWNLOAD_TIMEOUT": 60,
            "CLOSESPIDER_ITEMCOUNT": 0,
            "CLOSESPIDER_ERRORCOUNT": 0
        },
        "methods": {
            "crawling_type": "common",
            "allowed_domains": [],
            "proxy_settings": {
                "types": [
                    "https"
                ],
                "amount": 10000,
                "save": false
            }
        },
        "crawl_tree": [
            {
                "pagination_urls": {
                    "path": "//ul[@class='pagination pull-left']/li[@class='disabled']/span[not (contains(text(),'...'))]/parent::li/following-sibling::li[1]/a/@href"
                },
                "item_urls": {
                    "path": "//a[@class = 'header_adv_short']/@href"
                }
            }
        ],
        "item_page": {
            "fields": {

                "source_latitude": {
                    "type": "float",
                    "path": "//@data-latitude",
                    "operations": []
                },
                "source_longitude": {
                    "type": "float",
                    "path": "//@data-longitude",
                    "operations": []
                },
                "address": {
                    "type": "string",
                    "path": "//span/meta[@itemprop='address']/@content",
                    "operations": []
                },
                "federal_subject": {
                    "type": "string",
                    "path": "//head/meta[@name='geo.region']/@content",
                    "operations": []
                },
                "district_name": {
                    "type": "string",
                    "path": "//span/meta[@itemprop='address']/@content",
                    "regex": "(?<=г )[\\w -]+|(?<= с )[\\w -]+|(?<= д )[\\w -]+|(?<= п )[\\w -]+|(?=село )[\\w -]+|(?=деревня )[\\w -]+|(?=ст-ца )[\\w -]+|(?=пгт )[\\w -]|(?=поселок )[\\w -]+",
                    "operations": []
                },
                "intown_district": {
                    "type": "list to string",
                    "path": "//span/meta[@itemprop='address']/@content",
                    "regex": "(?=р-н )([-\\w\\s()\/]+)",
                    "operations": []
                },
                "street_name": {
                    "type": "string",
                    "path": "//span/meta[@itemprop='address']/@content",
                    "regex": "(?=ул )([-\\w ()]+)",
                    "operations": []
                },
                "purpose": {
                    "type": "string",
                    "path": "//h1[@itemprop = 'name']/text()",
                    "operations": []
                },
                "area_total": {
                    "type": "float",
                    "path": "//li[contains(text(),'площадь участка:')]/span/text()",
                    "operations": []
                },
                "square_dimension": {
                    "type": "string",
                    "path": "//li[contains(text(),'площадь участка:')]/text()[2]",
                    "regex": "[\\D ]+",
                    "operations": []
                },
                 "seller_name": {
                    "type": "string",
                    "path": "//span/span[@itemprop='name']/text()",
                    "operations": []
                },
                "operation": {
                    "type": "string",
                    "path": "//h1/text()",
                    "regex": "Сдаю|Продам",
                    "operations": []
                },
               "date_info": {
                    "type": "date",
                    "time": "now",
                    "operations": []
                },
                "date_created": {
                    "type": "date",
                    "path": "concat(substring(//strong/time/@datetime,0,6),substring(//strong/time/@datetime,9,2),substring(//strong/time/@datetime,5,3),substring(//strong/time/@datetime,11,10))",
                    "time": "from string",
                    "operations": []
                },
                "date_created_str": {
                    "type": "string",
                    "path": "substring(//strong/time/@datetime,1,19)",
                    "operations": []
                },
                "title_name": {
                    "type": "string",
                    "path": "//h1/text()",
                    "operations": []
                },
                    "price_total": {
                    "type": "float",
                    "path": "//li[@class='lead']/span/text()",
                    "regex": "\\d+",
                    "operations": []
                },
                    "price_currency": {
                    "type": "string",
                    "path": "//li[@class='lead']/meta[@itemprop='priceCurrency']/@content",
                    "operations": []
                },
                    "description": {
                    "type": "list to string",
                    "path": "//span[@itemprop='offers']/p/text()",
                    "operations": []
                },
                "phone": {
                    "type": "phone",
                    "path": "(//div[@id='top_phone']/a/@href | //div[@class='mrk bphone']/a/@href)[1]",
                    "regex": "[\\d()+ -]+",
                    "operations": []
                },
                 "land_category": {
                    "type": "string",
                    "path": "//ol[@itemscope='itemscope']/li[last()]//text()",
                    "operations": []
                }
            }
        }
    }