{
  "_task_id": "RLTMAG",
  "_start_urls": [],
  "_segment": "Гаражи",
  "_operation": "",
  "_federal_subject": "",
  "_source": "https://www.realtymag.ru",
  "project_id": "metaspider",
  "spider_id": "metacrawler",
  "global_settings": {
    "CONCURRENT_REQUESTS": 1024,
    "SPLASH_URL": "http://0.0.0.0:8050",
    "LOG_LEVEL": "INFO",
    "AUTOTHROTTLE_ENABLED": true,
    "AUTOTHROTTLE_START_DELAY": 1,
    "AUTOTHROTTLE_MAX_DELAY": 40,
    "AUTOTHROTTLE_TARGET_CONCURRENCY": 1024,
    "CONCURRENT_REQUESTS_PER_DOMAIN": 1024,
    "RETRY_ENABLED": true,
    "RETRY_HTTP_CODES": [
      500,
      503,
      502,
      504,
      400,
      403,
      408,
      429,
      505,
      303,
      302,
      301,
      307,
      410,
      451
    ],
    "HTTPERROR_ALLOWED_CODES": [],
    "RETRY_TIMES": 40,
    "ROBOTSTXT_ENABLED": false,
    "ROBOTSTXT_OBEY": false,
    "REDIRECT_ENABLED": true,
    "COOKIES_ENABLED": false,
    "DOWNLOAD_FAIL_ON_DATALOSS": false,
    "RANDOM_UA_TYPE": "random",
    "DOWNLOAD_TIMEOUT": 60,
    "CLOSESPIDER_ITEMCOUNT": 0,
    "CLOSESPIDER_ERRORCOUNT": 0
  },
  "methods": {
    "crawling_type": "common",
    "filter_duplicates": false,
    "allowed_domains": [
      "www.realtymag.ru"
    ],
    "proxy_settings": {
      "types": [
        "https"
      ],
      "amount": 10000,
      "save": false
    }
  },
    "crawl_tree": [
        {
            "pagination_urls": {
                "path": "//li[contains(@class,'page current')]/following-sibling::li[1]/a/@href"
            },
            "item_urls": {
                "path": "//a[@class='offer__details-link']/@href"
            }
        }
    ],

  "sitemap_urls": {
    "start": [
"https://www.realtymag.ru/adygeya/garage/prodazha/?price_min=0&price_max=1000000",
"https://www.realtymag.ru/altay/garage/prodazha/?price_min=0&price_max=1000000",
"https://www.realtymag.ru/altayskiy-kray/garage/prodazha/?price_min=0&price_max=1000000",
"https://www.realtymag.ru/amurskaya-oblast/garage/prodazha/?price_min=0&price_max=1000000",
"https://www.realtymag.ru/arhangelskaya-oblast/garage/prodazha/?price_min=0&price_max=1000000",
"https://www.realtymag.ru/astrahanskaya-oblast/garage/prodazha/?price_min=0&price_max=1000000",
"https://www.realtymag.ru/bashkiriya/garage/prodazha/?price_min=0&price_max=1000000",
"https://www.realtymag.ru/belgorodskaya-oblast/garage/prodazha/?price_min=0&price_max=1000000",
"https://www.realtymag.ru/bryanskaya-oblast/garage/prodazha/?price_min=0&price_max=1000000",
"https://www.realtymag.ru/buryatiya/garage/prodazha/?price_min=0&price_max=1000000",
"https://www.realtymag.ru/chechnya/garage/prodazha/?price_min=0&price_max=1000000",
"https://www.realtymag.ru/chelyabinskaya-oblast/garage/prodazha/?price_min=0&price_max=1000000",
"https://www.realtymag.ru/chukotskiy-avtonomny-okrug/garage/prodazha/?price_min=0&price_max=1000000",
"https://www.realtymag.ru/chuvashiya/garage/prodazha/?price_min=0&price_max=1000000",
"https://www.realtymag.ru/dagestan/garage/prodazha/?price_min=0&price_max=1000000",
"https://www.realtymag.ru/evreyskaya-avtonomnaya-oblast/garage/prodazha/?price_min=0&price_max=1000000",
"https://www.realtymag.ru/habarovskiy-kray/garage/prodazha/?price_min=0&price_max=1000000",
"https://www.realtymag.ru/hakassiya/garage/prodazha/?price_min=0&price_max=1000000",
"https://www.realtymag.ru/hmao/garage/prodazha/?price_min=0&price_max=1000000",
"https://www.realtymag.ru/ingushetiya/garage/prodazha/?price_min=0&price_max=1000000",
"https://www.realtymag.ru/irkutskaya-oblast/garage/prodazha/?price_min=0&price_max=1000000",
"https://www.realtymag.ru/ivanovskaya-oblast/garage/prodazha/?price_min=0&price_max=1000000",
"https://www.realtymag.ru/kabardino-balkariya/garage/prodazha/?price_min=0&price_max=1000000",
"https://www.realtymag.ru/kaliningradskaya-oblast/garage/prodazha/?price_min=0&price_max=1000000",
"https://www.realtymag.ru/kalmykiya/garage/prodazha/?price_min=0&price_max=1000000",
"https://www.realtymag.ru/kaluzhskaya-oblast/garage/prodazha/?price_min=0&price_max=1000000",
"https://www.realtymag.ru/kamchatskiy-kray/garage/prodazha/?price_min=0&price_max=1000000",
"https://www.realtymag.ru/kareliya/garage/prodazha/?price_min=0&price_max=1000000",
"https://www.realtymag.ru/kchr/garage/prodazha/?price_min=0&price_max=1000000",
"https://www.realtymag.ru/kemerovskaya-oblast/garage/prodazha/?price_min=0&price_max=1000000",
"https://www.realtymag.ru/kirovskaya-oblast/garage/prodazha/?price_min=0&price_max=1000000",
"https://www.realtymag.ru/komi/garage/prodazha/?price_min=0&price_max=1000000",
"https://www.realtymag.ru/kostromskaya-oblast/garage/prodazha/?price_min=0&price_max=1000000",
"https://www.realtymag.ru/krasnodarskiy-kray/garage/prodazha/?price_min=0&price_max=1000000",
"https://www.realtymag.ru/krasnoyarskiy-kray/garage/prodazha/?price_min=0&price_max=1000000",
"https://www.realtymag.ru/krym/garage/prodazha/?price_min=0&price_max=1000000",
"https://www.realtymag.ru/kurganskaya-oblast/garage/prodazha/?price_min=0&price_max=1000000",
"https://www.realtymag.ru/kurskaya-oblast/garage/prodazha/?price_min=0&price_max=1000000",
"https://www.realtymag.ru/leningradskaya-oblast/garage/prodazha/?price_min=0&price_max=1000000",
"https://www.realtymag.ru/lipeckaya-oblast/garage/prodazha/?price_min=0&price_max=1000000",
"https://www.realtymag.ru/magadanskaya-oblast/garage/prodazha/?price_min=0&price_max=1000000",
"https://www.realtymag.ru/mariy-el/garage/prodazha/?price_min=0&price_max=1000000",
"https://www.realtymag.ru/mordoviya/garage/prodazha/?price_min=0&price_max=1000000",
"https://www.realtymag.ru/moskva/garage/prodazha/?price_min=0&price_max=1000000",
"https://www.realtymag.ru/murmanskaya-oblast/garage/prodazha/?price_min=0&price_max=1000000",
"https://www.realtymag.ru/neneckiy/garage/prodazha/?price_min=0&price_max=1000000",
"https://www.realtymag.ru/nizhegorodskaya-oblast/garage/prodazha/?price_min=0&price_max=1000000",
"https://www.realtymag.ru/novgorodskaya-oblast/garage/prodazha/?price_min=0&price_max=1000000",
"https://www.realtymag.ru/novosibirskaya-oblast/garage/prodazha/?price_min=0&price_max=1000000",
"https://www.realtymag.ru/omskaya-oblast/garage/prodazha/?price_min=0&price_max=1000000",
"https://www.realtymag.ru/orenburgskaya-oblast/garage/prodazha/?price_min=0&price_max=1000000",
"https://www.realtymag.ru/orlovskaya-oblast/garage/prodazha/?price_min=0&price_max=1000000",
"https://www.realtymag.ru/penzenskaya-oblast/garage/prodazha/?price_min=0&price_max=1000000",
"https://www.realtymag.ru/permskiy-kray/garage/prodazha/?price_min=0&price_max=1000000",
"https://www.realtymag.ru/podmoskovye/garage/prodazha/?price_min=0&price_max=1000000",
"https://www.realtymag.ru/primorskiy-kray/garage/prodazha/?price_min=0&price_max=1000000",
"https://www.realtymag.ru/pskovskaya-oblast/garage/prodazha/?price_min=0&price_max=1000000",
"https://www.realtymag.ru/rostovskaya-oblast/garage/prodazha/?price_min=0&price_max=1000000",
"https://www.realtymag.ru/ryazanskaya-oblast/garage/prodazha/?price_min=0&price_max=1000000",
"https://www.realtymag.ru/sahalinskaya-oblast/garage/prodazha/?price_min=0&price_max=1000000",
"https://www.realtymag.ru/samarskaya-oblast/garage/prodazha/?price_min=0&price_max=1000000",
"https://www.realtymag.ru/sankt-peterburg/garage/prodazha/?price_min=0&price_max=1000000",
"https://www.realtymag.ru/saratovskaya-oblast/garage/prodazha/?price_min=0&price_max=1000000",
"https://www.realtymag.ru/sevastopol/garage/prodazha/?price_min=0&price_max=1000000",
"https://www.realtymag.ru/severnaya-osetiya-alaniya/garage/prodazha/?price_min=0&price_max=1000000",
"https://www.realtymag.ru/smolenskaya-oblast/garage/prodazha/?price_min=0&price_max=1000000",
"https://www.realtymag.ru/stavropolskiy-kray/garage/prodazha/?price_min=0&price_max=1000000",
"https://www.realtymag.ru/sverdlovskaya-oblast/garage/prodazha/?price_min=0&price_max=1000000",
"https://www.realtymag.ru/tambovskaya-oblast/garage/prodazha/?price_min=0&price_max=1000000",
"https://www.realtymag.ru/tatarstan/garage/prodazha/?price_min=0&price_max=1000000",
"https://www.realtymag.ru/tomskaya-oblast/garage/prodazha/?price_min=0&price_max=1000000",
"https://www.realtymag.ru/tulskaya-oblast/garage/prodazha/?price_min=0&price_max=1000000",
"https://www.realtymag.ru/tverskaya-oblast/garage/prodazha/?price_min=0&price_max=1000000",
"https://www.realtymag.ru/tyumenskaya-oblast/garage/prodazha/?price_min=0&price_max=1000000",
"https://www.realtymag.ru/tyva-respublika/garage/prodazha/?price_min=0&price_max=1000000",
"https://www.realtymag.ru/udmurtiya/garage/prodazha/?price_min=0&price_max=1000000",
"https://www.realtymag.ru/ulyanovskaya-oblast/garage/prodazha/?price_min=0&price_max=1000000",
"https://www.realtymag.ru/vladimirskaya-oblast/garage/prodazha/?price_min=0&price_max=1000000",
"https://www.realtymag.ru/volgogradskaya-oblast/garage/prodazha/?price_min=0&price_max=1000000",
"https://www.realtymag.ru/vologodskaya-oblast/garage/prodazha/?price_min=0&price_max=1000000",
"https://www.realtymag.ru/voronezhskaya-oblast/garage/prodazha/?price_min=0&price_max=1000000",
"https://www.realtymag.ru/yakutiya/garage/prodazha/?price_min=0&price_max=1000000",
"https://www.realtymag.ru/yanao/garage/prodazha/?price_min=0&price_max=1000000",
"https://www.realtymag.ru/yaroslavskaya-oblast/garage/prodazha/?price_min=0&price_max=1000000",
"https://www.realtymag.ru/zabaykalskiy-kray/garage/prodazha/?price_min=0&price_max=1000000"
    ],
            "type": "pagination_generator",
            "crawl_tree": {
                "pagination_generator": {
                    "available_items_per_pagination": 2500,
                    "stop_after_no_items": 3,
                    "targets": {
                        "pagination_generator": {
                            "type": "pagination_generator"
                        },
                        "item": {
                            "type": "item",
                            "path": "//a[@class='offer__details-link']/@href"
                        },
                        "pagination": {
                            "type": "pagination",
                            "path": "//li[contains(@class,'page current')]/following-sibling::li[1]/a/@href"
                        }
                    },
                    "items_per_pagination": {
                      "type": "float",
                      "path": "//div[@class='offer__stat']//text()",
                      "regex": "(?!\\s)[\\d]+"
                    },
                    "to": "price_max",
                    "from": "price_min",
                    "scale": 1,
                    "max_items_per_pagination": 4980,
                    "acceleration": 2
                },
                "item": {},
                "pagination": {
                    "targets": {
                        "item": {
                            "type": "item",
                            "path": "//a[@class='offer__details-link']/@href"
                        },
                        "pagination": {
                            "type": "pagination",
                            "path": "//li[contains(@class,'page current')]/following-sibling::li[1]/a/@href"
                        }
                    }
                }
            },
            "target": "pagination_generator"
        },
  "item_page": {
    "fields": {
      "date_info": {
        "type": "date",
        "time": "now"
      },
      "price_currency": {
        "type": "string",
        "path": "//div[@class='offer-detail__price-links-rur active']/text()"
      },
      "title_name": {
        "type": "string",
        "path": "//title/text()"
      },
      "address": {
        "type": "list to string",
        "path": "//div[@class='offer-detail__location-block']//text()",
        "regex": "на карте|(.+)",
     "required": true
      },
      "area_total": {
        "type": "float",
        "path": "//div[text()='Общая площадь']/following-sibling::div/text()",
        "regex": "^[\\d\\s.,]+"
      },
      "floor": {
        "type": "float",
        "path": "//div[text()='Этаж']/following-sibling::div/text()",
        "regex": "^[\\d\\s.,]+"
      },
      "floors_cnt": {
        "type": "float",
        "path": "//div[text()='Этажность дома']/following-sibling::div/text()",
        "regex": "^[\\d\\s.,]+"
      },
      "ceiling_height": {
        "type": "float",
        "path": "//div[text()='Потолок']/following-sibling::div/text()",
        "regex": "^[\\d\\s.,]+"
      },
      "price_total": {
        "type": "float",
        "path": "//div[@class='offer-detail__price-rur']/descendant-or-self::div[not(contains(@class, 'suffix'))]/text()",
        "regex": "\\d*\\W?\\d+"
      },
      "rent_price_per_area": {
        "type": "float",
        "path": "//div[@class='offer-detail__price-per-square-rur']/text()",
        "regex": "^[\\d\\s.,]+"
      },
      "price_term": {
        "type": "string",
        "path": "//div[@class='offer-detail__price-suffix']/text()",
        "regex": "[А_Яа-я ]+"
      },
      "source_latitude": {
        "type": "float",
        "path": "//div[@id='map']/following-sibling::script[1]/text()",
        "regex": "\\\"map\\\"\\,(\\d+.\\d+)"
      },
      "source_longitude": {
        "type": "float",
        "path": "//div[@id='map']/following-sibling::script[1]/text()",
        "regex": "(\\d+.\\d+)\\)\\;"
      },
      "description": {
        "type": "string",
        "path": "//div[@class='offer-detail__info-block']//div[@class='offer-detail__section-item-body']/text()"
      },
      "seller_name": {
        "type": "string",
        "path": "//div[@class='offer-detail__contact-block']//div[@class='offer-detail__contact-name']/text()"
      },
      "company_name": {
        "type": "string",
        "path": "//div[@class='offer-detail__contact-status']/text()"
      },
      "phone": {
        "type": "phone",
        "path": "//div[@class='offer-detail__contact-phone-wrapper']/@data-phone"
      },
      "date_created": {
        "type": "date",
        "path": "//div[@class='offer-detail__refresh']/text()",
        "time": "from string"
      },
      "email": {
        "type": "string",
        "path": "//div[@class='offer-detail__contact-email']/text()"
      },
      "operation": {
        "type": "string",
        "path": "//nav[@class='site-breadcrumbs']//*[contains(text(),'Купить') or contains(text(),'Снять')]/text()",
        "regex": "Купить|Снять"
      },
      "federal_subject": {
        "type": "string",
        "path": "//div[@class='offer-detail__region']/a/text()"
      },
      "federal_subject_2": {
        "type": "string",
        "path": "(//span[text()='Регион:']/following-sibling::span/text())[1]"
      },
      "district_name": {
        "type": "string",
        "path": "//div[@class='offer-detail__district']/a/text()"
      },
     "address_city": {
        "type": "string",
        "path": "//div[@class='offer-detail__city']/a/text()"
      },
     "intown_district": {
        "type": "string",
        "path": "//div[@class='offer-detail__sublocality']/a/text()"
      },
    "street_name": {
        "type": "string",
        "path": "//div[@class='offer-detail__address']/a/text()"
      },
    "is_elevator": {
        "type": "string",
        "path": "//div[@class='offer-detail__item-ok']/parent::div/preceding-sibling::div[text()='Лифт']/text()"
      },
    "is_electricity": {
        "type": "string",
        "path": "//div[@class='offer-detail__item-ok']/parent::div/preceding-sibling::div[text()='Свет']/text()"
      },
    "heating_system_type": {
        "type": "string",
        "path": "//div[@class='offer-detail__item-ok']/parent::div/preceding-sibling::div[text()='Отопление']/text()"
      },
    "is_plumbing": {
        "type": "string",
        "path": "//div[@class='offer-detail__item-ok']/parent::div/preceding-sibling::div[text()='Вода']/text()"
      },
    "manager_company": {
        "type": "list to string",
        "path": "//div[text()='Название ГСК']/following-sibling::div/text()"
      },
    "is_cellar": {
              "type": "string",
              "path": "//div[@class='offer-detail__item-ok']/parent::div/preceding-sibling::div[text()='Погреб']/text()"
            },
    "is_inspection_pit": {
              "type": "string",
              "path": "//div[@class='offer-detail__item-ok']/parent::div/preceding-sibling::div[text()='Смотровая яма']/text()"
            },
    "purpose": {
        "type": "string",
        "path": "//div[@class='offer-detail__section']/h3/text()"
      },
    "location": {
        "type": "string",
        "path": "//div[text()='Место размещения']/following-sibling::div/text()"
      },
     "metro_station": {
        "type": "string",
        "path": "//div[@class='offer-detail__metro']/a/text()"
   }
  }
 }
}
