{
  "_task_id": "NNN-RSNDV-77",
  "_start_urls": [
    "https://www.rosnedv.ru/adygeya/kommercheskaya_nedvijimost/?realty[deal]=0&page=1",
    "https://www.rosnedv.ru/adygeya/kommercheskaya_nedvijimost/?realty[deal]=1&page=1",
    "https://www.rosnedv.ru/altay/kommercheskaya_nedvijimost/?realty[deal]=0&page=1",
    "https://www.rosnedv.ru/altay/kommercheskaya_nedvijimost/?realty[deal]=1&page=1",
    "https://www.rosnedv.ru/altayskiy/kommercheskaya_nedvijimost/?realty[deal]=0&page=1",
    "https://www.rosnedv.ru/altayskiy/kommercheskaya_nedvijimost/?realty[deal]=1&page=1",
    "https://www.rosnedv.ru/amurskaya/kommercheskaya_nedvijimost/?realty[deal]=0&page=1",
    "https://www.rosnedv.ru/amurskaya/kommercheskaya_nedvijimost/?realty[deal]=1&page=1",
    "https://www.rosnedv.ru/arhangelskaya/kommercheskaya_nedvijimost/?realty[deal]=0&page=1",
    "https://www.rosnedv.ru/arhangelskaya/kommercheskaya_nedvijimost/?realty[deal]=1&page=1",
    "https://www.rosnedv.ru/astrahanskaya/kommercheskaya_nedvijimost/?realty[deal]=0&page=1",
    "https://www.rosnedv.ru/astrahanskaya/kommercheskaya_nedvijimost/?realty[deal]=1&page=1",
    "https://www.rosnedv.ru/bashkortostan/kommercheskaya_nedvijimost/?realty[deal]=0&page=1",
    "https://www.rosnedv.ru/bashkortostan/kommercheskaya_nedvijimost/?realty[deal]=1&page=1",
    "https://www.rosnedv.ru/belgorodskaya/kommercheskaya_nedvijimost/?realty[deal]=0&page=1",
    "https://www.rosnedv.ru/belgorodskaya/kommercheskaya_nedvijimost/?realty[deal]=1&page=1",
    "https://www.rosnedv.ru/bryanskaya/kommercheskaya_nedvijimost/?realty[deal]=0&page=1",
    "https://www.rosnedv.ru/bryanskaya/kommercheskaya_nedvijimost/?realty[deal]=1&page=1",
    "https://www.rosnedv.ru/buryatiya/kommercheskaya_nedvijimost/?realty[deal]=0&page=1",
    "https://www.rosnedv.ru/buryatiya/kommercheskaya_nedvijimost/?realty[deal]=1&page=1",
    "https://www.rosnedv.ru/vladimirskaya/kommercheskaya_nedvijimost/?realty[deal]=0&page=1",
    "https://www.rosnedv.ru/vladimirskaya/kommercheskaya_nedvijimost/?realty[deal]=1&page=1",
    "https://www.rosnedv.ru/volgogradskaya/kommercheskaya_nedvijimost/?realty[deal]=0&page=1",
    "https://www.rosnedv.ru/volgogradskaya/kommercheskaya_nedvijimost/?realty[deal]=1&page=1",
    "https://www.rosnedv.ru/vologodskaya/kommercheskaya_nedvijimost/?realty[deal]=0&page=1",
    "https://www.rosnedv.ru/vologodskaya/kommercheskaya_nedvijimost/?realty[deal]=1&page=1",
    "https://www.rosnedv.ru/voronezhskaya/kommercheskaya_nedvijimost/?realty[deal]=0&page=1",
    "https://www.rosnedv.ru/voronezhskaya/kommercheskaya_nedvijimost/?realty[deal]=1&page=1",
    "https://www.rosnedv.ru/dagestan/kommercheskaya_nedvijimost/?realty[deal]=0&page=1",
    "https://www.rosnedv.ru/dagestan/kommercheskaya_nedvijimost/?realty[deal]=1&page=1",
    "https://www.rosnedv.ru/evreyskaya/kommercheskaya_nedvijimost/?realty[deal]=0&page=1",
    "https://www.rosnedv.ru/evreyskaya/kommercheskaya_nedvijimost/?realty[deal]=1&page=1",
    "https://www.rosnedv.ru/zabaykalskiy/kommercheskaya_nedvijimost/?realty[deal]=0&page=1",
    "https://www.rosnedv.ru/zabaykalskiy/kommercheskaya_nedvijimost/?realty[deal]=1&page=1",
    "https://www.rosnedv.ru/ivanovskaya/kommercheskaya_nedvijimost/?realty[deal]=0&page=1",
    "https://www.rosnedv.ru/ivanovskaya/kommercheskaya_nedvijimost/?realty[deal]=1&page=1",
    "https://www.rosnedv.ru/ingushetiya/kommercheskaya_nedvijimost/?realty[deal]=0&page=1",
    "https://www.rosnedv.ru/ingushetiya/kommercheskaya_nedvijimost/?realty[deal]=1&page=1",
    "https://www.rosnedv.ru/irkutskaya/kommercheskaya_nedvijimost/?realty[deal]=0&page=1",
    "https://www.rosnedv.ru/irkutskaya/kommercheskaya_nedvijimost/?realty[deal]=1&page=1",
    "https://www.rosnedv.ru/kabardino_balkarskaya/kommercheskaya_nedvijimost/?realty[deal]=0&page=1",
    "https://www.rosnedv.ru/kabardino_balkarskaya/kommercheskaya_nedvijimost/?realty[deal]=1&page=1",
    "https://www.rosnedv.ru/kaliningradskaya/kommercheskaya_nedvijimost/?realty[deal]=0&page=1",
    "https://www.rosnedv.ru/kaliningradskaya/kommercheskaya_nedvijimost/?realty[deal]=1&page=1",
    "https://www.rosnedv.ru/kalmykiya/kommercheskaya_nedvijimost/?realty[deal]=0&page=1",
    "https://www.rosnedv.ru/kalmykiya/kommercheskaya_nedvijimost/?realty[deal]=1&page=1",
    "https://www.rosnedv.ru/kaluzhskaya/kommercheskaya_nedvijimost/?realty[deal]=0&page=1",
    "https://www.rosnedv.ru/kaluzhskaya/kommercheskaya_nedvijimost/?realty[deal]=1&page=1",
    "https://www.rosnedv.ru/kamchatskiy/kommercheskaya_nedvijimost/?realty[deal]=0&page=1",
    "https://www.rosnedv.ru/kamchatskiy/kommercheskaya_nedvijimost/?realty[deal]=1&page=1",
    "https://www.rosnedv.ru/karachaevo_cherkesskaya/kommercheskaya_nedvijimost/?realty[deal]=0&page=1",
    "https://www.rosnedv.ru/karachaevo_cherkesskaya/kommercheskaya_nedvijimost/?realty[deal]=1&page=1",
    "https://www.rosnedv.ru/kareliya/kommercheskaya_nedvijimost/?realty[deal]=0&page=1",
    "https://www.rosnedv.ru/kareliya/kommercheskaya_nedvijimost/?realty[deal]=1&page=1",
    "https://www.rosnedv.ru/kemerovskaya/kommercheskaya_nedvijimost/?realty[deal]=0&page=1",
    "https://www.rosnedv.ru/kemerovskaya/kommercheskaya_nedvijimost/?realty[deal]=1&page=1",
    "https://www.rosnedv.ru/kirovskaya/kommercheskaya_nedvijimost/?realty[deal]=0&page=1",
    "https://www.rosnedv.ru/kirovskaya/kommercheskaya_nedvijimost/?realty[deal]=1&page=1",
    "https://www.rosnedv.ru/komi/kommercheskaya_nedvijimost/?realty[deal]=0&page=1",
    "https://www.rosnedv.ru/komi/kommercheskaya_nedvijimost/?realty[deal]=1&page=1",
    "https://www.rosnedv.ru/kostromskaya/kommercheskaya_nedvijimost/?realty[deal]=0&page=1",
    "https://www.rosnedv.ru/kostromskaya/kommercheskaya_nedvijimost/?realty[deal]=1&page=1",
    "https://www.rosnedv.ru/kostromskaya/dachi/&page=1",
    "https://www.rosnedv.ru/krasnodarskiy/kommercheskaya_nedvijimost/?realty[deal]=0&page=1",
    "https://www.rosnedv.ru/krasnodarskiy/kommercheskaya_nedvijimost/?realty[deal]=1&page=1",
    "https://www.rosnedv.ru/krasnoyarskiy/kommercheskaya_nedvijimost/?realty[deal]=0&page=1",
    "https://www.rosnedv.ru/krasnoyarskiy/kommercheskaya_nedvijimost/?realty[deal]=1&page=1",
    "https://www.rosnedv.ru/krym/kommercheskaya_nedvijimost/?realty[deal]=0&page=1",
    "https://www.rosnedv.ru/krym/kommercheskaya_nedvijimost/?realty[deal]=1&page=1",
    "https://www.rosnedv.ru/kurganskaya/kommercheskaya_nedvijimost/?realty[deal]=0&page=1",
    "https://www.rosnedv.ru/kurganskaya/kommercheskaya_nedvijimost/?realty[deal]=1&page=1",
    "https://www.rosnedv.ru/kurskaya/kommercheskaya_nedvijimost/?realty[deal]=0&page=1",
    "https://www.rosnedv.ru/kurskaya/kommercheskaya_nedvijimost/?realty[deal]=1&page=1",
    "https://www.rosnedv.ru/leningradskaya/kommercheskaya_nedvijimost/?realty[deal]=0&page=1",
    "https://www.rosnedv.ru/leningradskaya/kommercheskaya_nedvijimost/?realty[deal]=1&page=1",
    "https://www.rosnedv.ru/lipeckaya/kommercheskaya_nedvijimost/?realty[deal]=0&page=1",
    "https://www.rosnedv.ru/lipeckaya/kommercheskaya_nedvijimost/?realty[deal]=1&page=1",
    "https://www.rosnedv.ru/magadanskaya/kommercheskaya_nedvijimost/?realty[deal]=0&page=1",
    "https://www.rosnedv.ru/magadanskaya/kommercheskaya_nedvijimost/?realty[deal]=1&page=1",
    "https://www.rosnedv.ru/mariy_el/kommercheskaya_nedvijimost/?realty[deal]=0&page=1",
    "https://www.rosnedv.ru/mariy_el/kommercheskaya_nedvijimost/?realty[deal]=1&page=1",
    "https://www.rosnedv.ru/mordoviya/kommercheskaya_nedvijimost/?realty[deal]=0&page=1",
    "https://www.rosnedv.ru/mordoviya/kommercheskaya_nedvijimost/?realty[deal]=1&page=1",
    "https://www.rosnedv.ru/moskva/kommercheskaya_nedvijimost/?realty[deal]=0&page=1",
    "https://www.rosnedv.ru/moskva/kommercheskaya_nedvijimost/?realty[deal]=1&page=1",
    "https://www.rosnedv.ru/moskovskaya_obl/kommercheskaya_nedvijimost/?realty[deal]=0&page=1",
    "https://www.rosnedv.ru/moskovskaya_obl/kommercheskaya_nedvijimost/?realty[deal]=1&page=1",
    "https://www.rosnedv.ru/murmanskaya/kommercheskaya_nedvijimost/?realty[deal]=0&page=1",
    "https://www.rosnedv.ru/murmanskaya/kommercheskaya_nedvijimost/?realty[deal]=1&page=1",
    "https://www.rosnedv.ru/neneckiy/kommercheskaya_nedvijimost/?realty[deal]=0&page=1",
    "https://www.rosnedv.ru/neneckiy/kommercheskaya_nedvijimost/?realty[deal]=1&page=1",
    "https://www.rosnedv.ru/nizhegorodskaya/kommercheskaya_nedvijimost/?realty[deal]=0&page=1",
    "https://www.rosnedv.ru/nizhegorodskaya/kommercheskaya_nedvijimost/?realty[deal]=1&page=1",
    "https://www.rosnedv.ru/novgorodskaya/kommercheskaya_nedvijimost/?realty[deal]=0&page=1",
    "https://www.rosnedv.ru/novgorodskaya/kommercheskaya_nedvijimost/?realty[deal]=1&page=1",
    "https://www.rosnedv.ru/novosibirskaya/kommercheskaya_nedvijimost/?realty[deal]=0&page=1",
    "https://www.rosnedv.ru/novosibirskaya/kommercheskaya_nedvijimost/?realty[deal]=1&page=1",
    "https://www.rosnedv.ru/omskaya/kommercheskaya_nedvijimost/?realty[deal]=0&page=1",
    "https://www.rosnedv.ru/omskaya/kommercheskaya_nedvijimost/?realty[deal]=1&page=1",
    "https://www.rosnedv.ru/orenburgskaya/kommercheskaya_nedvijimost/?realty[deal]=0&page=1",
    "https://www.rosnedv.ru/orenburgskaya/kommercheskaya_nedvijimost/?realty[deal]=1&page=1",
    "https://www.rosnedv.ru/orlovskaya/kommercheskaya_nedvijimost/?realty[deal]=0&page=1",
    "https://www.rosnedv.ru/orlovskaya/kommercheskaya_nedvijimost/?realty[deal]=1&page=1",
    "https://www.rosnedv.ru/penzenskaya/kommercheskaya_nedvijimost/?realty[deal]=0&page=1",
    "https://www.rosnedv.ru/penzenskaya/kommercheskaya_nedvijimost/?realty[deal]=1&page=1",
    "https://www.rosnedv.ru/permskiy/kommercheskaya_nedvijimost/?realty[deal]=0&page=1",
    "https://www.rosnedv.ru/permskiy/kommercheskaya_nedvijimost/?realty[deal]=1&page=1",
    "https://www.rosnedv.ru/primorskiy/kommercheskaya_nedvijimost/?realty[deal]=0&page=1",
    "https://www.rosnedv.ru/primorskiy/kommercheskaya_nedvijimost/?realty[deal]=1&page=1",
    "https://www.rosnedv.ru/pskovskaya/kommercheskaya_nedvijimost/?realty[deal]=0&page=1",
    "https://www.rosnedv.ru/pskovskaya/kommercheskaya_nedvijimost/?realty[deal]=1&page=1",
    "https://www.rosnedv.ru/rostovskaya/kommercheskaya_nedvijimost/?realty[deal]=0&page=1",
    "https://www.rosnedv.ru/rostovskaya/kommercheskaya_nedvijimost/?realty[deal]=1&page=1",
    "https://www.rosnedv.ru/ryazanskaya/kommercheskaya_nedvijimost/?realty[deal]=0&page=1",
    "https://www.rosnedv.ru/ryazanskaya/kommercheskaya_nedvijimost/?realty[deal]=1&page=1",
    "https://www.rosnedv.ru/samarskaya/kommercheskaya_nedvijimost/?realty[deal]=0&page=1",
    "https://www.rosnedv.ru/samarskaya/kommercheskaya_nedvijimost/?realty[deal]=1&page=1",
    "https://www.rosnedv.ru/spb_region/kommercheskaya_nedvijimost/?realty[deal]=0&page=1",
    "https://www.rosnedv.ru/spb_region/kommercheskaya_nedvijimost/?realty[deal]=1&page=1",
    "https://www.rosnedv.ru/saratovskaya/kommercheskaya_nedvijimost/?realty[deal]=0&page=1",
    "https://www.rosnedv.ru/saratovskaya/kommercheskaya_nedvijimost/?realty[deal]=1&page=1",
    "https://www.rosnedv.ru/saha_yakutiya/kommercheskaya_nedvijimost/?realty[deal]=0&page=1",
    "https://www.rosnedv.ru/saha_yakutiya/kommercheskaya_nedvijimost/?realty[deal]=1&page=1",
    "https://www.rosnedv.ru/sahalinskaya/kommercheskaya_nedvijimost/?realty[deal]=0&page=1",
    "https://www.rosnedv.ru/sahalinskaya/kommercheskaya_nedvijimost/?realty[deal]=1&page=1",
    "https://www.rosnedv.ru/sverdlovskaya/kommercheskaya_nedvijimost/?realty[deal]=0&page=1",
    "https://www.rosnedv.ru/sverdlovskaya/kommercheskaya_nedvijimost/?realty[deal]=1&page=1",
    "https://www.rosnedv.ru/severnaya_osetiya___alaniya/kommercheskaya_nedvijimost/?realty[deal]=0&page=1",
    "https://www.rosnedv.ru/severnaya_osetiya___alaniya/kommercheskaya_nedvijimost/?realty[deal]=1&page=1",
    "https://www.rosnedv.ru/smolenskaya/kommercheskaya_nedvijimost/?realty[deal]=0&page=1",
    "https://www.rosnedv.ru/smolenskaya/kommercheskaya_nedvijimost/?realty[deal]=1&page=1",
    "https://www.rosnedv.ru/stavropolskiy/kommercheskaya_nedvijimost/?realty[deal]=0&page=1",
    "https://www.rosnedv.ru/stavropolskiy/kommercheskaya_nedvijimost/?realty[deal]=1&page=1",
    "https://www.rosnedv.ru/tambovskaya/kommercheskaya_nedvijimost/?realty[deal]=0&page=1",
    "https://www.rosnedv.ru/tambovskaya/kommercheskaya_nedvijimost/?realty[deal]=1&page=1",
    "https://www.rosnedv.ru/tatarstan/kommercheskaya_nedvijimost/?realty[deal]=0&page=1",
    "https://www.rosnedv.ru/tatarstan/kommercheskaya_nedvijimost/?realty[deal]=1&page=1",
    "https://www.rosnedv.ru/tverskaya/kommercheskaya_nedvijimost/?realty[deal]=0&page=1",
    "https://www.rosnedv.ru/tverskaya/kommercheskaya_nedvijimost/?realty[deal]=1&page=1",
    "https://www.rosnedv.ru/tomskaya/kommercheskaya_nedvijimost/?realty[deal]=0&page=1",
    "https://www.rosnedv.ru/tomskaya/kommercheskaya_nedvijimost/?realty[deal]=1&page=1",
    "https://www.rosnedv.ru/tulskaya/kommercheskaya_nedvijimost/?realty[deal]=0&page=1",
    "https://www.rosnedv.ru/tulskaya/kommercheskaya_nedvijimost/?realty[deal]=1&page=1",
    "https://www.rosnedv.ru/tyva/kommercheskaya_nedvijimost/?realty[deal]=0&page=1",
    "https://www.rosnedv.ru/tyva/kommercheskaya_nedvijimost/?realty[deal]=1&page=1",
    "https://www.rosnedv.ru/tyumenskaya/kommercheskaya_nedvijimost/?realty[deal]=0&page=1",
    "https://www.rosnedv.ru/tyumenskaya/kommercheskaya_nedvijimost/?realty[deal]=1&page=1",
    "https://www.rosnedv.ru/udmurtskaya/kommercheskaya_nedvijimost/?realty[deal]=0&page=1",
    "https://www.rosnedv.ru/udmurtskaya/kommercheskaya_nedvijimost/?realty[deal]=1&page=1",
    "https://www.rosnedv.ru/ulyanovskaya/kommercheskaya_nedvijimost/?realty[deal]=0&page=1",
    "https://www.rosnedv.ru/ulyanovskaya/kommercheskaya_nedvijimost/?realty[deal]=1&page=1",
    "https://www.rosnedv.ru/habarovskiy/kommercheskaya_nedvijimost/?realty[deal]=0&page=1",
    "https://www.rosnedv.ru/habarovskiy/kommercheskaya_nedvijimost/?realty[deal]=1&page=1",
    "https://www.rosnedv.ru/hakasiya/kommercheskaya_nedvijimost/?realty[deal]=0&page=1",
    "https://www.rosnedv.ru/hakasiya/kommercheskaya_nedvijimost/?realty[deal]=1&page=1",
    "https://www.rosnedv.ru/hanty_mansiyskiy_avtonomnyy_okrug___yugra/kommercheskaya_nedvijimost/?realty[deal]=0&page=1",
    "https://www.rosnedv.ru/hanty_mansiyskiy_avtonomnyy_okrug___yugra/kommercheskaya_nedvijimost/?realty[deal]=1&page=1",
    "https://www.rosnedv.ru/chelyabinskaya/kommercheskaya_nedvijimost/?realty[deal]=0&page=1",
    "https://www.rosnedv.ru/chelyabinskaya/kommercheskaya_nedvijimost/?realty[deal]=1&page=1",
    "https://www.rosnedv.ru/chuvashskaya_respublika__/kommercheskaya_nedvijimost/?realty[deal]=0&page=1",
    "https://www.rosnedv.ru/chuvashskaya_respublika__/kommercheskaya_nedvijimost/?realty[deal]=1&page=1",
    "https://www.rosnedv.ru/yamalo_neneckiy/kommercheskaya_nedvijimost/?realty[deal]=0&page=1",
    "https://www.rosnedv.ru/yamalo_neneckiy/kommercheskaya_nedvijimost/?realty[deal]=1&page=1",
    "https://www.rosnedv.ru/yaroslavskaya/kommercheskaya_nedvijimost/?realty[deal]=0&page=1",
    "https://www.rosnedv.ru/yaroslavskaya/kommercheskaya_nedvijimost/?realty[deal]=1&page=1"
  ],
  "_segment": "",
  "_operation": "",
  "_federal_subject": "",
  "_source": "ROSNDV",
  "global_settings": {
    "CONCURRENT_REQUESTS": 1024,
    "CONCURRENT_REQUESTS_PER_DOMAIN": 1024,
    "DOWNLOAD_TIMEOUT": 20,
    "SPLASH_URL": "http://0.0.0.0:8050",
    "LOG_LEVEL": "INFO",
    "AUTOTHROTTLE_ENABLED": true,
    "AUTOTHROTTLE_START_DELAY": 1.0,
    "AUTOTHROTTLE_MAX_DELAY": 20,
    "AUTOTHROTTLE_TARGET_CONCURRENCY": 1024,
    "HTTPERROR_ALLOWED_CODES": [],
    "RETRY_ENABLED": true,
    "RETRY_TIMES": 60,
    "RETRY_HTTP_CODES": [
      500,
      503,
      504,
      400,
      403,
      408,
      429,
      505,
      404,
      502,
      418
    ],
    "ROBOTSTXT_ENABLED": false,
    "ROBOTSTXT_OBEY": false,
    "REDIRECT_ENABLED": false,
    "COOKIES_ENABLED": false,
    "RANDOM_UA_TYPE": "random"
  },
        "methods" : {
        "crawling_type" : "common",
        "allowed_domains" : [],
        "filter_duplicates": false,
        "proxy_settings" : {
            "types" : [
                "https"
            ],
            "amount": 10000
        }
    },
  "_comment": [{
        "pagination_urls": {
                    "url_generator": {
                        "generator": {
                            "start": {
                                "type": "string",
                                "value": "2"
                            },
                            "end": {
                                "type": "string",
                                "value": "20"
                            }
                        }
                    },
                    "repeat": false
                },
        "item_urls": {
            "path": "//a[contains(@class,'item-catalog')]/@href",
            "methods": {"filter_duplicates": false}
        }
    }],
    "sitemap_urls": {
            "start": [
                "https://www.rosnedv.ru/robots.txt"
            ],
            "type": "robots",
            "target": "robots",
            "crawl_tree": {
                "robots": {
                    "targets": {
                        "sitemap": {
                            "type": "sitemap"
                        }
                    }
                },
                "sitemap": {
                    "targets": {
                        "sitemap_2": {
                            "type": "sitemap",
                            "filters": [
                                "/realty_"
                            ]
                        }
                    }
                },
                "sitemap_2": {
                    "targets": {
                        "item": {
                            "type": "item",
                            "filters": [
                                "/kommercheskaya_nedvijimost"
                            ]}
                    }
                },
                "item": {}
            }
        },
  "item_page": {
    "fields": {
      "date_info": {
        "type": "date",
        "time": "now"
      },
      "title_name": {
        "type": "string",
        "path": "//h1[@class='item-page-title']//text()"
      },
      "description": {
        "type": "list to string",
        "path": "//div[@class='desc-wrap']/text()"
      },
      "seller_name": {
        "type": "list to string",
        "path": "//div[@class='item-specialist']//div[@class='spec-name']//text()"
      },
      "seller_type": {
        "type": "string",
        "path": "//div[@class='item-specialist']//div[@class='spec-info']//text()"
      },
      "phone": {
        "type": "phone",
        "path": "//div[@class='item-specialist']//div[@class='spec-phone']//a/text()"
      },
      "date_created": {
        "type": "date",
        "path": "(//div[@class='info-status']//text())[1]",
        "regex": "Добавлено (.+)",
        "time": "from string"
      },
      "date_updated": {
        "type": "date",
        "path": "(//div[@class='info-status']//text())[2]",
        "regex": "Обновлено (.+)",
        "time": "from string"
      },
      "source_longitude": {
        "type": "float",
        "path": "//script[contains(text(),'JSON.parse')]/text()",
        "regex": "lng\":(.+),"
      },
      "source_latitude": {
        "type": "float",
        "path": "//script[contains(text(),'JSON.parse')]/text()",
        "regex": "lat\":(.+)\\}"
      },
      "price_total": {
        "type": "float",
        "path": "//div[@itemprop='price']/text()[normalize-space()]",
        "regex": "\\d*\\W?\\d+"
      },
        "price_currency": {
        "type": "string",
        "path": "//meta[@itemprop='priceCurrency']/@content"
      },
      "address": {
        "type": "string",
        "path": "//meta[@itemprop='name']/@content"
      },
        "federal_subject": {
        "type": "string",
        "path": "//meta[@itemprop='name']/@content",
        "regex": "[^,]*__first__"
      },
      "segment": {
        "type": "string",
        "path": "//div[@class='breadcrumbs-box']/a[2]/text()[normalize-space()]",
        "operations": [
          "lower"
        ]
      },
      "operation": {
        "type": "string",
        "path": "//div[@class='breadcrumbs-box']/span/text()",
        "operations": [
          "lower"
        ],
        "regex": "Продажа|Аренда"
      }
    },
    "tables": {
      "table_1": {
        "_keys_path": "//div[@class='info-wrap']//div[@class='info-title']//text()",
        "_vals_path": "//div[@class='info-wrap']//div[@class='info-val']/text()",
        "key_converter": {
          "площадь": {
            "name": [
              "area_total",
              "area_unit"
            ],
            "type": [
              "float",
              "string"
            ],
            "regex": [
              "\\d*\\W?\\d+",
              "[А-Яа-я]+"
            ]
          },
          "площадь_участка": {
            "name": [
              "land_area",
              "area_land_unit"
            ],
            "type": [
              "float",
              "string"
            ],
            "regex": [
              "\\d*\\W?\\d+",
              "[А-Яа-я]+"
            ]
          },
          "микрорайон": {
            "name": "address_district_2",
            "type": "string"
          },
          "район": {
            "name": "address_district",
            "type": "string"
          },
          "тип": {
            "name": "purpose",
            "type": "string"
          },
          "ориентир": {
            "name": "None",
            "type": "string",
            "value": " "
          },
          "период": {
            "name": "None",
            "type": "string",
            "value": " "
          },
          "комнат": {
            "name": "rooms_cnt",
            "type": "string"
          },
          "этаж": {
            "name": [
              "floor",
              "floors_cnt"
            ],
            "type": [
              "float",
              "float"
            ],
            "regex": [
              "^\\d+",
              "\\d+$"
            ]
          }
        }
      },
      "table_2": {
        "_keys_path": "//div[@class='item-desc-box']//div[@class='tbl-wrap']//th//text()",
        "_vals_path": "//div[@class='item-desc-box']//div[@class='tbl-wrap']//td/text()",
        "key_converter": {
          "микрорайон": {
            "name": "reference_point",
            "type": "string"
          },
          "метро": {
            "name": "metro_station",
            "type": "string"
          },
          "адрес": {
            "name": "address_street_name",
            "type": "string"
          },
          "дом": {
            "name": "address_house_number",
            "type": "string"
          },
          "площадь_общая": {
            "name": [
              "area_total",
              "area_unit"
            ],
            "type": [
              "float",
              "string"
            ],
            "regex": [
              "\\d*\\W?\\d+",
              "[А-Яа-я]"
            ]
          },
          "интернет": {
            "name": "is_internet",
            "type": "string"
          },
          "телефон": {
            "name": "is_phone",
            "type": "string"
          },
          "время_до_метро_пешком": {
            "name": "metro_minutes",
            "type": "string"
          },
          "время_до_метро_на_транспорте": {
            "name": "none",
            "type": "string",
            "value": " "
          },
          "шоссе_москвы": {
            "name": "nearest_highway",
            "type": "string"
          },
          "расстояние_по_шоссе_до_мкад": {
            "name": "none",
            "type": "string",
            "value": " "
          },
          "отдельный_вход": {
            "name": "private_entrance",
            "type": "string"
          },
          "комнат": {
            "name": "rooms_cnt",
            "type": "float",
            "regex": "\\d+"
          },
          "этаж": {
            "name": "floor",
            "type": "string"
          },
          "площадь_жилая": {
            "name": "area_living",
            "type": "float",
            "regex": "\\d*\\W?\\d+"
          },
          "ремонт": {
            "name": "decoration_type",
            "type": "string"
          },
          "материал_стен": {
            "name": "wall_material",
            "type": "string"
          },
          "балкон": {
            "name": "is_balcony",
            "type": "string"
          },
          "водоснабжение": {
            "name": "is_plumbing",
            "type": "string"
          },
          "электричество": {
            "name": "is_electricity",
            "type": "string"
          },
          "отопление": {
            "name": "heating_system_type",
            "type": "string"
          },
          "газ": {
            "name": "is_gas",
            "type": "string"
          },
          "район": {
            "name": "intown_district",
            "type": "string"
          },
          "регион": {
            "name": "federal_subject",
            "type": "string"
          },
          "населённый_пункт": {
            "name": "address_city",
            "type": "string"
          },
          "мебель": {
            "name": "is_furniture",
            "type": "string"
          },
          "комиссия": {
            "name": "agent_fee",
            "type": "float",
            "regex": "\\d*\\W?\\d+"
          },
          "предоплата": {
            "name": "is_pre_pay",
            "type": "string"
          },
          "мебель_на_кухне": {
            "name": "furniture_kitchen",
            "type": "string"
          },
          "площадь_кухни": {
            "name": "kitchen_area",
            "type": "float",
            "regex": "\\d*\\W?\\d+"
          },
          "год_постройки": {
            "name": "year_built",
            "type": "float",
            "regex": "\\d+"
          }
        }
      }
    }
  }
}


