{
	"_task_id": "",
	"_start_urls": [
"https://adygeya.russianrealty.ru/%D0%9F%D1%80%D0%BE%D0%B4%D0%B0%D0%B6%D0%B0-%D0%BA%D0%BE%D0%BC%D0%BC%D0%B5%D1%80%D1%87%D0%B5%D1%81%D0%BA%D0%BE%D0%B9-%D0%BD%D0%B5%D0%B4%D0%B2%D0%B8%D0%B6%D0%B8%D0%BC%D0%BE%D1%81%D1%82%D0%B8/",
"https://altai.russianrealty.ru/%D0%9F%D1%80%D0%BE%D0%B4%D0%B0%D0%B6%D0%B0-%D0%BA%D0%BE%D0%BC%D0%BC%D0%B5%D1%80%D1%87%D0%B5%D1%81%D0%BA%D0%BE%D0%B9-%D0%BD%D0%B5%D0%B4%D0%B2%D0%B8%D0%B6%D0%B8%D0%BC%D0%BE%D1%81%D1%82%D0%B8/",
"https://altaysky-kray.russianrealty.ru/%D0%9F%D1%80%D0%BE%D0%B4%D0%B0%D0%B6%D0%B0-%D0%BA%D0%BE%D0%BC%D0%BC%D0%B5%D1%80%D1%87%D0%B5%D1%81%D0%BA%D0%BE%D0%B9-%D0%BD%D0%B5%D0%B4%D0%B2%D0%B8%D0%B6%D0%B8%D0%BC%D0%BE%D1%81%D1%82%D0%B8/",
"https://amur.russianrealty.ru/%D0%9F%D1%80%D0%BE%D0%B4%D0%B0%D0%B6%D0%B0-%D0%BA%D0%BE%D0%BC%D0%BC%D0%B5%D1%80%D1%87%D0%B5%D1%81%D0%BA%D0%BE%D0%B9-%D0%BD%D0%B5%D0%B4%D0%B2%D0%B8%D0%B6%D0%B8%D0%BC%D0%BE%D1%81%D1%82%D0%B8/",
"https://arhangelskaya-oblast.russianrealty.ru/%D0%9F%D1%80%D0%BE%D0%B4%D0%B0%D0%B6%D0%B0-%D0%BA%D0%BE%D0%BC%D0%BC%D0%B5%D1%80%D1%87%D0%B5%D1%81%D0%BA%D0%BE%D0%B9-%D0%BD%D0%B5%D0%B4%D0%B2%D0%B8%D0%B6%D0%B8%D0%BC%D0%BE%D1%81%D1%82%D0%B8/",
"https://astrahanskaya-oblast.russianrealty.ru/%D0%9F%D1%80%D0%BE%D0%B4%D0%B0%D0%B6%D0%B0-%D0%BA%D0%BE%D0%BC%D0%BC%D0%B5%D1%80%D1%87%D0%B5%D1%81%D0%BA%D0%BE%D0%B9-%D0%BD%D0%B5%D0%B4%D0%B2%D0%B8%D0%B6%D0%B8%D0%BC%D0%BE%D1%81%D1%82%D0%B8/",
"https://bashkortostan.russianrealty.ru/%D0%9F%D1%80%D0%BE%D0%B4%D0%B0%D0%B6%D0%B0-%D0%BA%D0%BE%D0%BC%D0%BC%D0%B5%D1%80%D1%87%D0%B5%D1%81%D0%BA%D0%BE%D0%B9-%D0%BD%D0%B5%D0%B4%D0%B2%D0%B8%D0%B6%D0%B8%D0%BC%D0%BE%D1%81%D1%82%D0%B8/",
"https://belgorodskaya-oblast.russianrealty.ru/%D0%9F%D1%80%D0%BE%D0%B4%D0%B0%D0%B6%D0%B0-%D0%BA%D0%BE%D0%BC%D0%BC%D0%B5%D1%80%D1%87%D0%B5%D1%81%D0%BA%D0%BE%D0%B9-%D0%BD%D0%B5%D0%B4%D0%B2%D0%B8%D0%B6%D0%B8%D0%BC%D0%BE%D1%81%D1%82%D0%B8/",
"https://bryanskaya-oblast.russianrealty.ru/%D0%9F%D1%80%D0%BE%D0%B4%D0%B0%D0%B6%D0%B0-%D0%BA%D0%BE%D0%BC%D0%BC%D0%B5%D1%80%D1%87%D0%B5%D1%81%D0%BA%D0%BE%D0%B9-%D0%BD%D0%B5%D0%B4%D0%B2%D0%B8%D0%B6%D0%B8%D0%BC%D0%BE%D1%81%D1%82%D0%B8/",
"https://buryatiya.russianrealty.ru/%D0%9F%D1%80%D0%BE%D0%B4%D0%B0%D0%B6%D0%B0-%D0%BA%D0%BE%D0%BC%D0%BC%D0%B5%D1%80%D1%87%D0%B5%D1%81%D0%BA%D0%BE%D0%B9-%D0%BD%D0%B5%D0%B4%D0%B2%D0%B8%D0%B6%D0%B8%D0%BC%D0%BE%D1%81%D1%82%D0%B8/",
"https://vladimirskaya-oblast.russianrealty.ru/%D0%9F%D1%80%D0%BE%D0%B4%D0%B0%D0%B6%D0%B0-%D0%BA%D0%BE%D0%BC%D0%BC%D0%B5%D1%80%D1%87%D0%B5%D1%81%D0%BA%D0%BE%D0%B9-%D0%BD%D0%B5%D0%B4%D0%B2%D0%B8%D0%B6%D0%B8%D0%BC%D0%BE%D1%81%D1%82%D0%B8/",
"https://volgogradskaya-oblast.russianrealty.ru/%D0%9F%D1%80%D0%BE%D0%B4%D0%B0%D0%B6%D0%B0-%D0%BA%D0%BE%D0%BC%D0%BC%D0%B5%D1%80%D1%87%D0%B5%D1%81%D0%BA%D0%BE%D0%B9-%D0%BD%D0%B5%D0%B4%D0%B2%D0%B8%D0%B6%D0%B8%D0%BC%D0%BE%D1%81%D1%82%D0%B8/",
"https://vologodskaya-oblast.russianrealty.ru/%D0%9F%D1%80%D0%BE%D0%B4%D0%B0%D0%B6%D0%B0-%D0%BA%D0%BE%D0%BC%D0%BC%D0%B5%D1%80%D1%87%D0%B5%D1%81%D0%BA%D0%BE%D0%B9-%D0%BD%D0%B5%D0%B4%D0%B2%D0%B8%D0%B6%D0%B8%D0%BC%D0%BE%D1%81%D1%82%D0%B8/",
"https://voronezhskaya-oblast.russianrealty.ru/%D0%9F%D1%80%D0%BE%D0%B4%D0%B0%D0%B6%D0%B0-%D0%BA%D0%BE%D0%BC%D0%BC%D0%B5%D1%80%D1%87%D0%B5%D1%81%D0%BA%D0%BE%D0%B9-%D0%BD%D0%B5%D0%B4%D0%B2%D0%B8%D0%B6%D0%B8%D0%BC%D0%BE%D1%81%D1%82%D0%B8/",
"https://dagestan.russianrealty.ru/%D0%9F%D1%80%D0%BE%D0%B4%D0%B0%D0%B6%D0%B0-%D0%BA%D0%BE%D0%BC%D0%BC%D0%B5%D1%80%D1%87%D0%B5%D1%81%D0%BA%D0%BE%D0%B9-%D0%BD%D0%B5%D0%B4%D0%B2%D0%B8%D0%B6%D0%B8%D0%BC%D0%BE%D1%81%D1%82%D0%B8/",
"https://eao.russianrealty.ru/%D0%9F%D1%80%D0%BE%D0%B4%D0%B0%D0%B6%D0%B0-%D0%BA%D0%BE%D0%BC%D0%BC%D0%B5%D1%80%D1%87%D0%B5%D1%81%D0%BA%D0%BE%D0%B9-%D0%BD%D0%B5%D0%B4%D0%B2%D0%B8%D0%B6%D0%B8%D0%BC%D0%BE%D1%81%D1%82%D0%B8/",
"https://zab.russianrealty.ru/%D0%9F%D1%80%D0%BE%D0%B4%D0%B0%D0%B6%D0%B0-%D0%BA%D0%BE%D0%BC%D0%BC%D0%B5%D1%80%D1%87%D0%B5%D1%81%D0%BA%D0%BE%D0%B9-%D0%BD%D0%B5%D0%B4%D0%B2%D0%B8%D0%B6%D0%B8%D0%BC%D0%BE%D1%81%D1%82%D0%B8/",
"https://ivanovskaya-oblast.russianrealty.ru/%D0%9F%D1%80%D0%BE%D0%B4%D0%B0%D0%B6%D0%B0-%D0%BA%D0%BE%D0%BC%D0%BC%D0%B5%D1%80%D1%87%D0%B5%D1%81%D0%BA%D0%BE%D0%B9-%D0%BD%D0%B5%D0%B4%D0%B2%D0%B8%D0%B6%D0%B8%D0%BC%D0%BE%D1%81%D1%82%D0%B8/",
"https://irk.russianrealty.ru/%D0%9F%D1%80%D0%BE%D0%B4%D0%B0%D0%B6%D0%B0-%D0%BA%D0%BE%D0%BC%D0%BC%D0%B5%D1%80%D1%87%D0%B5%D1%81%D0%BA%D0%BE%D0%B9-%D0%BD%D0%B5%D0%B4%D0%B2%D0%B8%D0%B6%D0%B8%D0%BC%D0%BE%D1%81%D1%82%D0%B8/",
"https://kbr.russianrealty.ru/%D0%9F%D1%80%D0%BE%D0%B4%D0%B0%D0%B6%D0%B0-%D0%BA%D0%BE%D0%BC%D0%BC%D0%B5%D1%80%D1%87%D0%B5%D1%81%D0%BA%D0%BE%D0%B9-%D0%BD%D0%B5%D0%B4%D0%B2%D0%B8%D0%B6%D0%B8%D0%BC%D0%BE%D1%81%D1%82%D0%B8/",
"https://kgd.russianrealty.ru/%D0%9F%D1%80%D0%BE%D0%B4%D0%B0%D0%B6%D0%B0-%D0%BA%D0%BE%D0%BC%D0%BC%D0%B5%D1%80%D1%87%D0%B5%D1%81%D0%BA%D0%BE%D0%B9-%D0%BD%D0%B5%D0%B4%D0%B2%D0%B8%D0%B6%D0%B8%D0%BC%D0%BE%D1%81%D1%82%D0%B8/",
"https://kalmykia.russianrealty.ru/%D0%9F%D1%80%D0%BE%D0%B4%D0%B0%D0%B6%D0%B0-%D0%BA%D0%BE%D0%BC%D0%BC%D0%B5%D1%80%D1%87%D0%B5%D1%81%D0%BA%D0%BE%D0%B9-%D0%BD%D0%B5%D0%B4%D0%B2%D0%B8%D0%B6%D0%B8%D0%BC%D0%BE%D1%81%D1%82%D0%B8/",
"https://kaluzhskaya-oblast.russianrealty.ru/%D0%9F%D1%80%D0%BE%D0%B4%D0%B0%D0%B6%D0%B0-%D0%BA%D0%BE%D0%BC%D0%BC%D0%B5%D1%80%D1%87%D0%B5%D1%81%D0%BA%D0%BE%D0%B9-%D0%BD%D0%B5%D0%B4%D0%B2%D0%B8%D0%B6%D0%B8%D0%BC%D0%BE%D1%81%D1%82%D0%B8/",
"https://kamchatka.russianrealty.ru/%D0%9F%D1%80%D0%BE%D0%B4%D0%B0%D0%B6%D0%B0-%D0%BA%D0%BE%D0%BC%D0%BC%D0%B5%D1%80%D1%87%D0%B5%D1%81%D0%BA%D0%BE%D0%B9-%D0%BD%D0%B5%D0%B4%D0%B2%D0%B8%D0%B6%D0%B8%D0%BC%D0%BE%D1%81%D1%82%D0%B8/",
"https://kchr.russianrealty.ru/%D0%9F%D1%80%D0%BE%D0%B4%D0%B0%D0%B6%D0%B0-%D0%BA%D0%BE%D0%BC%D0%BC%D0%B5%D1%80%D1%87%D0%B5%D1%81%D0%BA%D0%BE%D0%B9-%D0%BD%D0%B5%D0%B4%D0%B2%D0%B8%D0%B6%D0%B8%D0%BC%D0%BE%D1%81%D1%82%D0%B8/",
"https://karelia.russianrealty.ru/%D0%9F%D1%80%D0%BE%D0%B4%D0%B0%D0%B6%D0%B0-%D0%BA%D0%BE%D0%BC%D0%BC%D0%B5%D1%80%D1%87%D0%B5%D1%81%D0%BA%D0%BE%D0%B9-%D0%BD%D0%B5%D0%B4%D0%B2%D0%B8%D0%B6%D0%B8%D0%BC%D0%BE%D1%81%D1%82%D0%B8/",
"https://kemerovskaya-oblast.russianrealty.ru/%D0%9F%D1%80%D0%BE%D0%B4%D0%B0%D0%B6%D0%B0-%D0%BA%D0%BE%D0%BC%D0%BC%D0%B5%D1%80%D1%87%D0%B5%D1%81%D0%BA%D0%BE%D0%B9-%D0%BD%D0%B5%D0%B4%D0%B2%D0%B8%D0%B6%D0%B8%D0%BC%D0%BE%D1%81%D1%82%D0%B8/",
"https://kirovskaya-oblast.russianrealty.ru/%D0%9F%D1%80%D0%BE%D0%B4%D0%B0%D0%B6%D0%B0-%D0%BA%D0%BE%D0%BC%D0%BC%D0%B5%D1%80%D1%87%D0%B5%D1%81%D0%BA%D0%BE%D0%B9-%D0%BD%D0%B5%D0%B4%D0%B2%D0%B8%D0%B6%D0%B8%D0%BC%D0%BE%D1%81%D1%82%D0%B8/",
"https://komi.russianrealty.ru/%D0%9F%D1%80%D0%BE%D0%B4%D0%B0%D0%B6%D0%B0-%D0%BA%D0%BE%D0%BC%D0%BC%D0%B5%D1%80%D1%87%D0%B5%D1%81%D0%BA%D0%BE%D0%B9-%D0%BD%D0%B5%D0%B4%D0%B2%D0%B8%D0%B6%D0%B8%D0%BC%D0%BE%D1%81%D1%82%D0%B8/",
"https://kostromskaya-oblast.russianrealty.ru/%D0%9F%D1%80%D0%BE%D0%B4%D0%B0%D0%B6%D0%B0-%D0%BA%D0%BE%D0%BC%D0%BC%D0%B5%D1%80%D1%87%D0%B5%D1%81%D0%BA%D0%BE%D0%B9-%D0%BD%D0%B5%D0%B4%D0%B2%D0%B8%D0%B6%D0%B8%D0%BC%D0%BE%D1%81%D1%82%D0%B8/",
"https://krasnodar.russianrealty.ru/%D0%9F%D1%80%D0%BE%D0%B4%D0%B0%D0%B6%D0%B0-%D0%BA%D0%BE%D0%BC%D0%BC%D0%B5%D1%80%D1%87%D0%B5%D1%81%D0%BA%D0%BE%D0%B9-%D0%BD%D0%B5%D0%B4%D0%B2%D0%B8%D0%B6%D0%B8%D0%BC%D0%BE%D1%81%D1%82%D0%B8/",
"https://krasnoyarsky-kray.russianrealty.ru/%D0%9F%D1%80%D0%BE%D0%B4%D0%B0%D0%B6%D0%B0-%D0%BA%D0%BE%D0%BC%D0%BC%D0%B5%D1%80%D1%87%D0%B5%D1%81%D0%BA%D0%BE%D0%B9-%D0%BD%D0%B5%D0%B4%D0%B2%D0%B8%D0%B6%D0%B8%D0%BC%D0%BE%D1%81%D1%82%D0%B8/",
"https://krym.russianrealty.ru/%D0%9F%D1%80%D0%BE%D0%B4%D0%B0%D0%B6%D0%B0-%D0%BA%D0%BE%D0%BC%D0%BC%D0%B5%D1%80%D1%87%D0%B5%D1%81%D0%BA%D0%BE%D0%B9-%D0%BD%D0%B5%D0%B4%D0%B2%D0%B8%D0%B6%D0%B8%D0%BC%D0%BE%D1%81%D1%82%D0%B8/",
"https://kurganskaya-oblast.russianrealty.ru/%D0%9F%D1%80%D0%BE%D0%B4%D0%B0%D0%B6%D0%B0-%D0%BA%D0%BE%D0%BC%D0%BC%D0%B5%D1%80%D1%87%D0%B5%D1%81%D0%BA%D0%BE%D0%B9-%D0%BD%D0%B5%D0%B4%D0%B2%D0%B8%D0%B6%D0%B8%D0%BC%D0%BE%D1%81%D1%82%D0%B8/",
"https://kurskaya-oblast.russianrealty.ru/%D0%9F%D1%80%D0%BE%D0%B4%D0%B0%D0%B6%D0%B0-%D0%BA%D0%BE%D0%BC%D0%BC%D0%B5%D1%80%D1%87%D0%B5%D1%81%D0%BA%D0%BE%D0%B9-%D0%BD%D0%B5%D0%B4%D0%B2%D0%B8%D0%B6%D0%B8%D0%BC%D0%BE%D1%81%D1%82%D0%B8/",
"https://lenobl.russianrealty.ru/%D0%9F%D1%80%D0%BE%D0%B4%D0%B0%D0%B6%D0%B0-%D0%BA%D0%BE%D0%BC%D0%BC%D0%B5%D1%80%D1%87%D0%B5%D1%81%D0%BA%D0%BE%D0%B9-%D0%BD%D0%B5%D0%B4%D0%B2%D0%B8%D0%B6%D0%B8%D0%BC%D0%BE%D1%81%D1%82%D0%B8/",
"https://lipetskaya-oblast.russianrealty.ru/%D0%9F%D1%80%D0%BE%D0%B4%D0%B0%D0%B6%D0%B0-%D0%BA%D0%BE%D0%BC%D0%BC%D0%B5%D1%80%D1%87%D0%B5%D1%81%D0%BA%D0%BE%D0%B9-%D0%BD%D0%B5%D0%B4%D0%B2%D0%B8%D0%B6%D0%B8%D0%BC%D0%BE%D1%81%D1%82%D0%B8/",
"https://magadanskaya-oblast.russianrealty.ru/%D0%9F%D1%80%D0%BE%D0%B4%D0%B0%D0%B6%D0%B0-%D0%BA%D0%BE%D0%BC%D0%BC%D0%B5%D1%80%D1%87%D0%B5%D1%81%D0%BA%D0%BE%D0%B9-%D0%BD%D0%B5%D0%B4%D0%B2%D0%B8%D0%B6%D0%B8%D0%BC%D0%BE%D1%81%D1%82%D0%B8/",
"https://mari-el.russianrealty.ru/%D0%9F%D1%80%D0%BE%D0%B4%D0%B0%D0%B6%D0%B0-%D0%BA%D0%BE%D0%BC%D0%BC%D0%B5%D1%80%D1%87%D0%B5%D1%81%D0%BA%D0%BE%D0%B9-%D0%BD%D0%B5%D0%B4%D0%B2%D0%B8%D0%B6%D0%B8%D0%BC%D0%BE%D1%81%D1%82%D0%B8/",
"https://mordovia.russianrealty.ru/%D0%9F%D1%80%D0%BE%D0%B4%D0%B0%D0%B6%D0%B0-%D0%BA%D0%BE%D0%BC%D0%BC%D0%B5%D1%80%D1%87%D0%B5%D1%81%D0%BA%D0%BE%D0%B9-%D0%BD%D0%B5%D0%B4%D0%B2%D0%B8%D0%B6%D0%B8%D0%BC%D0%BE%D1%81%D1%82%D0%B8/",
"https://www.russianrealty.ru/%D0%9F%D1%80%D0%BE%D0%B4%D0%B0%D0%B6%D0%B0-%D0%BA%D0%BE%D0%BC%D0%BC%D0%B5%D1%80%D1%87%D0%B5%D1%81%D0%BA%D0%BE%D0%B9-%D0%BD%D0%B5%D0%B4%D0%B2%D0%B8%D0%B6%D0%B8%D0%BC%D0%BE%D1%81%D1%82%D0%B8/",
"https://mo.russianrealty.ru/%D0%9F%D1%80%D0%BE%D0%B4%D0%B0%D0%B6%D0%B0-%D0%BA%D0%BE%D0%BC%D0%BC%D0%B5%D1%80%D1%87%D0%B5%D1%81%D0%BA%D0%BE%D0%B9-%D0%BD%D0%B5%D0%B4%D0%B2%D0%B8%D0%B6%D0%B8%D0%BC%D0%BE%D1%81%D1%82%D0%B8/",
"https://murmanskaya-oblast.russianrealty.ru/%D0%9F%D1%80%D0%BE%D0%B4%D0%B0%D0%B6%D0%B0-%D0%BA%D0%BE%D0%BC%D0%BC%D0%B5%D1%80%D1%87%D0%B5%D1%81%D0%BA%D0%BE%D0%B9-%D0%BD%D0%B5%D0%B4%D0%B2%D0%B8%D0%B6%D0%B8%D0%BC%D0%BE%D1%81%D1%82%D0%B8/",
"https://nnov.russianrealty.ru/%D0%9F%D1%80%D0%BE%D0%B4%D0%B0%D0%B6%D0%B0-%D0%BA%D0%BE%D0%BC%D0%BC%D0%B5%D1%80%D1%87%D0%B5%D1%81%D0%BA%D0%BE%D0%B9-%D0%BD%D0%B5%D0%B4%D0%B2%D0%B8%D0%B6%D0%B8%D0%BC%D0%BE%D1%81%D1%82%D0%B8/",
"https://nov.russianrealty.ru/%D0%9F%D1%80%D0%BE%D0%B4%D0%B0%D0%B6%D0%B0-%D0%BA%D0%BE%D0%BC%D0%BC%D0%B5%D1%80%D1%87%D0%B5%D1%81%D0%BA%D0%BE%D0%B9-%D0%BD%D0%B5%D0%B4%D0%B2%D0%B8%D0%B6%D0%B8%D0%BC%D0%BE%D1%81%D1%82%D0%B8/",
"https://nso.russianrealty.ru/%D0%9F%D1%80%D0%BE%D0%B4%D0%B0%D0%B6%D0%B0-%D0%BA%D0%BE%D0%BC%D0%BC%D0%B5%D1%80%D1%87%D0%B5%D1%81%D0%BA%D0%BE%D0%B9-%D0%BD%D0%B5%D0%B4%D0%B2%D0%B8%D0%B6%D0%B8%D0%BC%D0%BE%D1%81%D1%82%D0%B8/",
"https://omskaya-oblast.russianrealty.ru/%D0%9F%D1%80%D0%BE%D0%B4%D0%B0%D0%B6%D0%B0-%D0%BA%D0%BE%D0%BC%D0%BC%D0%B5%D1%80%D1%87%D0%B5%D1%81%D0%BA%D0%BE%D0%B9-%D0%BD%D0%B5%D0%B4%D0%B2%D0%B8%D0%B6%D0%B8%D0%BC%D0%BE%D1%81%D1%82%D0%B8/",
"https://orenburgskaya-oblast.russianrealty.ru/%D0%9F%D1%80%D0%BE%D0%B4%D0%B0%D0%B6%D0%B0-%D0%BA%D0%BE%D0%BC%D0%BC%D0%B5%D1%80%D1%87%D0%B5%D1%81%D0%BA%D0%BE%D0%B9-%D0%BD%D0%B5%D0%B4%D0%B2%D0%B8%D0%B6%D0%B8%D0%BC%D0%BE%D1%81%D1%82%D0%B8/",
"https://orlovskaya-oblast.russianrealty.ru/%D0%9F%D1%80%D0%BE%D0%B4%D0%B0%D0%B6%D0%B0-%D0%BA%D0%BE%D0%BC%D0%BC%D0%B5%D1%80%D1%87%D0%B5%D1%81%D0%BA%D0%BE%D0%B9-%D0%BD%D0%B5%D0%B4%D0%B2%D0%B8%D0%B6%D0%B8%D0%BC%D0%BE%D1%81%D1%82%D0%B8/",
"https://penzenskaya-oblast.russianrealty.ru/%D0%9F%D1%80%D0%BE%D0%B4%D0%B0%D0%B6%D0%B0-%D0%BA%D0%BE%D0%BC%D0%BC%D0%B5%D1%80%D1%87%D0%B5%D1%81%D0%BA%D0%BE%D0%B9-%D0%BD%D0%B5%D0%B4%D0%B2%D0%B8%D0%B6%D0%B8%D0%BC%D0%BE%D1%81%D1%82%D0%B8/",
"https://permsky-kray.russianrealty.ru/%D0%9F%D1%80%D0%BE%D0%B4%D0%B0%D0%B6%D0%B0-%D0%BA%D0%BE%D0%BC%D0%BC%D0%B5%D1%80%D1%87%D0%B5%D1%81%D0%BA%D0%BE%D0%B9-%D0%BD%D0%B5%D0%B4%D0%B2%D0%B8%D0%B6%D0%B8%D0%BC%D0%BE%D1%81%D1%82%D0%B8/",
"https://primorsky.russianrealty.ru/%D0%9F%D1%80%D0%BE%D0%B4%D0%B0%D0%B6%D0%B0-%D0%BA%D0%BE%D0%BC%D0%BC%D0%B5%D1%80%D1%87%D0%B5%D1%81%D0%BA%D0%BE%D0%B9-%D0%BD%D0%B5%D0%B4%D0%B2%D0%B8%D0%B6%D0%B8%D0%BC%D0%BE%D1%81%D1%82%D0%B8/",
"https://pskovskaya-oblast.russianrealty.ru/%D0%9F%D1%80%D0%BE%D0%B4%D0%B0%D0%B6%D0%B0-%D0%BA%D0%BE%D0%BC%D0%BC%D0%B5%D1%80%D1%87%D0%B5%D1%81%D0%BA%D0%BE%D0%B9-%D0%BD%D0%B5%D0%B4%D0%B2%D0%B8%D0%B6%D0%B8%D0%BC%D0%BE%D1%81%D1%82%D0%B8/",
"https://rostovskaya-oblast.russianrealty.ru/%D0%9F%D1%80%D0%BE%D0%B4%D0%B0%D0%B6%D0%B0-%D0%BA%D0%BE%D0%BC%D0%BC%D0%B5%D1%80%D1%87%D0%B5%D1%81%D0%BA%D0%BE%D0%B9-%D0%BD%D0%B5%D0%B4%D0%B2%D0%B8%D0%B6%D0%B8%D0%BC%D0%BE%D1%81%D1%82%D0%B8/",
"https://ryazanskaya-oblast.russianrealty.ru/%D0%9F%D1%80%D0%BE%D0%B4%D0%B0%D0%B6%D0%B0-%D0%BA%D0%BE%D0%BC%D0%BC%D0%B5%D1%80%D1%87%D0%B5%D1%81%D0%BA%D0%BE%D0%B9-%D0%BD%D0%B5%D0%B4%D0%B2%D0%B8%D0%B6%D0%B8%D0%BC%D0%BE%D1%81%D1%82%D0%B8/",
"https://samarskaya-oblast.russianrealty.ru/%D0%9F%D1%80%D0%BE%D0%B4%D0%B0%D0%B6%D0%B0-%D0%BA%D0%BE%D0%BC%D0%BC%D0%B5%D1%80%D1%87%D0%B5%D1%81%D0%BA%D0%BE%D0%B9-%D0%BD%D0%B5%D0%B4%D0%B2%D0%B8%D0%B6%D0%B8%D0%BC%D0%BE%D1%81%D1%82%D0%B8/",
"https://spb.russianrealty.ru/%D0%9F%D1%80%D0%BE%D0%B4%D0%B0%D0%B6%D0%B0-%D0%BA%D0%BE%D0%BC%D0%BC%D0%B5%D1%80%D1%87%D0%B5%D1%81%D0%BA%D0%BE%D0%B9-%D0%BD%D0%B5%D0%B4%D0%B2%D0%B8%D0%B6%D0%B8%D0%BC%D0%BE%D1%81%D1%82%D0%B8/",
"https://saratovskaya-oblast.russianrealty.ru/%D0%9F%D1%80%D0%BE%D0%B4%D0%B0%D0%B6%D0%B0-%D0%BA%D0%BE%D0%BC%D0%BC%D0%B5%D1%80%D1%87%D0%B5%D1%81%D0%BA%D0%BE%D0%B9-%D0%BD%D0%B5%D0%B4%D0%B2%D0%B8%D0%B6%D0%B8%D0%BC%D0%BE%D1%81%D1%82%D0%B8/",
"https://sakha.russianrealty.ru/%D0%9F%D1%80%D0%BE%D0%B4%D0%B0%D0%B6%D0%B0-%D0%BA%D0%BE%D0%BC%D0%BC%D0%B5%D1%80%D1%87%D0%B5%D1%81%D0%BA%D0%BE%D0%B9-%D0%BD%D0%B5%D0%B4%D0%B2%D0%B8%D0%B6%D0%B8%D0%BC%D0%BE%D1%81%D1%82%D0%B8/",
"https://sakhalin.russianrealty.ru/%D0%9F%D1%80%D0%BE%D0%B4%D0%B0%D0%B6%D0%B0-%D0%BA%D0%BE%D0%BC%D0%BC%D0%B5%D1%80%D1%87%D0%B5%D1%81%D0%BA%D0%BE%D0%B9-%D0%BD%D0%B5%D0%B4%D0%B2%D0%B8%D0%B6%D0%B8%D0%BC%D0%BE%D1%81%D1%82%D0%B8/",
"https://ural.russianrealty.ru/%D0%9F%D1%80%D0%BE%D0%B4%D0%B0%D0%B6%D0%B0-%D0%BA%D0%BE%D0%BC%D0%BC%D0%B5%D1%80%D1%87%D0%B5%D1%81%D0%BA%D0%BE%D0%B9-%D0%BD%D0%B5%D0%B4%D0%B2%D0%B8%D0%B6%D0%B8%D0%BC%D0%BE%D1%81%D1%82%D0%B8/",
"https://rso-a.russianrealty.ru/%D0%9F%D1%80%D0%BE%D0%B4%D0%B0%D0%B6%D0%B0-%D0%BA%D0%BE%D0%BC%D0%BC%D0%B5%D1%80%D1%87%D0%B5%D1%81%D0%BA%D0%BE%D0%B9-%D0%BD%D0%B5%D0%B4%D0%B2%D0%B8%D0%B6%D0%B8%D0%BC%D0%BE%D1%81%D1%82%D0%B8/",
"https://smolenskaya-oblast.russianrealty.ru/%D0%9F%D1%80%D0%BE%D0%B4%D0%B0%D0%B6%D0%B0-%D0%BA%D0%BE%D0%BC%D0%BC%D0%B5%D1%80%D1%87%D0%B5%D1%81%D0%BA%D0%BE%D0%B9-%D0%BD%D0%B5%D0%B4%D0%B2%D0%B8%D0%B6%D0%B8%D0%BC%D0%BE%D1%81%D1%82%D0%B8/",
"https://stavropolsky-kray.russianrealty.ru/%D0%9F%D1%80%D0%BE%D0%B4%D0%B0%D0%B6%D0%B0-%D0%BA%D0%BE%D0%BC%D0%BC%D0%B5%D1%80%D1%87%D0%B5%D1%81%D0%BA%D0%BE%D0%B9-%D0%BD%D0%B5%D0%B4%D0%B2%D0%B8%D0%B6%D0%B8%D0%BC%D0%BE%D1%81%D1%82%D0%B8/",
"https://tambovskaya-oblast.russianrealty.ru/%D0%9F%D1%80%D0%BE%D0%B4%D0%B0%D0%B6%D0%B0-%D0%BA%D0%BE%D0%BC%D0%BC%D0%B5%D1%80%D1%87%D0%B5%D1%81%D0%BA%D0%BE%D0%B9-%D0%BD%D0%B5%D0%B4%D0%B2%D0%B8%D0%B6%D0%B8%D0%BC%D0%BE%D1%81%D1%82%D0%B8/",
"https://tatarstan.russianrealty.ru/%D0%9F%D1%80%D0%BE%D0%B4%D0%B0%D0%B6%D0%B0-%D0%BA%D0%BE%D0%BC%D0%BC%D0%B5%D1%80%D1%87%D0%B5%D1%81%D0%BA%D0%BE%D0%B9-%D0%BD%D0%B5%D0%B4%D0%B2%D0%B8%D0%B6%D0%B8%D0%BC%D0%BE%D1%81%D1%82%D0%B8/",
"https://tverskaya-oblast.russianrealty.ru/%D0%9F%D1%80%D0%BE%D0%B4%D0%B0%D0%B6%D0%B0-%D0%BA%D0%BE%D0%BC%D0%BC%D0%B5%D1%80%D1%87%D0%B5%D1%81%D0%BA%D0%BE%D0%B9-%D0%BD%D0%B5%D0%B4%D0%B2%D0%B8%D0%B6%D0%B8%D0%BC%D0%BE%D1%81%D1%82%D0%B8/",
"https://tomskaya-oblast.russianrealty.ru/%D0%9F%D1%80%D0%BE%D0%B4%D0%B0%D0%B6%D0%B0-%D0%BA%D0%BE%D0%BC%D0%BC%D0%B5%D1%80%D1%87%D0%B5%D1%81%D0%BA%D0%BE%D0%B9-%D0%BD%D0%B5%D0%B4%D0%B2%D0%B8%D0%B6%D0%B8%D0%BC%D0%BE%D1%81%D1%82%D0%B8/",
"https://tulskaya-oblast.russianrealty.ru/%D0%9F%D1%80%D0%BE%D0%B4%D0%B0%D0%B6%D0%B0-%D0%BA%D0%BE%D0%BC%D0%BC%D0%B5%D1%80%D1%87%D0%B5%D1%81%D0%BA%D0%BE%D0%B9-%D0%BD%D0%B5%D0%B4%D0%B2%D0%B8%D0%B6%D0%B8%D0%BC%D0%BE%D1%81%D1%82%D0%B8/",
"https://tyva.russianrealty.ru/%D0%9F%D1%80%D0%BE%D0%B4%D0%B0%D0%B6%D0%B0-%D0%BA%D0%BE%D0%BC%D0%BC%D0%B5%D1%80%D1%87%D0%B5%D1%81%D0%BA%D0%BE%D0%B9-%D0%BD%D0%B5%D0%B4%D0%B2%D0%B8%D0%B6%D0%B8%D0%BC%D0%BE%D1%81%D1%82%D0%B8/",
"https://tyumenskaya-oblast.russianrealty.ru/%D0%9F%D1%80%D0%BE%D0%B4%D0%B0%D0%B6%D0%B0-%D0%BA%D0%BE%D0%BC%D0%BC%D0%B5%D1%80%D1%87%D0%B5%D1%81%D0%BA%D0%BE%D0%B9-%D0%BD%D0%B5%D0%B4%D0%B2%D0%B8%D0%B6%D0%B8%D0%BC%D0%BE%D1%81%D1%82%D0%B8/",
"https://udmurtiya.russianrealty.ru/%D0%9F%D1%80%D0%BE%D0%B4%D0%B0%D0%B6%D0%B0-%D0%BA%D0%BE%D0%BC%D0%BC%D0%B5%D1%80%D1%87%D0%B5%D1%81%D0%BA%D0%BE%D0%B9-%D0%BD%D0%B5%D0%B4%D0%B2%D0%B8%D0%B6%D0%B8%D0%BC%D0%BE%D1%81%D1%82%D0%B8/",
"https://ulyanovskaya-oblast.russianrealty.ru/%D0%9F%D1%80%D0%BE%D0%B4%D0%B0%D0%B6%D0%B0-%D0%BA%D0%BE%D0%BC%D0%BC%D0%B5%D1%80%D1%87%D0%B5%D1%81%D0%BA%D0%BE%D0%B9-%D0%BD%D0%B5%D0%B4%D0%B2%D0%B8%D0%B6%D0%B8%D0%BC%D0%BE%D1%81%D1%82%D0%B8/",
"https://khv.russianrealty.ru/%D0%9F%D1%80%D0%BE%D0%B4%D0%B0%D0%B6%D0%B0-%D0%BA%D0%BE%D0%BC%D0%BC%D0%B5%D1%80%D1%87%D0%B5%D1%81%D0%BA%D0%BE%D0%B9-%D0%BD%D0%B5%D0%B4%D0%B2%D0%B8%D0%B6%D0%B8%D0%BC%D0%BE%D1%81%D1%82%D0%B8/",
"https://hakasia.russianrealty.ru/%D0%9F%D1%80%D0%BE%D0%B4%D0%B0%D0%B6%D0%B0-%D0%BA%D0%BE%D0%BC%D0%BC%D0%B5%D1%80%D1%87%D0%B5%D1%81%D0%BA%D0%BE%D0%B9-%D0%BD%D0%B5%D0%B4%D0%B2%D0%B8%D0%B6%D0%B8%D0%BC%D0%BE%D1%81%D1%82%D0%B8/",
"https://hmao.russianrealty.ru/%D0%9F%D1%80%D0%BE%D0%B4%D0%B0%D0%B6%D0%B0-%D0%BA%D0%BE%D0%BC%D0%BC%D0%B5%D1%80%D1%87%D0%B5%D1%81%D0%BA%D0%BE%D0%B9-%D0%BD%D0%B5%D0%B4%D0%B2%D0%B8%D0%B6%D0%B8%D0%BC%D0%BE%D1%81%D1%82%D0%B8/",
"https://chel.russianrealty.ru/%D0%9F%D1%80%D0%BE%D0%B4%D0%B0%D0%B6%D0%B0-%D0%BA%D0%BE%D0%BC%D0%BC%D0%B5%D1%80%D1%87%D0%B5%D1%81%D0%BA%D0%BE%D0%B9-%D0%BD%D0%B5%D0%B4%D0%B2%D0%B8%D0%B6%D0%B8%D0%BC%D0%BE%D1%81%D1%82%D0%B8/",
"https://chechnya.russianrealty.ru/%D0%9F%D1%80%D0%BE%D0%B4%D0%B0%D0%B6%D0%B0-%D0%BA%D0%BE%D0%BC%D0%BC%D0%B5%D1%80%D1%87%D0%B5%D1%81%D0%BA%D0%BE%D0%B9-%D0%BD%D0%B5%D0%B4%D0%B2%D0%B8%D0%B6%D0%B8%D0%BC%D0%BE%D1%81%D1%82%D0%B8/",
"https://chuvashia.russianrealty.ru/%D0%9F%D1%80%D0%BE%D0%B4%D0%B0%D0%B6%D0%B0-%D0%BA%D0%BE%D0%BC%D0%BC%D0%B5%D1%80%D1%87%D0%B5%D1%81%D0%BA%D0%BE%D0%B9-%D0%BD%D0%B5%D0%B4%D0%B2%D0%B8%D0%B6%D0%B8%D0%BC%D0%BE%D1%81%D1%82%D0%B8/",
"https://yanao.russianrealty.ru/%D0%9F%D1%80%D0%BE%D0%B4%D0%B0%D0%B6%D0%B0-%D0%BA%D0%BE%D0%BC%D0%BC%D0%B5%D1%80%D1%87%D0%B5%D1%81%D0%BA%D0%BE%D0%B9-%D0%BD%D0%B5%D0%B4%D0%B2%D0%B8%D0%B6%D0%B8%D0%BC%D0%BE%D1%81%D1%82%D0%B8/",
"https://yar.russianrealty.ru/%D0%9F%D1%80%D0%BE%D0%B4%D0%B0%D0%B6%D0%B0-%D0%BA%D0%BE%D0%BC%D0%BC%D0%B5%D1%80%D1%87%D0%B5%D1%81%D0%BA%D0%BE%D0%B9-%D0%BD%D0%B5%D0%B4%D0%B2%D0%B8%D0%B6%D0%B8%D0%BC%D0%BE%D1%81%D1%82%D0%B8/",

"https://adygeya.russianrealty.ru/%D0%90%D1%80%D0%B5%D0%BD%D0%B4%D0%B0-%D0%BA%D0%BE%D0%BC%D0%BC%D0%B5%D1%80%D1%87%D0%B5%D1%81%D0%BA%D0%BE%D0%B9-%D0%BD%D0%B5%D0%B4%D0%B2%D0%B8%D0%B6%D0%B8%D0%BC%D0%BE%D1%81%D1%82%D0%B8/",
"https://altai.russianrealty.ru/%D0%90%D1%80%D0%B5%D0%BD%D0%B4%D0%B0-%D0%BA%D0%BE%D0%BC%D0%BC%D0%B5%D1%80%D1%87%D0%B5%D1%81%D0%BA%D0%BE%D0%B9-%D0%BD%D0%B5%D0%B4%D0%B2%D0%B8%D0%B6%D0%B8%D0%BC%D0%BE%D1%81%D1%82%D0%B8/",
"https://altaysky-kray.russianrealty.ru/%D0%90%D1%80%D0%B5%D0%BD%D0%B4%D0%B0-%D0%BA%D0%BE%D0%BC%D0%BC%D0%B5%D1%80%D1%87%D0%B5%D1%81%D0%BA%D0%BE%D0%B9-%D0%BD%D0%B5%D0%B4%D0%B2%D0%B8%D0%B6%D0%B8%D0%BC%D0%BE%D1%81%D1%82%D0%B8/",
"https://amur.russianrealty.ru/%D0%90%D1%80%D0%B5%D0%BD%D0%B4%D0%B0-%D0%BA%D0%BE%D0%BC%D0%BC%D0%B5%D1%80%D1%87%D0%B5%D1%81%D0%BA%D0%BE%D0%B9-%D0%BD%D0%B5%D0%B4%D0%B2%D0%B8%D0%B6%D0%B8%D0%BC%D0%BE%D1%81%D1%82%D0%B8/",
"https://arhangelskaya-oblast.russianrealty.ru/%D0%90%D1%80%D0%B5%D0%BD%D0%B4%D0%B0-%D0%BA%D0%BE%D0%BC%D0%BC%D0%B5%D1%80%D1%87%D0%B5%D1%81%D0%BA%D0%BE%D0%B9-%D0%BD%D0%B5%D0%B4%D0%B2%D0%B8%D0%B6%D0%B8%D0%BC%D0%BE%D1%81%D1%82%D0%B8/",
"https://astrahanskaya-oblast.russianrealty.ru/%D0%90%D1%80%D0%B5%D0%BD%D0%B4%D0%B0-%D0%BA%D0%BE%D0%BC%D0%BC%D0%B5%D1%80%D1%87%D0%B5%D1%81%D0%BA%D0%BE%D0%B9-%D0%BD%D0%B5%D0%B4%D0%B2%D0%B8%D0%B6%D0%B8%D0%BC%D0%BE%D1%81%D1%82%D0%B8/",
"https://bashkortostan.russianrealty.ru/%D0%90%D1%80%D0%B5%D0%BD%D0%B4%D0%B0-%D0%BA%D0%BE%D0%BC%D0%BC%D0%B5%D1%80%D1%87%D0%B5%D1%81%D0%BA%D0%BE%D0%B9-%D0%BD%D0%B5%D0%B4%D0%B2%D0%B8%D0%B6%D0%B8%D0%BC%D0%BE%D1%81%D1%82%D0%B8/",
"https://belgorodskaya-oblast.russianrealty.ru/%D0%90%D1%80%D0%B5%D0%BD%D0%B4%D0%B0-%D0%BA%D0%BE%D0%BC%D0%BC%D0%B5%D1%80%D1%87%D0%B5%D1%81%D0%BA%D0%BE%D0%B9-%D0%BD%D0%B5%D0%B4%D0%B2%D0%B8%D0%B6%D0%B8%D0%BC%D0%BE%D1%81%D1%82%D0%B8/",
"https://bryanskaya-oblast.russianrealty.ru/%D0%90%D1%80%D0%B5%D0%BD%D0%B4%D0%B0-%D0%BA%D0%BE%D0%BC%D0%BC%D0%B5%D1%80%D1%87%D0%B5%D1%81%D0%BA%D0%BE%D0%B9-%D0%BD%D0%B5%D0%B4%D0%B2%D0%B8%D0%B6%D0%B8%D0%BC%D0%BE%D1%81%D1%82%D0%B8/",
"https://buryatiya.russianrealty.ru/%D0%90%D1%80%D0%B5%D0%BD%D0%B4%D0%B0-%D0%BA%D0%BE%D0%BC%D0%BC%D0%B5%D1%80%D1%87%D0%B5%D1%81%D0%BA%D0%BE%D0%B9-%D0%BD%D0%B5%D0%B4%D0%B2%D0%B8%D0%B6%D0%B8%D0%BC%D0%BE%D1%81%D1%82%D0%B8/",
"https://vladimirskaya-oblast.russianrealty.ru/%D0%90%D1%80%D0%B5%D0%BD%D0%B4%D0%B0-%D0%BA%D0%BE%D0%BC%D0%BC%D0%B5%D1%80%D1%87%D0%B5%D1%81%D0%BA%D0%BE%D0%B9-%D0%BD%D0%B5%D0%B4%D0%B2%D0%B8%D0%B6%D0%B8%D0%BC%D0%BE%D1%81%D1%82%D0%B8/",
"https://volgogradskaya-oblast.russianrealty.ru/%D0%90%D1%80%D0%B5%D0%BD%D0%B4%D0%B0-%D0%BA%D0%BE%D0%BC%D0%BC%D0%B5%D1%80%D1%87%D0%B5%D1%81%D0%BA%D0%BE%D0%B9-%D0%BD%D0%B5%D0%B4%D0%B2%D0%B8%D0%B6%D0%B8%D0%BC%D0%BE%D1%81%D1%82%D0%B8/",
"https://vologodskaya-oblast.russianrealty.ru/%D0%90%D1%80%D0%B5%D0%BD%D0%B4%D0%B0-%D0%BA%D0%BE%D0%BC%D0%BC%D0%B5%D1%80%D1%87%D0%B5%D1%81%D0%BA%D0%BE%D0%B9-%D0%BD%D0%B5%D0%B4%D0%B2%D0%B8%D0%B6%D0%B8%D0%BC%D0%BE%D1%81%D1%82%D0%B8/",
"https://voronezhskaya-oblast.russianrealty.ru/%D0%90%D1%80%D0%B5%D0%BD%D0%B4%D0%B0-%D0%BA%D0%BE%D0%BC%D0%BC%D0%B5%D1%80%D1%87%D0%B5%D1%81%D0%BA%D0%BE%D0%B9-%D0%BD%D0%B5%D0%B4%D0%B2%D0%B8%D0%B6%D0%B8%D0%BC%D0%BE%D1%81%D1%82%D0%B8/",
"https://dagestan.russianrealty.ru/%D0%90%D1%80%D0%B5%D0%BD%D0%B4%D0%B0-%D0%BA%D0%BE%D0%BC%D0%BC%D0%B5%D1%80%D1%87%D0%B5%D1%81%D0%BA%D0%BE%D0%B9-%D0%BD%D0%B5%D0%B4%D0%B2%D0%B8%D0%B6%D0%B8%D0%BC%D0%BE%D1%81%D1%82%D0%B8/",
"https://eao.russianrealty.ru/%D0%90%D1%80%D0%B5%D0%BD%D0%B4%D0%B0-%D0%BA%D0%BE%D0%BC%D0%BC%D0%B5%D1%80%D1%87%D0%B5%D1%81%D0%BA%D0%BE%D0%B9-%D0%BD%D0%B5%D0%B4%D0%B2%D0%B8%D0%B6%D0%B8%D0%BC%D0%BE%D1%81%D1%82%D0%B8/",
"https://zab.russianrealty.ru/%D0%90%D1%80%D0%B5%D0%BD%D0%B4%D0%B0-%D0%BA%D0%BE%D0%BC%D0%BC%D0%B5%D1%80%D1%87%D0%B5%D1%81%D0%BA%D0%BE%D0%B9-%D0%BD%D0%B5%D0%B4%D0%B2%D0%B8%D0%B6%D0%B8%D0%BC%D0%BE%D1%81%D1%82%D0%B8/",
"https://ivanovskaya-oblast.russianrealty.ru/%D0%90%D1%80%D0%B5%D0%BD%D0%B4%D0%B0-%D0%BA%D0%BE%D0%BC%D0%BC%D0%B5%D1%80%D1%87%D0%B5%D1%81%D0%BA%D0%BE%D0%B9-%D0%BD%D0%B5%D0%B4%D0%B2%D0%B8%D0%B6%D0%B8%D0%BC%D0%BE%D1%81%D1%82%D0%B8/",
"https://irk.russianrealty.ru/%D0%90%D1%80%D0%B5%D0%BD%D0%B4%D0%B0-%D0%BA%D0%BE%D0%BC%D0%BC%D0%B5%D1%80%D1%87%D0%B5%D1%81%D0%BA%D0%BE%D0%B9-%D0%BD%D0%B5%D0%B4%D0%B2%D0%B8%D0%B6%D0%B8%D0%BC%D0%BE%D1%81%D1%82%D0%B8/",
"https://kbr.russianrealty.ru/%D0%90%D1%80%D0%B5%D0%BD%D0%B4%D0%B0-%D0%BA%D0%BE%D0%BC%D0%BC%D0%B5%D1%80%D1%87%D0%B5%D1%81%D0%BA%D0%BE%D0%B9-%D0%BD%D0%B5%D0%B4%D0%B2%D0%B8%D0%B6%D0%B8%D0%BC%D0%BE%D1%81%D1%82%D0%B8/",
"https://kgd.russianrealty.ru/%D0%90%D1%80%D0%B5%D0%BD%D0%B4%D0%B0-%D0%BA%D0%BE%D0%BC%D0%BC%D0%B5%D1%80%D1%87%D0%B5%D1%81%D0%BA%D0%BE%D0%B9-%D0%BD%D0%B5%D0%B4%D0%B2%D0%B8%D0%B6%D0%B8%D0%BC%D0%BE%D1%81%D1%82%D0%B8/",
"https://kalmykia.russianrealty.ru/%D0%90%D1%80%D0%B5%D0%BD%D0%B4%D0%B0-%D0%BA%D0%BE%D0%BC%D0%BC%D0%B5%D1%80%D1%87%D0%B5%D1%81%D0%BA%D0%BE%D0%B9-%D0%BD%D0%B5%D0%B4%D0%B2%D0%B8%D0%B6%D0%B8%D0%BC%D0%BE%D1%81%D1%82%D0%B8/",
"https://kaluzhskaya-oblast.russianrealty.ru/%D0%90%D1%80%D0%B5%D0%BD%D0%B4%D0%B0-%D0%BA%D0%BE%D0%BC%D0%BC%D0%B5%D1%80%D1%87%D0%B5%D1%81%D0%BA%D0%BE%D0%B9-%D0%BD%D0%B5%D0%B4%D0%B2%D0%B8%D0%B6%D0%B8%D0%BC%D0%BE%D1%81%D1%82%D0%B8/",
"https://kamchatka.russianrealty.ru/%D0%90%D1%80%D0%B5%D0%BD%D0%B4%D0%B0-%D0%BA%D0%BE%D0%BC%D0%BC%D0%B5%D1%80%D1%87%D0%B5%D1%81%D0%BA%D0%BE%D0%B9-%D0%BD%D0%B5%D0%B4%D0%B2%D0%B8%D0%B6%D0%B8%D0%BC%D0%BE%D1%81%D1%82%D0%B8/",
"https://kchr.russianrealty.ru/%D0%90%D1%80%D0%B5%D0%BD%D0%B4%D0%B0-%D0%BA%D0%BE%D0%BC%D0%BC%D0%B5%D1%80%D1%87%D0%B5%D1%81%D0%BA%D0%BE%D0%B9-%D0%BD%D0%B5%D0%B4%D0%B2%D0%B8%D0%B6%D0%B8%D0%BC%D0%BE%D1%81%D1%82%D0%B8/",
"https://karelia.russianrealty.ru/%D0%90%D1%80%D0%B5%D0%BD%D0%B4%D0%B0-%D0%BA%D0%BE%D0%BC%D0%BC%D0%B5%D1%80%D1%87%D0%B5%D1%81%D0%BA%D0%BE%D0%B9-%D0%BD%D0%B5%D0%B4%D0%B2%D0%B8%D0%B6%D0%B8%D0%BC%D0%BE%D1%81%D1%82%D0%B8/",
"https://kemerovskaya-oblast.russianrealty.ru/%D0%90%D1%80%D0%B5%D0%BD%D0%B4%D0%B0-%D0%BA%D0%BE%D0%BC%D0%BC%D0%B5%D1%80%D1%87%D0%B5%D1%81%D0%BA%D0%BE%D0%B9-%D0%BD%D0%B5%D0%B4%D0%B2%D0%B8%D0%B6%D0%B8%D0%BC%D0%BE%D1%81%D1%82%D0%B8/",
"https://kirovskaya-oblast.russianrealty.ru/%D0%90%D1%80%D0%B5%D0%BD%D0%B4%D0%B0-%D0%BA%D0%BE%D0%BC%D0%BC%D0%B5%D1%80%D1%87%D0%B5%D1%81%D0%BA%D0%BE%D0%B9-%D0%BD%D0%B5%D0%B4%D0%B2%D0%B8%D0%B6%D0%B8%D0%BC%D0%BE%D1%81%D1%82%D0%B8/",
"https://komi.russianrealty.ru/%D0%90%D1%80%D0%B5%D0%BD%D0%B4%D0%B0-%D0%BA%D0%BE%D0%BC%D0%BC%D0%B5%D1%80%D1%87%D0%B5%D1%81%D0%BA%D0%BE%D0%B9-%D0%BD%D0%B5%D0%B4%D0%B2%D0%B8%D0%B6%D0%B8%D0%BC%D0%BE%D1%81%D1%82%D0%B8/",
"https://kostromskaya-oblast.russianrealty.ru/%D0%90%D1%80%D0%B5%D0%BD%D0%B4%D0%B0-%D0%BA%D0%BE%D0%BC%D0%BC%D0%B5%D1%80%D1%87%D0%B5%D1%81%D0%BA%D0%BE%D0%B9-%D0%BD%D0%B5%D0%B4%D0%B2%D0%B8%D0%B6%D0%B8%D0%BC%D0%BE%D1%81%D1%82%D0%B8/",
"https://krasnodar.russianrealty.ru/%D0%90%D1%80%D0%B5%D0%BD%D0%B4%D0%B0-%D0%BA%D0%BE%D0%BC%D0%BC%D0%B5%D1%80%D1%87%D0%B5%D1%81%D0%BA%D0%BE%D0%B9-%D0%BD%D0%B5%D0%B4%D0%B2%D0%B8%D0%B6%D0%B8%D0%BC%D0%BE%D1%81%D1%82%D0%B8/",
"https://krasnoyarsky-kray.russianrealty.ru/%D0%90%D1%80%D0%B5%D0%BD%D0%B4%D0%B0-%D0%BA%D0%BE%D0%BC%D0%BC%D0%B5%D1%80%D1%87%D0%B5%D1%81%D0%BA%D0%BE%D0%B9-%D0%BD%D0%B5%D0%B4%D0%B2%D0%B8%D0%B6%D0%B8%D0%BC%D0%BE%D1%81%D1%82%D0%B8/",
"https://krym.russianrealty.ru/%D0%90%D1%80%D0%B5%D0%BD%D0%B4%D0%B0-%D0%BA%D0%BE%D0%BC%D0%BC%D0%B5%D1%80%D1%87%D0%B5%D1%81%D0%BA%D0%BE%D0%B9-%D0%BD%D0%B5%D0%B4%D0%B2%D0%B8%D0%B6%D0%B8%D0%BC%D0%BE%D1%81%D1%82%D0%B8/",
"https://kurganskaya-oblast.russianrealty.ru/%D0%90%D1%80%D0%B5%D0%BD%D0%B4%D0%B0-%D0%BA%D0%BE%D0%BC%D0%BC%D0%B5%D1%80%D1%87%D0%B5%D1%81%D0%BA%D0%BE%D0%B9-%D0%BD%D0%B5%D0%B4%D0%B2%D0%B8%D0%B6%D0%B8%D0%BC%D0%BE%D1%81%D1%82%D0%B8/",
"https://kurskaya-oblast.russianrealty.ru/%D0%90%D1%80%D0%B5%D0%BD%D0%B4%D0%B0-%D0%BA%D0%BE%D0%BC%D0%BC%D0%B5%D1%80%D1%87%D0%B5%D1%81%D0%BA%D0%BE%D0%B9-%D0%BD%D0%B5%D0%B4%D0%B2%D0%B8%D0%B6%D0%B8%D0%BC%D0%BE%D1%81%D1%82%D0%B8/",
"https://lenobl.russianrealty.ru/%D0%90%D1%80%D0%B5%D0%BD%D0%B4%D0%B0-%D0%BA%D0%BE%D0%BC%D0%BC%D0%B5%D1%80%D1%87%D0%B5%D1%81%D0%BA%D0%BE%D0%B9-%D0%BD%D0%B5%D0%B4%D0%B2%D0%B8%D0%B6%D0%B8%D0%BC%D0%BE%D1%81%D1%82%D0%B8/",
"https://lipetskaya-oblast.russianrealty.ru/%D0%90%D1%80%D0%B5%D0%BD%D0%B4%D0%B0-%D0%BA%D0%BE%D0%BC%D0%BC%D0%B5%D1%80%D1%87%D0%B5%D1%81%D0%BA%D0%BE%D0%B9-%D0%BD%D0%B5%D0%B4%D0%B2%D0%B8%D0%B6%D0%B8%D0%BC%D0%BE%D1%81%D1%82%D0%B8/",
"https://magadanskaya-oblast.russianrealty.ru/%D0%90%D1%80%D0%B5%D0%BD%D0%B4%D0%B0-%D0%BA%D0%BE%D0%BC%D0%BC%D0%B5%D1%80%D1%87%D0%B5%D1%81%D0%BA%D0%BE%D0%B9-%D0%BD%D0%B5%D0%B4%D0%B2%D0%B8%D0%B6%D0%B8%D0%BC%D0%BE%D1%81%D1%82%D0%B8/",
"https://mari-el.russianrealty.ru/%D0%90%D1%80%D0%B5%D0%BD%D0%B4%D0%B0-%D0%BA%D0%BE%D0%BC%D0%BC%D0%B5%D1%80%D1%87%D0%B5%D1%81%D0%BA%D0%BE%D0%B9-%D0%BD%D0%B5%D0%B4%D0%B2%D0%B8%D0%B6%D0%B8%D0%BC%D0%BE%D1%81%D1%82%D0%B8/",
"https://mordovia.russianrealty.ru/%D0%90%D1%80%D0%B5%D0%BD%D0%B4%D0%B0-%D0%BA%D0%BE%D0%BC%D0%BC%D0%B5%D1%80%D1%87%D0%B5%D1%81%D0%BA%D0%BE%D0%B9-%D0%BD%D0%B5%D0%B4%D0%B2%D0%B8%D0%B6%D0%B8%D0%BC%D0%BE%D1%81%D1%82%D0%B8/",
"https://www.russianrealty.ru/%D0%90%D1%80%D0%B5%D0%BD%D0%B4%D0%B0-%D0%BA%D0%BE%D0%BC%D0%BC%D0%B5%D1%80%D1%87%D0%B5%D1%81%D0%BA%D0%BE%D0%B9-%D0%BD%D0%B5%D0%B4%D0%B2%D0%B8%D0%B6%D0%B8%D0%BC%D0%BE%D1%81%D1%82%D0%B8/",
"https://mo.russianrealty.ru/%D0%90%D1%80%D0%B5%D0%BD%D0%B4%D0%B0-%D0%BA%D0%BE%D0%BC%D0%BC%D0%B5%D1%80%D1%87%D0%B5%D1%81%D0%BA%D0%BE%D0%B9-%D0%BD%D0%B5%D0%B4%D0%B2%D0%B8%D0%B6%D0%B8%D0%BC%D0%BE%D1%81%D1%82%D0%B8/",
"https://murmanskaya-oblast.russianrealty.ru/%D0%90%D1%80%D0%B5%D0%BD%D0%B4%D0%B0-%D0%BA%D0%BE%D0%BC%D0%BC%D0%B5%D1%80%D1%87%D0%B5%D1%81%D0%BA%D0%BE%D0%B9-%D0%BD%D0%B5%D0%B4%D0%B2%D0%B8%D0%B6%D0%B8%D0%BC%D0%BE%D1%81%D1%82%D0%B8/",
"https://nnov.russianrealty.ru/%D0%90%D1%80%D0%B5%D0%BD%D0%B4%D0%B0-%D0%BA%D0%BE%D0%BC%D0%BC%D0%B5%D1%80%D1%87%D0%B5%D1%81%D0%BA%D0%BE%D0%B9-%D0%BD%D0%B5%D0%B4%D0%B2%D0%B8%D0%B6%D0%B8%D0%BC%D0%BE%D1%81%D1%82%D0%B8/",
"https://nov.russianrealty.ru/%D0%90%D1%80%D0%B5%D0%BD%D0%B4%D0%B0-%D0%BA%D0%BE%D0%BC%D0%BC%D0%B5%D1%80%D1%87%D0%B5%D1%81%D0%BA%D0%BE%D0%B9-%D0%BD%D0%B5%D0%B4%D0%B2%D0%B8%D0%B6%D0%B8%D0%BC%D0%BE%D1%81%D1%82%D0%B8/",
"https://nso.russianrealty.ru/%D0%90%D1%80%D0%B5%D0%BD%D0%B4%D0%B0-%D0%BA%D0%BE%D0%BC%D0%BC%D0%B5%D1%80%D1%87%D0%B5%D1%81%D0%BA%D0%BE%D0%B9-%D0%BD%D0%B5%D0%B4%D0%B2%D0%B8%D0%B6%D0%B8%D0%BC%D0%BE%D1%81%D1%82%D0%B8/",
"https://omskaya-oblast.russianrealty.ru/%D0%90%D1%80%D0%B5%D0%BD%D0%B4%D0%B0-%D0%BA%D0%BE%D0%BC%D0%BC%D0%B5%D1%80%D1%87%D0%B5%D1%81%D0%BA%D0%BE%D0%B9-%D0%BD%D0%B5%D0%B4%D0%B2%D0%B8%D0%B6%D0%B8%D0%BC%D0%BE%D1%81%D1%82%D0%B8/",
"https://orenburgskaya-oblast.russianrealty.ru/%D0%90%D1%80%D0%B5%D0%BD%D0%B4%D0%B0-%D0%BA%D0%BE%D0%BC%D0%BC%D0%B5%D1%80%D1%87%D0%B5%D1%81%D0%BA%D0%BE%D0%B9-%D0%BD%D0%B5%D0%B4%D0%B2%D0%B8%D0%B6%D0%B8%D0%BC%D0%BE%D1%81%D1%82%D0%B8/",
"https://orlovskaya-oblast.russianrealty.ru/%D0%90%D1%80%D0%B5%D0%BD%D0%B4%D0%B0-%D0%BA%D0%BE%D0%BC%D0%BC%D0%B5%D1%80%D1%87%D0%B5%D1%81%D0%BA%D0%BE%D0%B9-%D0%BD%D0%B5%D0%B4%D0%B2%D0%B8%D0%B6%D0%B8%D0%BC%D0%BE%D1%81%D1%82%D0%B8/",
"https://penzenskaya-oblast.russianrealty.ru/%D0%90%D1%80%D0%B5%D0%BD%D0%B4%D0%B0-%D0%BA%D0%BE%D0%BC%D0%BC%D0%B5%D1%80%D1%87%D0%B5%D1%81%D0%BA%D0%BE%D0%B9-%D0%BD%D0%B5%D0%B4%D0%B2%D0%B8%D0%B6%D0%B8%D0%BC%D0%BE%D1%81%D1%82%D0%B8/",
"https://permsky-kray.russianrealty.ru/%D0%90%D1%80%D0%B5%D0%BD%D0%B4%D0%B0-%D0%BA%D0%BE%D0%BC%D0%BC%D0%B5%D1%80%D1%87%D0%B5%D1%81%D0%BA%D0%BE%D0%B9-%D0%BD%D0%B5%D0%B4%D0%B2%D0%B8%D0%B6%D0%B8%D0%BC%D0%BE%D1%81%D1%82%D0%B8/",
"https://primorsky.russianrealty.ru/%D0%90%D1%80%D0%B5%D0%BD%D0%B4%D0%B0-%D0%BA%D0%BE%D0%BC%D0%BC%D0%B5%D1%80%D1%87%D0%B5%D1%81%D0%BA%D0%BE%D0%B9-%D0%BD%D0%B5%D0%B4%D0%B2%D0%B8%D0%B6%D0%B8%D0%BC%D0%BE%D1%81%D1%82%D0%B8/",
"https://pskovskaya-oblast.russianrealty.ru/%D0%90%D1%80%D0%B5%D0%BD%D0%B4%D0%B0-%D0%BA%D0%BE%D0%BC%D0%BC%D0%B5%D1%80%D1%87%D0%B5%D1%81%D0%BA%D0%BE%D0%B9-%D0%BD%D0%B5%D0%B4%D0%B2%D0%B8%D0%B6%D0%B8%D0%BC%D0%BE%D1%81%D1%82%D0%B8/",
"https://rostovskaya-oblast.russianrealty.ru/%D0%90%D1%80%D0%B5%D0%BD%D0%B4%D0%B0-%D0%BA%D0%BE%D0%BC%D0%BC%D0%B5%D1%80%D1%87%D0%B5%D1%81%D0%BA%D0%BE%D0%B9-%D0%BD%D0%B5%D0%B4%D0%B2%D0%B8%D0%B6%D0%B8%D0%BC%D0%BE%D1%81%D1%82%D0%B8/",
"https://ryazanskaya-oblast.russianrealty.ru/%D0%90%D1%80%D0%B5%D0%BD%D0%B4%D0%B0-%D0%BA%D0%BE%D0%BC%D0%BC%D0%B5%D1%80%D1%87%D0%B5%D1%81%D0%BA%D0%BE%D0%B9-%D0%BD%D0%B5%D0%B4%D0%B2%D0%B8%D0%B6%D0%B8%D0%BC%D0%BE%D1%81%D1%82%D0%B8/",
"https://samarskaya-oblast.russianrealty.ru/%D0%90%D1%80%D0%B5%D0%BD%D0%B4%D0%B0-%D0%BA%D0%BE%D0%BC%D0%BC%D0%B5%D1%80%D1%87%D0%B5%D1%81%D0%BA%D0%BE%D0%B9-%D0%BD%D0%B5%D0%B4%D0%B2%D0%B8%D0%B6%D0%B8%D0%BC%D0%BE%D1%81%D1%82%D0%B8/",
"https://spb.russianrealty.ru/%D0%90%D1%80%D0%B5%D0%BD%D0%B4%D0%B0-%D0%BA%D0%BE%D0%BC%D0%BC%D0%B5%D1%80%D1%87%D0%B5%D1%81%D0%BA%D0%BE%D0%B9-%D0%BD%D0%B5%D0%B4%D0%B2%D0%B8%D0%B6%D0%B8%D0%BC%D0%BE%D1%81%D1%82%D0%B8/",
"https://saratovskaya-oblast.russianrealty.ru/%D0%90%D1%80%D0%B5%D0%BD%D0%B4%D0%B0-%D0%BA%D0%BE%D0%BC%D0%BC%D0%B5%D1%80%D1%87%D0%B5%D1%81%D0%BA%D0%BE%D0%B9-%D0%BD%D0%B5%D0%B4%D0%B2%D0%B8%D0%B6%D0%B8%D0%BC%D0%BE%D1%81%D1%82%D0%B8/",
"https://sakha.russianrealty.ru/%D0%90%D1%80%D0%B5%D0%BD%D0%B4%D0%B0-%D0%BA%D0%BE%D0%BC%D0%BC%D0%B5%D1%80%D1%87%D0%B5%D1%81%D0%BA%D0%BE%D0%B9-%D0%BD%D0%B5%D0%B4%D0%B2%D0%B8%D0%B6%D0%B8%D0%BC%D0%BE%D1%81%D1%82%D0%B8/",
"https://sakhalin.russianrealty.ru/%D0%90%D1%80%D0%B5%D0%BD%D0%B4%D0%B0-%D0%BA%D0%BE%D0%BC%D0%BC%D0%B5%D1%80%D1%87%D0%B5%D1%81%D0%BA%D0%BE%D0%B9-%D0%BD%D0%B5%D0%B4%D0%B2%D0%B8%D0%B6%D0%B8%D0%BC%D0%BE%D1%81%D1%82%D0%B8/",
"https://ural.russianrealty.ru/%D0%90%D1%80%D0%B5%D0%BD%D0%B4%D0%B0-%D0%BA%D0%BE%D0%BC%D0%BC%D0%B5%D1%80%D1%87%D0%B5%D1%81%D0%BA%D0%BE%D0%B9-%D0%BD%D0%B5%D0%B4%D0%B2%D0%B8%D0%B6%D0%B8%D0%BC%D0%BE%D1%81%D1%82%D0%B8/",
"https://rso-a.russianrealty.ru/%D0%90%D1%80%D0%B5%D0%BD%D0%B4%D0%B0-%D0%BA%D0%BE%D0%BC%D0%BC%D0%B5%D1%80%D1%87%D0%B5%D1%81%D0%BA%D0%BE%D0%B9-%D0%BD%D0%B5%D0%B4%D0%B2%D0%B8%D0%B6%D0%B8%D0%BC%D0%BE%D1%81%D1%82%D0%B8/",
"https://smolenskaya-oblast.russianrealty.ru/%D0%90%D1%80%D0%B5%D0%BD%D0%B4%D0%B0-%D0%BA%D0%BE%D0%BC%D0%BC%D0%B5%D1%80%D1%87%D0%B5%D1%81%D0%BA%D0%BE%D0%B9-%D0%BD%D0%B5%D0%B4%D0%B2%D0%B8%D0%B6%D0%B8%D0%BC%D0%BE%D1%81%D1%82%D0%B8/",
"https://stavropolsky-kray.russianrealty.ru/%D0%90%D1%80%D0%B5%D0%BD%D0%B4%D0%B0-%D0%BA%D0%BE%D0%BC%D0%BC%D0%B5%D1%80%D1%87%D0%B5%D1%81%D0%BA%D0%BE%D0%B9-%D0%BD%D0%B5%D0%B4%D0%B2%D0%B8%D0%B6%D0%B8%D0%BC%D0%BE%D1%81%D1%82%D0%B8/",
"https://tambovskaya-oblast.russianrealty.ru/%D0%90%D1%80%D0%B5%D0%BD%D0%B4%D0%B0-%D0%BA%D0%BE%D0%BC%D0%BC%D0%B5%D1%80%D1%87%D0%B5%D1%81%D0%BA%D0%BE%D0%B9-%D0%BD%D0%B5%D0%B4%D0%B2%D0%B8%D0%B6%D0%B8%D0%BC%D0%BE%D1%81%D1%82%D0%B8/",
"https://tatarstan.russianrealty.ru/%D0%90%D1%80%D0%B5%D0%BD%D0%B4%D0%B0-%D0%BA%D0%BE%D0%BC%D0%BC%D0%B5%D1%80%D1%87%D0%B5%D1%81%D0%BA%D0%BE%D0%B9-%D0%BD%D0%B5%D0%B4%D0%B2%D0%B8%D0%B6%D0%B8%D0%BC%D0%BE%D1%81%D1%82%D0%B8/",
"https://tverskaya-oblast.russianrealty.ru/%D0%90%D1%80%D0%B5%D0%BD%D0%B4%D0%B0-%D0%BA%D0%BE%D0%BC%D0%BC%D0%B5%D1%80%D1%87%D0%B5%D1%81%D0%BA%D0%BE%D0%B9-%D0%BD%D0%B5%D0%B4%D0%B2%D0%B8%D0%B6%D0%B8%D0%BC%D0%BE%D1%81%D1%82%D0%B8/",
"https://tomskaya-oblast.russianrealty.ru/%D0%90%D1%80%D0%B5%D0%BD%D0%B4%D0%B0-%D0%BA%D0%BE%D0%BC%D0%BC%D0%B5%D1%80%D1%87%D0%B5%D1%81%D0%BA%D0%BE%D0%B9-%D0%BD%D0%B5%D0%B4%D0%B2%D0%B8%D0%B6%D0%B8%D0%BC%D0%BE%D1%81%D1%82%D0%B8/",
"https://tulskaya-oblast.russianrealty.ru/%D0%90%D1%80%D0%B5%D0%BD%D0%B4%D0%B0-%D0%BA%D0%BE%D0%BC%D0%BC%D0%B5%D1%80%D1%87%D0%B5%D1%81%D0%BA%D0%BE%D0%B9-%D0%BD%D0%B5%D0%B4%D0%B2%D0%B8%D0%B6%D0%B8%D0%BC%D0%BE%D1%81%D1%82%D0%B8/",
"https://tyva.russianrealty.ru/%D0%90%D1%80%D0%B5%D0%BD%D0%B4%D0%B0-%D0%BA%D0%BE%D0%BC%D0%BC%D0%B5%D1%80%D1%87%D0%B5%D1%81%D0%BA%D0%BE%D0%B9-%D0%BD%D0%B5%D0%B4%D0%B2%D0%B8%D0%B6%D0%B8%D0%BC%D0%BE%D1%81%D1%82%D0%B8/",
"https://tyumenskaya-oblast.russianrealty.ru/%D0%90%D1%80%D0%B5%D0%BD%D0%B4%D0%B0-%D0%BA%D0%BE%D0%BC%D0%BC%D0%B5%D1%80%D1%87%D0%B5%D1%81%D0%BA%D0%BE%D0%B9-%D0%BD%D0%B5%D0%B4%D0%B2%D0%B8%D0%B6%D0%B8%D0%BC%D0%BE%D1%81%D1%82%D0%B8/",
"https://udmurtiya.russianrealty.ru/%D0%90%D1%80%D0%B5%D0%BD%D0%B4%D0%B0-%D0%BA%D0%BE%D0%BC%D0%BC%D0%B5%D1%80%D1%87%D0%B5%D1%81%D0%BA%D0%BE%D0%B9-%D0%BD%D0%B5%D0%B4%D0%B2%D0%B8%D0%B6%D0%B8%D0%BC%D0%BE%D1%81%D1%82%D0%B8/",
"https://ulyanovskaya-oblast.russianrealty.ru/%D0%90%D1%80%D0%B5%D0%BD%D0%B4%D0%B0-%D0%BA%D0%BE%D0%BC%D0%BC%D0%B5%D1%80%D1%87%D0%B5%D1%81%D0%BA%D0%BE%D0%B9-%D0%BD%D0%B5%D0%B4%D0%B2%D0%B8%D0%B6%D0%B8%D0%BC%D0%BE%D1%81%D1%82%D0%B8/",
"https://khv.russianrealty.ru/%D0%90%D1%80%D0%B5%D0%BD%D0%B4%D0%B0-%D0%BA%D0%BE%D0%BC%D0%BC%D0%B5%D1%80%D1%87%D0%B5%D1%81%D0%BA%D0%BE%D0%B9-%D0%BD%D0%B5%D0%B4%D0%B2%D0%B8%D0%B6%D0%B8%D0%BC%D0%BE%D1%81%D1%82%D0%B8/",
"https://hakasia.russianrealty.ru/%D0%90%D1%80%D0%B5%D0%BD%D0%B4%D0%B0-%D0%BA%D0%BE%D0%BC%D0%BC%D0%B5%D1%80%D1%87%D0%B5%D1%81%D0%BA%D0%BE%D0%B9-%D0%BD%D0%B5%D0%B4%D0%B2%D0%B8%D0%B6%D0%B8%D0%BC%D0%BE%D1%81%D1%82%D0%B8/",
"https://hmao.russianrealty.ru/%D0%90%D1%80%D0%B5%D0%BD%D0%B4%D0%B0-%D0%BA%D0%BE%D0%BC%D0%BC%D0%B5%D1%80%D1%87%D0%B5%D1%81%D0%BA%D0%BE%D0%B9-%D0%BD%D0%B5%D0%B4%D0%B2%D0%B8%D0%B6%D0%B8%D0%BC%D0%BE%D1%81%D1%82%D0%B8/",
"https://chel.russianrealty.ru/%D0%90%D1%80%D0%B5%D0%BD%D0%B4%D0%B0-%D0%BA%D0%BE%D0%BC%D0%BC%D0%B5%D1%80%D1%87%D0%B5%D1%81%D0%BA%D0%BE%D0%B9-%D0%BD%D0%B5%D0%B4%D0%B2%D0%B8%D0%B6%D0%B8%D0%BC%D0%BE%D1%81%D1%82%D0%B8/",
"https://chechnya.russianrealty.ru/%D0%90%D1%80%D0%B5%D0%BD%D0%B4%D0%B0-%D0%BA%D0%BE%D0%BC%D0%BC%D0%B5%D1%80%D1%87%D0%B5%D1%81%D0%BA%D0%BE%D0%B9-%D0%BD%D0%B5%D0%B4%D0%B2%D0%B8%D0%B6%D0%B8%D0%BC%D0%BE%D1%81%D1%82%D0%B8/",
"https://chuvashia.russianrealty.ru/%D0%90%D1%80%D0%B5%D0%BD%D0%B4%D0%B0-%D0%BA%D0%BE%D0%BC%D0%BC%D0%B5%D1%80%D1%87%D0%B5%D1%81%D0%BA%D0%BE%D0%B9-%D0%BD%D0%B5%D0%B4%D0%B2%D0%B8%D0%B6%D0%B8%D0%BC%D0%BE%D1%81%D1%82%D0%B8/",
"https://yanao.russianrealty.ru/%D0%90%D1%80%D0%B5%D0%BD%D0%B4%D0%B0-%D0%BA%D0%BE%D0%BC%D0%BC%D0%B5%D1%80%D1%87%D0%B5%D1%81%D0%BA%D0%BE%D0%B9-%D0%BD%D0%B5%D0%B4%D0%B2%D0%B8%D0%B6%D0%B8%D0%BC%D0%BE%D1%81%D1%82%D0%B8/",
"https://yar.russianrealty.ru/%D0%90%D1%80%D0%B5%D0%BD%D0%B4%D0%B0-%D0%BA%D0%BE%D0%BC%D0%BC%D0%B5%D1%80%D1%87%D0%B5%D1%81%D0%BA%D0%BE%D0%B9-%D0%BD%D0%B5%D0%B4%D0%B2%D0%B8%D0%B6%D0%B8%D0%BC%D0%BE%D1%81%D1%82%D0%B8/"
	],
	"_segment": "Коммерческая недвижимость",
	"_operation": "",
	"_federal_subject": "",
	"_source": "russianrealty.ru",
	"project_id": "metaspider",
	"spider_id": "metacrawler",
	"global_settings": {
		"CONCURRENT_REQUESTS": 128,
		"SPLASH_URL": "http://0.0.0.0:8050",
		"LOG_LEVEL": "INFO",
		"AUTOTHROTTLE_ENABLED": true,
		"AUTOTHROTTLE_START_DELAY": 1,
		"AUTOTHROTTLE_MAX_DELAY": 60,
		"AUTOTHROTTLE_TARGET_CONCURRENCY": 128,
		"CONCURRENT_REQUESTS_PER_DOMAIN": 128,
		"RETRY_ENABLED": true,
		"RETRY_HTTP_CODES": [
			500,
			503,
			504,
			400,
			403,
			408,
			429,
			505,
			404,
			303,
			302,
			301,
			307,
			410,
			451
		],
		"HTTPERROR_ALLOWED_CODES": [],
		"RETRY_TIMES": 20,
		"ROBOTSTXT_ENABLED": false,
		"ROBOTSTXT_OBEY": false,
		"REDIRECT_ENABLED": true,
		"COOKIES_ENABLED": true,
		"DOWNLOAD_FAIL_ON_DATALOSS": false,
		"RANDOM_UA_TYPE": "random",
		"DOWNLOAD_TIMEOUT": 60,
		"CLOSESPIDER_ITEMCOUNT": 0,
		"CLOSESPIDER_ERRORCOUNT": 0
	},
	"methods": {
		"crawling_type": "common",
		"allowed_domains": [],
		"proxy_settings": {
			"types": [
				"https"
			]
		}
	},
	"crawl_tree": [{
		"pagination_urls": {
			"path": "//nav[@id='pager']//li[@class='active']/following-sibling::li[1]/a/@href"
		},
		"item_urls": {
			"path": "//div[@class='hproduct']/a[@rel='product']/@href"
		}
	}],
	"item_page": {
		"fields": {
			"date_info": {
				"type": "date",
				"time": "now",
				"operations": []
			},
			"date_created": {
				"type": "date",
				"path": "//div[@class='item-status']/div[contains(text(),'Добавлено')]/time/text()",
				"time": "from string",
				"operations": []
			},
			"date_updated": {
				"type": "date",
				"path": "//div[@class='item-status']/div[contains(text(),'Обновлено')]/time/text()",
				"time": "from string",
				"operations": []
			},
			"operation": {
				"type": "list to string",
				"path": "//h1/text()",
				"regex": "[Пп]родажа|[Аа]ренда",
				"operations": []
			},
			"price_total": {
				"type": "float",
				"path": "//strong[@class='price-total']/@content",
				"required": true,
				"operations": []
			},
			"rent_price_per_area": {
				"type": "float",
				"path": "//span[@class='price-square']/text()",
				"regex": "^[\\d\\s,.]+",
				"required": true,
				"operations": []
			},
			"area_total": {
				"type": "float",
				"path": "//span[contains(text(),'общая площадь')]/parent::li/text()",
				"regex": "^[\\d\\s,.]+",
				"operations": []
			},
			"land_area": {
				"type": "float",
				"path": "//span[contains(text(),'участок')]/parent::li/text()",
				"regex": "^[\\d\\s,.]+",
				"operations": []
			},
			"federal_subject": {
				"type": "list to string",
				"path": "//nav[@class='breadcrumbs']/ul/li[2]/a/@href",
				"regex": "/[-\\w_]+(?=\\.russianrealt)",
				"operations": []
			},
			"address": {
				"type": "list to string",
				"path": "//script[contains(text(),'var address')]/text()",
				"regex": "(?<=address\\s=\\s\")(.*?)\"",
				"operations": []
			},
			"description": {
				"type": "list to string",
				"path": "//div[@itemprop='description']/text()",
				"operations": []
			},
			"title_name": {
				"type": "list to string",
				"path": "//title/text()",
				"operations": []
			},
			"seller_name": {
				"type": "list to string",
				"path": "//label[contains(text(),'Контакт:')]/following-sibling::strong/text()",
				"operations": []
			},
			"company_name": {
				"type": "list to string",
				"path": "//label[contains(text(),'Компания:')]/following-sibling::strong/text()",
				"operations": []
			},
			"phone": {
				"type": "phone",
				"path": "//script[contains(text(),'show_phones')]/text()",
				"regex": "(?<=tel:)[\\d]+",
				"operations": []
			},
			"floor": {
				"type": "list to string",
				"path": "//ul[contains(@class,'cre-list')]/li[contains(text(),'этаж')]//text()",
				"regex": "[\\d]+(?=\\sэтаж)",
				"operations": []
			},
			"floors_cnt": {
				"type": "list to string",
				"path": "//ul[contains(@class,'cre-list')]/li[contains(text(),'этаж')]/span/text()",
				"regex": "(?<=из\\s)[\\d]+",
				"operations": []
			},
			"rooms_cnt": {
				"type": "list to string",
				"path": "//ul[contains(@class,'cre-list')]/li[contains(text(),'комнат')]//text()",
				"regex": "[\\d]+(?=\\sкомнат)",
				"operations": []
			},
			"object_class": {
				"type": "list to string",
				"path": "substring-after(//ul[contains(@class,'cre-list')]/li[contains(text(),'Класс бизнес-центра')]/text(),'— ')",
				"operations": []
			},
			"security_type": {
				"type": "list to string",
				"path": "//ul[contains(@class,'cre-list')]/li[contains(text(),'Охрана')]/text()",
				"operations": []
			},
			"is_internet": {
				"type": "list to string",
				"path": "//ul[contains(@class,'cre-list')]/li[contains(text(),'Интернет')]/text()",
				"operations": []
			},
			"parking_type": {
				"type": "list to string",
				"path": "//ul[contains(@class,'cre-list')]/li[contains(text(),'парковка')]/text()",
				"operations": []
			},
			"decoration_type": {
				"type": "list to string",
				"path": "substring-after(//ul[contains(@class,'cre-list')]/li[contains(text(),'Отделка')]/text(),'— ')",
				"operations": []
			},
			"heating_system_type": {
				"type": "list to string",
				"path": "//ul[contains(@class,'cre-list')]/li[contains(text(),'Отопление')]/text()",
				"operations": []
			},
			"is_plumbing": {
				"type": "list to string",
				"path": "//ul[contains(@class,'cre-list')]/li[contains(text(),'Водопровод')]/text()",
				"operations": []
			},
			"year_built": {
				"type": "float",
				"path": "//ul[contains(@class,'cre-list')]/li[contains(text(),'год постройки')]/text()",
				"regex": "[\\d]+(?=\\sгод)",
				"operations": []
			},
			"ceiling_height": {
				"type": "float",
				"path": "//span[contains(text(),'высота потолков')]/parent::li/text()",
				"regex": "[\\d.,\\s]+(?=\\sм)",
				"operations": []
			}
		}
	}
}