{
  "_task_id": "SIBDOM_DEBUG_2",
  "_start_urls": [
    "https://www.sibdom.ru/doma/prodam/sayanskijj_rajjon/aginskoe/",
    "https://www.sibdom.ru/dachi/prodam/sayanskijj_rajjon/aginskoe/",
    "https://www.sibdom.ru/arenda/sdam/sayanskijj_rajjon/aginskoe/dom/",
    "https://www.sibdom.ru/doma/prodam/bolshemurtinskijj_rajjon/ajjtat/",
    "https://www.sibdom.ru/dachi/prodam/bolshemurtinskijj_rajjon/ajjtat/",
    "https://www.sibdom.ru/arenda/sdam/bolshemurtinskijj_rajjon/ajjtat/dom/",
    "https://www.sibdom.ru/doma/prodam/emelyanovskijj_rajjon/akvareli_zagorodnyjj_poselok/",
    "https://www.sibdom.ru/dachi/prodam/emelyanovskijj_rajjon/akvareli_zagorodnyjj_poselok/",
    "https://www.sibdom.ru/arenda/sdam/emelyanovskijj_rajjon/akvareli_zagorodnyjj_poselok/dom/",
    "https://www.sibdom.ru/doma/prodam/emelyanovskijj_rajjon/alekseevka-37504/",
    "https://www.sibdom.ru/dachi/prodam/emelyanovskijj_rajjon/alekseevka-37504/",
    "https://www.sibdom.ru/arenda/sdam/emelyanovskijj_rajjon/alekseevka-37504/dom/",
    "https://www.sibdom.ru/doma/prodam/emelyanovskijj_rajjon/alenushka/",
    "https://www.sibdom.ru/dachi/prodam/emelyanovskijj_rajjon/alenushka/",
    "https://www.sibdom.ru/arenda/sdam/emelyanovskijj_rajjon/alenushka/dom/",
    "https://www.sibdom.ru/doma/prodam/emelyanovskijj_rajjon/arejj/",
    "https://www.sibdom.ru/dachi/prodam/emelyanovskijj_rajjon/arejj/",
    "https://www.sibdom.ru/arenda/sdam/emelyanovskijj_rajjon/arejj/dom/",
    "https://www.sibdom.ru/doma/prodam/emelyanovskijj_rajjon/arejjskoe/",
    "https://www.sibdom.ru/dachi/prodam/emelyanovskijj_rajjon/arejjskoe/",
    "https://www.sibdom.ru/arenda/sdam/emelyanovskijj_rajjon/arejjskoe/dom/",
    "https://www.sibdom.ru/doma/prodam/sukhobuzimskijj_rajjon/atamanovo/",
    "https://www.sibdom.ru/dachi/prodam/sukhobuzimskijj_rajjon/atamanovo/",
    "https://www.sibdom.ru/arenda/sdam/sukhobuzimskijj_rajjon/atamanovo/dom/",
    "https://www.sibdom.ru/doma/prodam/achinsk/",
    "https://www.sibdom.ru/dachi/prodam/achinsk/",
    "https://www.sibdom.ru/arenda/sdam/achinsk/dom/",
    "https://www.sibdom.ru/doma/prodam/emelyanovskijj_rajjon/aehroport_krasnoyarsk/",
    "https://www.sibdom.ru/dachi/prodam/emelyanovskijj_rajjon/aehroport_krasnoyarsk/",
    "https://www.sibdom.ru/arenda/sdam/emelyanovskijj_rajjon/aehroport_krasnoyarsk/dom/",
    "https://www.sibdom.ru/doma/prodam/emelyanovskijj_rajjon/aehroflot_snt/",
    "https://www.sibdom.ru/dachi/prodam/emelyanovskijj_rajjon/aehroflot_snt/",
    "https://www.sibdom.ru/arenda/sdam/emelyanovskijj_rajjon/aehroflot_snt/dom/",
    "https://www.sibdom.ru/doma/prodam/balakhtinskijj_rajjon/balakhta/",
    "https://www.sibdom.ru/dachi/prodam/balakhtinskijj_rajjon/balakhta/",
    "https://www.sibdom.ru/arenda/sdam/balakhtinskijj_rajjon/balakhta/dom/",
    "https://www.sibdom.ru/doma/prodam/kozulskijj_rajjon/balakhton/",
    "https://www.sibdom.ru/dachi/prodam/kozulskijj_rajjon/balakhton/",
    "https://www.sibdom.ru/arenda/sdam/kozulskijj_rajjon/balakhton/dom/",
    "https://www.sibdom.ru/doma/prodam/bolshemurtinskijj_rajjon/bartat/",
    "https://www.sibdom.ru/dachi/prodam/bolshemurtinskijj_rajjon/bartat/",
    "https://www.sibdom.ru/arenda/sdam/bolshemurtinskijj_rajjon/bartat/dom/",
    "https://www.sibdom.ru/doma/prodam/berezovskijj_rajjon/barkhatovo/",
    "https://www.sibdom.ru/dachi/prodam/berezovskijj_rajjon/barkhatovo/",
    "https://www.sibdom.ru/arenda/sdam/berezovskijj_rajjon/barkhatovo/dom/",
    "https://www.sibdom.ru/doma/prodam/berezovskijj_rajjon/berezovaya_roscha_dnt/",
    "https://www.sibdom.ru/dachi/prodam/berezovskijj_rajjon/berezovaya_roscha_dnt/",
    "https://www.sibdom.ru/arenda/sdam/berezovskijj_rajjon/berezovaya_roscha_dnt/dom/",
    "https://www.sibdom.ru/doma/prodam/berezovskijj_rajjon/berezovka/",
    "https://www.sibdom.ru/dachi/prodam/berezovskijj_rajjon/berezovka/",
    "https://www.sibdom.ru/arenda/sdam/berezovskijj_rajjon/berezovka/dom/",
    "https://www.sibdom.ru/doma/prodam/berezovskijj_rajjon/berezovskijj_rtp_st_zykovo/",
    "https://www.sibdom.ru/dachi/prodam/berezovskijj_rajjon/berezovskijj_rtp_st_zykovo/",
    "https://www.sibdom.ru/arenda/sdam/berezovskijj_rajjon/berezovskijj_rtp_st_zykovo/dom/",
    "https://www.sibdom.ru/doma/prodam/berezovskijj_rajjon/berezovskijj/",
    "https://www.sibdom.ru/dachi/prodam/berezovskijj_rajjon/berezovskijj/",
    "https://www.sibdom.ru/arenda/sdam/berezovskijj_rajjon/berezovskijj/dom/",
    "https://www.sibdom.ru/doma/prodam/berezovskijj_rajjon/beret/",
    "https://www.sibdom.ru/dachi/prodam/berezovskijj_rajjon/beret/",
    "https://www.sibdom.ru/arenda/sdam/berezovskijj_rajjon/beret/dom/",
    "https://www.sibdom.ru/doma/prodam/emelyanovskijj_rajjon/berjozka_pugachevo/",
    "https://www.sibdom.ru/dachi/prodam/emelyanovskijj_rajjon/berjozka_pugachevo/",
    "https://www.sibdom.ru/arenda/sdam/emelyanovskijj_rajjon/berjozka_pugachevo/dom/",
    "https://www.sibdom.ru/doma/prodam/emelyanovskijj_rajjon/blagodatnoe/",
    "https://www.sibdom.ru/dachi/prodam/emelyanovskijj_rajjon/blagodatnoe/",
    "https://www.sibdom.ru/arenda/sdam/emelyanovskijj_rajjon/blagodatnoe/dom/",
    "https://www.sibdom.ru/doma/prodam/bogotol/",
    "https://www.sibdom.ru/dachi/prodam/bogotol/",
    "https://www.sibdom.ru/arenda/sdam/bogotol/dom/",
    "https://www.sibdom.ru/doma/prodam/boguchanskijj_rajjon/boguchany/",
    "https://www.sibdom.ru/dachi/prodam/boguchanskijj_rajjon/boguchany/",
    "https://www.sibdom.ru/arenda/sdam/boguchanskijj_rajjon/boguchany/dom/",
    "https://www.sibdom.ru/doma/prodam/bolshemurtinskijj_rajjon/bolshaya_murta/",
    "https://www.sibdom.ru/dachi/prodam/bolshemurtinskijj_rajjon/bolshaya_murta/",
    "https://www.sibdom.ru/arenda/sdam/bolshemurtinskijj_rajjon/bolshaya_murta/dom/",
    "https://www.sibdom.ru/doma/prodam/sharypovskijj_rajjon/bolshoe_ozero/",
    "https://www.sibdom.ru/dachi/prodam/sharypovskijj_rajjon/bolshoe_ozero/",
    "https://www.sibdom.ru/arenda/sdam/sharypovskijj_rajjon/bolshoe_ozero/dom/",
    "https://www.sibdom.ru/doma/prodam/kozulskijj_rajjon/bolshojj_kemchug/",
    "https://www.sibdom.ru/dachi/prodam/kozulskijj_rajjon/bolshojj_kemchug/",
    "https://www.sibdom.ru/arenda/sdam/kozulskijj_rajjon/bolshojj_kemchug/dom/",
    "https://www.sibdom.ru/doma/prodam/bolsheulujjskijj_rajjon/bolshojj_ulujj/",
    "https://www.sibdom.ru/dachi/prodam/bolsheulujjskijj_rajjon/bolshojj_ulujj/",
    "https://www.sibdom.ru/arenda/sdam/bolsheulujjskijj_rajjon/bolshojj_ulujj/dom/",
    "https://www.sibdom.ru/doma/prodam/emelyanovskijj_rajjon/borlok/",
    "https://www.sibdom.ru/dachi/prodam/emelyanovskijj_rajjon/borlok/",
    "https://www.sibdom.ru/arenda/sdam/emelyanovskijj_rajjon/borlok/dom/",
    "https://www.sibdom.ru/doma/prodam/emelyanovskijj_rajjon/borovoe/",
    "https://www.sibdom.ru/dachi/prodam/emelyanovskijj_rajjon/borovoe/",
    "https://www.sibdom.ru/arenda/sdam/emelyanovskijj_rajjon/borovoe/dom/",
    "https://www.sibdom.ru/doma/prodam/rybinskijj_rajjon/borodino-37670/",
    "https://www.sibdom.ru/dachi/prodam/rybinskijj_rajjon/borodino-37670/",
    "https://www.sibdom.ru/arenda/sdam/rybinskijj_rajjon/borodino-37670/dom/",
    "https://www.sibdom.ru/doma/prodam/sukhobuzimskijj_rajjon/borsk/",
    "https://www.sibdom.ru/dachi/prodam/sukhobuzimskijj_rajjon/borsk/",
    "https://www.sibdom.ru/arenda/sdam/sukhobuzimskijj_rajjon/borsk/dom/",
    "https://www.sibdom.ru/doma/prodam/emelyanovskijj_rajjon/bugachevo/",
    "https://www.sibdom.ru/dachi/prodam/emelyanovskijj_rajjon/bugachevo/",
    "https://www.sibdom.ru/arenda/sdam/emelyanovskijj_rajjon/bugachevo/dom/",
    "https://www.sibdom.ru/doma/prodam/sukhobuzimskijj_rajjon/buzim/",
    "https://www.sibdom.ru/dachi/prodam/sukhobuzimskijj_rajjon/buzim/",
    "https://www.sibdom.ru/arenda/sdam/sukhobuzimskijj_rajjon/buzim/dom/",
    "https://www.sibdom.ru/doma/prodam/emelyanovskijj_rajjon/bulanovka/",
    "https://www.sibdom.ru/dachi/prodam/emelyanovskijj_rajjon/bulanovka/",
    "https://www.sibdom.ru/arenda/sdam/emelyanovskijj_rajjon/bulanovka/dom/",
    "https://www.sibdom.ru/doma/prodam/ehvenkijjskijj_rajjon/vanavara/",
    "https://www.sibdom.ru/dachi/prodam/ehvenkijjskijj_rajjon/vanavara/",
    "https://www.sibdom.ru/arenda/sdam/ehvenkijjskijj_rajjon/vanavara/dom/",
    "https://www.sibdom.ru/doma/prodam/emelyanovskijj_rajjon/vasilek-48531/",
    "https://www.sibdom.ru/dachi/prodam/emelyanovskijj_rajjon/vasilek-48531/",
    "https://www.sibdom.ru/arenda/sdam/emelyanovskijj_rajjon/vasilek-48531/dom/",
    "https://www.sibdom.ru/doma/prodam/emelyanovskijj_rajjon/vega/",
    "https://www.sibdom.ru/dachi/prodam/emelyanovskijj_rajjon/vega/",
    "https://www.sibdom.ru/arenda/sdam/emelyanovskijj_rajjon/vega/dom/",
    "https://www.sibdom.ru/doma/prodam/bolshemurtinskijj_rajjon/verkh-kazanka/",
    "https://www.sibdom.ru/dachi/prodam/bolshemurtinskijj_rajjon/verkh-kazanka/",
    "https://www.sibdom.ru/arenda/sdam/bolshemurtinskijj_rajjon/verkh-kazanka/dom/",
    "https://www.sibdom.ru/doma/prodam/emelyanovskijj_rajjon/verkhnee_emelyanovo_kottedzhnyjj_poselok/",
    "https://www.sibdom.ru/dachi/prodam/emelyanovskijj_rajjon/verkhnee_emelyanovo_kottedzhnyjj_poselok/",
    "https://www.sibdom.ru/arenda/sdam/emelyanovskijj_rajjon/verkhnee_emelyanovo_kottedzhnyjj_poselok/dom/",
    "https://www.sibdom.ru/doma/prodam/emelyanovskijj_rajjon/vesnyanka/",
    "https://www.sibdom.ru/dachi/prodam/emelyanovskijj_rajjon/vesnyanka/",
    "https://www.sibdom.ru/arenda/sdam/emelyanovskijj_rajjon/vesnyanka/dom/",
    "https://www.sibdom.ru/doma/prodam/emelyanovskijj_rajjon/veteran-1_pugachevo/",
    "https://www.sibdom.ru/dachi/prodam/emelyanovskijj_rajjon/veteran-1_pugachevo/",
    "https://www.sibdom.ru/arenda/sdam/emelyanovskijj_rajjon/veteran-1_pugachevo/dom/",
    "https://www.sibdom.ru/doma/prodam/emelyanovskijj_rajjon/veteran-3_kolyagino/",
    "https://www.sibdom.ru/dachi/prodam/emelyanovskijj_rajjon/veteran-3_kolyagino/",
    "https://www.sibdom.ru/arenda/sdam/emelyanovskijj_rajjon/veteran-3_kolyagino/dom/",
    "https://www.sibdom.ru/doma/prodam/emelyanovskijj_rajjon/veteran-3_ovinnyjj/",
    "https://www.sibdom.ru/dachi/prodam/emelyanovskijj_rajjon/veteran-3_ovinnyjj/",
    "https://www.sibdom.ru/arenda/sdam/emelyanovskijj_rajjon/veteran-3_ovinnyjj/dom/",
    "https://www.sibdom.ru/doma/prodam/berezovskijj_rajjon/veteran-48605/",
    "https://www.sibdom.ru/dachi/prodam/berezovskijj_rajjon/veteran-48605/",
    "https://www.sibdom.ru/arenda/sdam/berezovskijj_rajjon/veteran-48605/dom/",
    "https://www.sibdom.ru/doma/prodam/emelyanovskijj_rajjon/veterok_soloncy/",
    "https://www.sibdom.ru/dachi/prodam/emelyanovskijj_rajjon/veterok_soloncy/",
    "https://www.sibdom.ru/arenda/sdam/emelyanovskijj_rajjon/veterok_soloncy/dom/",
    "https://www.sibdom.ru/doma/prodam/emelyanovskijj_rajjon/vechernicy/",
    "https://www.sibdom.ru/dachi/prodam/emelyanovskijj_rajjon/vechernicy/",
    "https://www.sibdom.ru/arenda/sdam/emelyanovskijj_rajjon/vechernicy/dom/",
    "https://www.sibdom.ru/doma/prodam/emelyanovskijj_rajjon/viktoriya_pridorozhnyjj/",
    "https://www.sibdom.ru/dachi/prodam/emelyanovskijj_rajjon/viktoriya_pridorozhnyjj/",
    "https://www.sibdom.ru/arenda/sdam/emelyanovskijj_rajjon/viktoriya_pridorozhnyjj/dom/",
    "https://www.sibdom.ru/doma/prodam/emelyanovskijj_rajjon/viktoriya/",
    "https://www.sibdom.ru/dachi/prodam/emelyanovskijj_rajjon/viktoriya/",
    "https://www.sibdom.ru/arenda/sdam/emelyanovskijj_rajjon/viktoriya/dom/",
    "https://www.sibdom.ru/doma/prodam/emelyanovskijj_rajjon/vodorazdel/",
    "https://www.sibdom.ru/dachi/prodam/emelyanovskijj_rajjon/vodorazdel/",
    "https://www.sibdom.ru/arenda/sdam/emelyanovskijj_rajjon/vodorazdel/dom/",
    "https://www.sibdom.ru/doma/prodam/emelyanovskijj_rajjon/voennyjj_agrarijj/",
    "https://www.sibdom.ru/dachi/prodam/emelyanovskijj_rajjon/voennyjj_agrarijj/",
    "https://www.sibdom.ru/arenda/sdam/emelyanovskijj_rajjon/voennyjj_agrarijj/dom/",
    "https://www.sibdom.ru/doma/prodam/berezovskijj_rajjon/voznesenka-37754/",
    "https://www.sibdom.ru/dachi/prodam/berezovskijj_rajjon/voznesenka-37754/",
    "https://www.sibdom.ru/arenda/sdam/berezovskijj_rajjon/voznesenka-37754/dom/",
    "https://www.sibdom.ru/doma/prodam/berezovskijj_rajjon/vostok-48791/",
    "https://www.sibdom.ru/dachi/prodam/berezovskijj_rajjon/vostok-48791/",
    "https://www.sibdom.ru/arenda/sdam/berezovskijj_rajjon/vostok-48791/dom/",
    "https://www.sibdom.ru/doma/prodam/emelyanovskijj_rajjon/vremena_goda_kottedzhnyjj_poselok/",
    "https://www.sibdom.ru/dachi/prodam/emelyanovskijj_rajjon/vremena_goda_kottedzhnyjj_poselok/",
    "https://www.sibdom.ru/arenda/sdam/emelyanovskijj_rajjon/vremena_goda_kottedzhnyjj_poselok/dom/",
    "https://www.sibdom.ru/doma/prodam/emelyanovskijj_rajjon/garevoe/",
    "https://www.sibdom.ru/dachi/prodam/emelyanovskijj_rajjon/garevoe/",
    "https://www.sibdom.ru/arenda/sdam/emelyanovskijj_rajjon/garevoe/dom/",
    "https://www.sibdom.ru/doma/prodam/emelyanovskijj_rajjon/geocint/",
    "https://www.sibdom.ru/dachi/prodam/emelyanovskijj_rajjon/geocint/",
    "https://www.sibdom.ru/arenda/sdam/emelyanovskijj_rajjon/geocint/dom/",
    "https://www.sibdom.ru/doma/prodam/emelyanovskijj_rajjon/gladkoe/",
    "https://www.sibdom.ru/dachi/prodam/emelyanovskijj_rajjon/gladkoe/",
    "https://www.sibdom.ru/arenda/sdam/emelyanovskijj_rajjon/gladkoe/dom/",
    "https://www.sibdom.ru/doma/prodam/emelyanovskijj_rajjon/glyaden-37800/",
    "https://www.sibdom.ru/dachi/prodam/emelyanovskijj_rajjon/glyaden-37800/",
    "https://www.sibdom.ru/arenda/sdam/emelyanovskijj_rajjon/glyaden-37800/dom/",
    "https://www.sibdom.ru/doma/prodam/achinskijj_rajjon/gornyjj/",
    "https://www.sibdom.ru/dachi/prodam/achinskijj_rajjon/gornyjj/",
    "https://www.sibdom.ru/arenda/sdam/achinskijj_rajjon/gornyjj/dom/",
    "https://www.sibdom.ru/doma/prodam/uyarskijj_rajjon/gromadsk/",
    "https://www.sibdom.ru/dachi/prodam/uyarskijj_rajjon/gromadsk/",
    "https://www.sibdom.ru/arenda/sdam/uyarskijj_rajjon/gromadsk/dom/",
    "https://www.sibdom.ru/doma/prodam/emelyanovskijj_rajjon/dnt_lesnaya_skazka/",
    "https://www.sibdom.ru/dachi/prodam/emelyanovskijj_rajjon/dnt_lesnaya_skazka/",
    "https://www.sibdom.ru/arenda/sdam/emelyanovskijj_rajjon/dnt_lesnaya_skazka/dom/",
    "https://www.sibdom.ru/doma/prodam/balakhtinskijj_rajjon/daurskoe/",
    "https://www.sibdom.ru/dachi/prodam/balakhtinskijj_rajjon/daurskoe/",
    "https://www.sibdom.ru/arenda/sdam/balakhtinskijj_rajjon/daurskoe/dom/",
    "https://www.sibdom.ru/doma/prodam/emelyanovskijj_rajjon/dva_ruchya_dnt/",
    "https://www.sibdom.ru/dachi/prodam/emelyanovskijj_rajjon/dva_ruchya_dnt/",
    "https://www.sibdom.ru/arenda/sdam/emelyanovskijj_rajjon/dva_ruchya_dnt/dom/",
    "https://www.sibdom.ru/doma/prodam/divnogorsk/",
    "https://www.sibdom.ru/dachi/prodam/divnogorsk/",
    "https://www.sibdom.ru/arenda/sdam/divnogorsk/dom/",
    "https://www.sibdom.ru/doma/prodam/emelyanovskijj_rajjon/dolina_kalyagino/",
    "https://www.sibdom.ru/dachi/prodam/emelyanovskijj_rajjon/dolina_kalyagino/",
    "https://www.sibdom.ru/arenda/sdam/emelyanovskijj_rajjon/dolina_kalyagino/dom/",
    "https://www.sibdom.ru/doma/prodam/emelyanovskijj_rajjon/dorozhnik_pugachevo/",
    "https://www.sibdom.ru/dachi/prodam/emelyanovskijj_rajjon/dorozhnik_pugachevo/",
    "https://www.sibdom.ru/arenda/sdam/emelyanovskijj_rajjon/dorozhnik_pugachevo/dom/",
    "https://www.sibdom.ru/doma/prodam/emelyanovskijj_rajjon/drokino/",
    "https://www.sibdom.ru/dachi/prodam/emelyanovskijj_rajjon/drokino/",
    "https://www.sibdom.ru/arenda/sdam/emelyanovskijj_rajjon/drokino/dom/",
    "https://www.sibdom.ru/doma/prodam/emelyanovskijj_rajjon/elovaya/",
    "https://www.sibdom.ru/dachi/prodam/emelyanovskijj_rajjon/elovaya/",
    "https://www.sibdom.ru/arenda/sdam/emelyanovskijj_rajjon/elovaya/dom/",
    "https://www.sibdom.ru/doma/prodam/emelyanovskijj_rajjon/elovka_stanciya/",
    "https://www.sibdom.ru/dachi/prodam/emelyanovskijj_rajjon/elovka_stanciya/",
    "https://www.sibdom.ru/arenda/sdam/emelyanovskijj_rajjon/elovka_stanciya/dom/",
    "https://www.sibdom.ru/doma/prodam/emelyanovskijj_rajjon/elovoe/",
    "https://www.sibdom.ru/dachi/prodam/emelyanovskijj_rajjon/elovoe/",
    "https://www.sibdom.ru/arenda/sdam/emelyanovskijj_rajjon/elovoe/dom/",
    "https://www.sibdom.ru/doma/prodam/emelyanovskijj_rajjon/emelyanovo-1/",
    "https://www.sibdom.ru/dachi/prodam/emelyanovskijj_rajjon/emelyanovo-1/",
    "https://www.sibdom.ru/arenda/sdam/emelyanovskijj_rajjon/emelyanovo-1/dom/",
    "https://www.sibdom.ru/doma/prodam/emelyanovskijj_rajjon/emelyanovo/",
    "https://www.sibdom.ru/dachi/prodam/emelyanovskijj_rajjon/emelyanovo/",
    "https://www.sibdom.ru/arenda/sdam/emelyanovskijj_rajjon/emelyanovo/dom/",
    "https://www.sibdom.ru/doma/prodam/emelyanovskijj_rajjon/emelyanovskijj_posad_kottedzhnyjj_poselok/",
    "https://www.sibdom.ru/dachi/prodam/emelyanovskijj_rajjon/emelyanovskijj_posad_kottedzhnyjj_poselok/",
    "https://www.sibdom.ru/arenda/sdam/emelyanovskijj_rajjon/emelyanovskijj_posad_kottedzhnyjj_poselok/dom/",
    "https://www.sibdom.ru/doma/prodam/berezovskijj_rajjon/enisejj-49137/",
    "https://www.sibdom.ru/dachi/prodam/berezovskijj_rajjon/enisejj-49137/",
    "https://www.sibdom.ru/arenda/sdam/berezovskijj_rajjon/enisejj-49137/dom/",
    "https://www.sibdom.ru/doma/prodam/emelyanovskijj_rajjon/enisejj-49138/",
    "https://www.sibdom.ru/dachi/prodam/emelyanovskijj_rajjon/enisejj-49138/",
    "https://www.sibdom.ru/arenda/sdam/emelyanovskijj_rajjon/enisejj-49138/dom/",
    "https://www.sibdom.ru/doma/prodam/enisejjsk/",
    "https://www.sibdom.ru/dachi/prodam/enisejjsk/",
    "https://www.sibdom.ru/arenda/sdam/enisejjsk/dom/",
    "https://www.sibdom.ru/doma/prodam/ermakovskijj_rajjon/ermakovskoe/",
    "https://www.sibdom.ru/dachi/prodam/ermakovskijj_rajjon/ermakovskoe/",
    "https://www.sibdom.ru/arenda/sdam/ermakovskijj_rajjon/ermakovskoe/dom/",
    "https://www.sibdom.ru/doma/prodam/berezovskijj_rajjon/ermolaevo/",
    "https://www.sibdom.ru/dachi/prodam/berezovskijj_rajjon/ermolaevo/",
    "https://www.sibdom.ru/arenda/sdam/berezovskijj_rajjon/ermolaevo/dom/",
    "https://www.sibdom.ru/doma/prodam/berezovskijj_rajjon/ermolaevskijj_zaton/",
    "https://www.sibdom.ru/dachi/prodam/berezovskijj_rajjon/ermolaevskijj_zaton/",
    "https://www.sibdom.ru/arenda/sdam/berezovskijj_rajjon/ermolaevskijj_zaton/dom/",
    "https://www.sibdom.ru/doma/prodam/berezovskijj_rajjon/esaulovka/",
    "https://www.sibdom.ru/dachi/prodam/berezovskijj_rajjon/esaulovka/",
    "https://www.sibdom.ru/arenda/sdam/berezovskijj_rajjon/esaulovka/dom/",
    "https://www.sibdom.ru/doma/prodam/berezovskijj_rajjon/esaulovo/",
    "https://www.sibdom.ru/dachi/prodam/berezovskijj_rajjon/esaulovo/",
    "https://www.sibdom.ru/arenda/sdam/berezovskijj_rajjon/esaulovo/dom/",
    "https://www.sibdom.ru/doma/prodam/berezovskijj_rajjon/esaulskijj_bor_dnt/",
    "https://www.sibdom.ru/dachi/prodam/berezovskijj_rajjon/esaulskijj_bor_dnt/",
    "https://www.sibdom.ru/arenda/sdam/berezovskijj_rajjon/esaulskijj_bor_dnt/dom/",
    "https://www.sibdom.ru/doma/prodam/berezovskijj_rajjon/zharki_2/",
    "https://www.sibdom.ru/dachi/prodam/berezovskijj_rajjon/zharki_2/",
    "https://www.sibdom.ru/arenda/sdam/berezovskijj_rajjon/zharki_2/dom/",
    "https://www.sibdom.ru/doma/prodam/zheleznogorsk/",
    "https://www.sibdom.ru/dachi/prodam/zheleznogorsk/",
    "https://www.sibdom.ru/arenda/sdam/zheleznogorsk/dom/",
    "https://www.sibdom.ru/doma/prodam/emelyanovskijj_rajjon/zhemchug/",
    "https://www.sibdom.ru/dachi/prodam/emelyanovskijj_rajjon/zhemchug/",
    "https://www.sibdom.ru/arenda/sdam/emelyanovskijj_rajjon/zhemchug/dom/",
    "https://www.sibdom.ru/doma/prodam/berezovskijj_rajjon/zagore-49240/",
    "https://www.sibdom.ru/dachi/prodam/berezovskijj_rajjon/zagore-49240/",
    "https://www.sibdom.ru/arenda/sdam/berezovskijj_rajjon/zagore-49240/dom/",
    "https://www.sibdom.ru/doma/prodam/emelyanovskijj_rajjon/zaimka_minino/",
    "https://www.sibdom.ru/dachi/prodam/emelyanovskijj_rajjon/zaimka_minino/",
    "https://www.sibdom.ru/arenda/sdam/emelyanovskijj_rajjon/zaimka_minino/dom/",
    "https://www.sibdom.ru/doma/prodam/emelyanovskijj_rajjon/zaimka-1_minino/",
    "https://www.sibdom.ru/dachi/prodam/emelyanovskijj_rajjon/zaimka-1_minino/",
    "https://www.sibdom.ru/arenda/sdam/emelyanovskijj_rajjon/zaimka-1_minino/dom/",
    "https://www.sibdom.ru/doma/prodam/boguchanskijj_rajjon/zaimka/",
    "https://www.sibdom.ru/dachi/prodam/boguchanskijj_rajjon/zaimka/",
    "https://www.sibdom.ru/arenda/sdam/boguchanskijj_rajjon/zaimka/dom/",
    "https://www.sibdom.ru/doma/prodam/emelyanovskijj_rajjon/zamyatino/",
    "https://www.sibdom.ru/dachi/prodam/emelyanovskijj_rajjon/zamyatino/",
    "https://www.sibdom.ru/arenda/sdam/emelyanovskijj_rajjon/zamyatino/dom/",
    "https://www.sibdom.ru/doma/prodam/zaozernyjj/",
    "https://www.sibdom.ru/dachi/prodam/zaozernyjj/",
    "https://www.sibdom.ru/arenda/sdam/zaozernyjj/dom/",
    "https://www.sibdom.ru/doma/prodam/partizanskijj_rajjon/zapasnojj_imbezh/",
    "https://www.sibdom.ru/dachi/prodam/partizanskijj_rajjon/zapasnojj_imbezh/",
    "https://www.sibdom.ru/arenda/sdam/partizanskijj_rajjon/zapasnojj_imbezh/dom/",
    "https://www.sibdom.ru/doma/prodam/berezovskijj_rajjon/zapovednyjj_log_dnt/",
    "https://www.sibdom.ru/dachi/prodam/berezovskijj_rajjon/zapovednyjj_log_dnt/",
    "https://www.sibdom.ru/arenda/sdam/berezovskijj_rajjon/zapovednyjj_log_dnt/dom/",
    "https://www.sibdom.ru/doma/prodam/emelyanovskijj_rajjon/zareche-49278/",
    "https://www.sibdom.ru/dachi/prodam/emelyanovskijj_rajjon/zareche-49278/",
    "https://www.sibdom.ru/arenda/sdam/emelyanovskijj_rajjon/zareche-49278/dom/",
    "https://www.sibdom.ru/doma/prodam/zelenogorsk/",
    "https://www.sibdom.ru/dachi/prodam/zelenogorsk/",
    "https://www.sibdom.ru/arenda/sdam/zelenogorsk/dom/",
    "https://www.sibdom.ru/doma/prodam/berezovskijj_rajjon/zykovo_stanciya/",
    "https://www.sibdom.ru/dachi/prodam/berezovskijj_rajjon/zykovo_stanciya/",
    "https://www.sibdom.ru/arenda/sdam/berezovskijj_rajjon/zykovo_stanciya/dom/",
    "https://www.sibdom.ru/doma/prodam/berezovskijj_rajjon/zykovo/",
    "https://www.sibdom.ru/dachi/prodam/berezovskijj_rajjon/zykovo/",
    "https://www.sibdom.ru/arenda/sdam/berezovskijj_rajjon/zykovo/dom/",
    "https://www.sibdom.ru/doma/prodam/manskijj_rajjon/individualnye_sadovye_uch-ki_krasnoyarska/",
    "https://www.sibdom.ru/dachi/prodam/manskijj_rajjon/individualnye_sadovye_uch-ki_krasnoyarska/",
    "https://www.sibdom.ru/arenda/sdam/manskijj_rajjon/individualnye_sadovye_uch-ki_krasnoyarska/dom/",
    "https://www.sibdom.ru/doma/prodam/irbejjskijj_rajjon/irbejjskoe/",
    "https://www.sibdom.ru/dachi/prodam/irbejjskijj_rajjon/irbejjskoe/",
    "https://www.sibdom.ru/arenda/sdam/irbejjskijj_rajjon/irbejjskoe/dom/",
    "https://www.sibdom.ru/doma/prodam/sukhobuzimskijj_rajjon/irkutskoe/",
    "https://www.sibdom.ru/dachi/prodam/sukhobuzimskijj_rajjon/irkutskoe/",
    "https://www.sibdom.ru/arenda/sdam/sukhobuzimskijj_rajjon/irkutskoe/dom/",
    "https://www.sibdom.ru/doma/prodam/sukhobuzimskijj_rajjon/istok/",
    "https://www.sibdom.ru/dachi/prodam/sukhobuzimskijj_rajjon/istok/",
    "https://www.sibdom.ru/arenda/sdam/sukhobuzimskijj_rajjon/istok/dom/",
    "https://www.sibdom.ru/doma/prodam/emelyanovskijj_rajjon/kalyagino_kalyagino/",
    "https://www.sibdom.ru/dachi/prodam/emelyanovskijj_rajjon/kalyagino_kalyagino/",
    "https://www.sibdom.ru/arenda/sdam/emelyanovskijj_rajjon/kalyagino_kalyagino/dom/",
    "https://www.sibdom.ru/doma/prodam/manskijj_rajjon/kamarchaga/",
    "https://www.sibdom.ru/dachi/prodam/manskijj_rajjon/kamarchaga/",
    "https://www.sibdom.ru/arenda/sdam/manskijj_rajjon/kamarchaga/dom/",
    "https://www.sibdom.ru/doma/prodam/uyarskijj_rajjon/kamenno-gornovka/",
    "https://www.sibdom.ru/dachi/prodam/uyarskijj_rajjon/kamenno-gornovka/",
    "https://www.sibdom.ru/arenda/sdam/uyarskijj_rajjon/kamenno-gornovka/dom/",
    "https://www.sibdom.ru/doma/prodam/emelyanovskijj_rajjon/kamennyjj_yar/",
    "https://www.sibdom.ru/dachi/prodam/emelyanovskijj_rajjon/kamennyjj_yar/",
    "https://www.sibdom.ru/arenda/sdam/emelyanovskijj_rajjon/kamennyjj_yar/dom/",
    "https://www.sibdom.ru/doma/prodam/kansk/",
    "https://www.sibdom.ru/dachi/prodam/kansk/",
    "https://www.sibdom.ru/arenda/sdam/kansk/dom/",
    "https://www.sibdom.ru/doma/prodam/shushenskijj_rajjon/kaptyrevo/",
    "https://www.sibdom.ru/dachi/prodam/shushenskijj_rajjon/kaptyrevo/",
    "https://www.sibdom.ru/arenda/sdam/shushenskijj_rajjon/kaptyrevo/dom/",
    "https://www.sibdom.ru/doma/prodam/emelyanovskijj_rajjon/karaulnaya_dacha/",
    "https://www.sibdom.ru/dachi/prodam/emelyanovskijj_rajjon/karaulnaya_dacha/",
    "https://www.sibdom.ru/arenda/sdam/emelyanovskijj_rajjon/karaulnaya_dacha/dom/",
    "https://www.sibdom.ru/doma/prodam/emelyanovskijj_rajjon/kacha/",
    "https://www.sibdom.ru/dachi/prodam/emelyanovskijj_rajjon/kacha/",
    "https://www.sibdom.ru/arenda/sdam/emelyanovskijj_rajjon/kacha/dom/",
    "https://www.sibdom.ru/doma/prodam/kedrovyjj/",
    "https://www.sibdom.ru/dachi/prodam/kedrovyjj/",
    "https://www.sibdom.ru/arenda/sdam/kedrovyjj/dom/",
    "https://www.sibdom.ru/doma/prodam/berezovskijj_rajjon/kindyakovo/",
    "https://www.sibdom.ru/dachi/prodam/berezovskijj_rajjon/kindyakovo/",
    "https://www.sibdom.ru/arenda/sdam/berezovskijj_rajjon/kindyakovo/dom/",
    "https://www.sibdom.ru/doma/prodam/sukhobuzimskijj_rajjon/kovrigino/",
    "https://www.sibdom.ru/dachi/prodam/sukhobuzimskijj_rajjon/kovrigino/",
    "https://www.sibdom.ru/arenda/sdam/sukhobuzimskijj_rajjon/kovrigino/dom/",
    "https://www.sibdom.ru/doma/prodam/kezhemskijj_rajjon/kodinsk/",
    "https://www.sibdom.ru/dachi/prodam/kezhemskijj_rajjon/kodinsk/",
    "https://www.sibdom.ru/arenda/sdam/kezhemskijj_rajjon/kodinsk/dom/",
    "https://www.sibdom.ru/doma/prodam/balakhtinskijj_rajjon/kozhany/",
    "https://www.sibdom.ru/dachi/prodam/balakhtinskijj_rajjon/kozhany/",
    "https://www.sibdom.ru/arenda/sdam/balakhtinskijj_rajjon/kozhany/dom/",
    "https://www.sibdom.ru/doma/prodam/kozulskijj_rajjon/kozulka/",
    "https://www.sibdom.ru/dachi/prodam/kozulskijj_rajjon/kozulka/",
    "https://www.sibdom.ru/arenda/sdam/kozulskijj_rajjon/kozulka/dom/",
    "https://www.sibdom.ru/doma/prodam/minusinskijj_rajjon/kolmakovo/",
    "https://www.sibdom.ru/dachi/prodam/minusinskijj_rajjon/kolmakovo/",
    "https://www.sibdom.ru/arenda/sdam/minusinskijj_rajjon/kolmakovo/dom/",
    "https://www.sibdom.ru/doma/prodam/emelyanovskijj_rajjon/kolos-3/",
    "https://www.sibdom.ru/dachi/prodam/emelyanovskijj_rajjon/kolos-3/",
    "https://www.sibdom.ru/arenda/sdam/emelyanovskijj_rajjon/kolos-3/dom/",
    "https://www.sibdom.ru/doma/prodam/emelyanovskijj_rajjon/kolyagino_stanciya/",
    "https://www.sibdom.ru/dachi/prodam/emelyanovskijj_rajjon/kolyagino_stanciya/",
    "https://www.sibdom.ru/arenda/sdam/emelyanovskijj_rajjon/kolyagino_stanciya/dom/",
    "https://www.sibdom.ru/doma/prodam/emelyanovskijj_rajjon/kommunar_trostencovo/",
    "https://www.sibdom.ru/dachi/prodam/emelyanovskijj_rajjon/kommunar_trostencovo/",
    "https://www.sibdom.ru/arenda/sdam/emelyanovskijj_rajjon/kommunar_trostencovo/dom/",
    "https://www.sibdom.ru/doma/prodam/sukhobuzimskijj_rajjon/kononovo/",
    "https://www.sibdom.ru/dachi/prodam/sukhobuzimskijj_rajjon/kononovo/",
    "https://www.sibdom.ru/arenda/sdam/sukhobuzimskijj_rajjon/kononovo/dom/",
    "https://www.sibdom.ru/doma/prodam/emelyanovskijj_rajjon/kooperator-49645/",
    "https://www.sibdom.ru/dachi/prodam/emelyanovskijj_rajjon/kooperator-49645/",
    "https://www.sibdom.ru/arenda/sdam/emelyanovskijj_rajjon/kooperator-49645/dom/",
    "https://www.sibdom.ru/doma/prodam/emelyanovskijj_rajjon/krasnoe_znamya/",
    "https://www.sibdom.ru/dachi/prodam/emelyanovskijj_rajjon/krasnoe_znamya/",
    "https://www.sibdom.ru/arenda/sdam/emelyanovskijj_rajjon/krasnoe_znamya/dom/",
    "https://www.sibdom.ru/doma/prodam/krasnoyarsk/",
    "https://www.sibdom.ru/dachi/prodam/krasnoyarsk/",
    "https://www.sibdom.ru/arenda/sdam/krasnoyarsk/dom/",
    "https://www.sibdom.ru/doma/prodam/emelyanovskijj_rajjon/krasnyjj_pakhar/",
    "https://www.sibdom.ru/dachi/prodam/emelyanovskijj_rajjon/krasnyjj_pakhar/",
    "https://www.sibdom.ru/arenda/sdam/emelyanovskijj_rajjon/krasnyjj_pakhar/dom/",
    "https://www.sibdom.ru/doma/prodam/emelyanovskijj_rajjon/krona_arejjskoe/",
    "https://www.sibdom.ru/dachi/prodam/emelyanovskijj_rajjon/krona_arejjskoe/",
    "https://www.sibdom.ru/arenda/sdam/emelyanovskijj_rajjon/krona_arejjskoe/dom/",
    "https://www.sibdom.ru/doma/prodam/emelyanovskijj_rajjon/krutaya/",
    "https://www.sibdom.ru/dachi/prodam/emelyanovskijj_rajjon/krutaya/",
    "https://www.sibdom.ru/arenda/sdam/emelyanovskijj_rajjon/krutaya/dom/",
    "https://www.sibdom.ru/doma/prodam/emelyanovskijj_rajjon/kubekovo/",
    "https://www.sibdom.ru/dachi/prodam/emelyanovskijj_rajjon/kubekovo/",
    "https://www.sibdom.ru/arenda/sdam/emelyanovskijj_rajjon/kubekovo/dom/",
    "https://www.sibdom.ru/doma/prodam/emelyanovskijj_rajjon/kuvarshino/",
    "https://www.sibdom.ru/dachi/prodam/emelyanovskijj_rajjon/kuvarshino/",
    "https://www.sibdom.ru/arenda/sdam/emelyanovskijj_rajjon/kuvarshino/dom/",
    "https://www.sibdom.ru/doma/prodam/berezovskijj_rajjon/kuznecovo/",
    "https://www.sibdom.ru/dachi/prodam/berezovskijj_rajjon/kuznecovo/",
    "https://www.sibdom.ru/arenda/sdam/berezovskijj_rajjon/kuznecovo/dom/",
    "https://www.sibdom.ru/doma/prodam/kuraginskijj_rajjon/kuragino/",
    "https://www.sibdom.ru/dachi/prodam/kuraginskijj_rajjon/kuragino/",
    "https://www.sibdom.ru/arenda/sdam/kuraginskijj_rajjon/kuragino/dom/",
    "https://www.sibdom.ru/doma/prodam/manskijj_rajjon/kuskun/",
    "https://www.sibdom.ru/dachi/prodam/manskijj_rajjon/kuskun/",
    "https://www.sibdom.ru/arenda/sdam/manskijj_rajjon/kuskun/dom/",
    "https://www.sibdom.ru/doma/prodam/emelyanovskijj_rajjon/lesnik/",
    "https://www.sibdom.ru/dachi/prodam/emelyanovskijj_rajjon/lesnik/",
    "https://www.sibdom.ru/arenda/sdam/emelyanovskijj_rajjon/lesnik/dom/",
    "https://www.sibdom.ru/doma/prodam/emelyanovskijj_rajjon/lesnoe_zagorodnyjj_poselok/",
    "https://www.sibdom.ru/dachi/prodam/emelyanovskijj_rajjon/lesnoe_zagorodnyjj_poselok/",
    "https://www.sibdom.ru/arenda/sdam/emelyanovskijj_rajjon/lesnoe_zagorodnyjj_poselok/dom/",
    "https://www.sibdom.ru/doma/prodam/lesosibirsk/",
    "https://www.sibdom.ru/dachi/prodam/lesosibirsk/",
    "https://www.sibdom.ru/arenda/sdam/lesosibirsk/dom/",
    "https://www.sibdom.ru/doma/prodam/emelyanovskijj_rajjon/listopad/",
    "https://www.sibdom.ru/dachi/prodam/emelyanovskijj_rajjon/listopad/",
    "https://www.sibdom.ru/arenda/sdam/emelyanovskijj_rajjon/listopad/dom/",
    "https://www.sibdom.ru/doma/prodam/emelyanovskijj_rajjon/logovojj/",
    "https://www.sibdom.ru/dachi/prodam/emelyanovskijj_rajjon/logovojj/",
    "https://www.sibdom.ru/arenda/sdam/emelyanovskijj_rajjon/logovojj/dom/",
    "https://www.sibdom.ru/doma/prodam/berezovskijj_rajjon/lopatino/",
    "https://www.sibdom.ru/dachi/prodam/berezovskijj_rajjon/lopatino/",
    "https://www.sibdom.ru/arenda/sdam/berezovskijj_rajjon/lopatino/dom/",
    "https://www.sibdom.ru/doma/prodam/berezovskijj_rajjon/lukino/",
    "https://www.sibdom.ru/dachi/prodam/berezovskijj_rajjon/lukino/",
    "https://www.sibdom.ru/arenda/sdam/berezovskijj_rajjon/lukino/dom/",
    "https://www.sibdom.ru/doma/prodam/emelyanovskijj_rajjon/luch_sukhaya_balka/",
    "https://www.sibdom.ru/dachi/prodam/emelyanovskijj_rajjon/luch_sukhaya_balka/",
    "https://www.sibdom.ru/arenda/sdam/emelyanovskijj_rajjon/luch_sukhaya_balka/dom/",
    "https://www.sibdom.ru/doma/prodam/berezovskijj_rajjon/magansk/",
    "https://www.sibdom.ru/dachi/prodam/berezovskijj_rajjon/magansk/",
    "https://www.sibdom.ru/arenda/sdam/berezovskijj_rajjon/magansk/dom/",
    "https://www.sibdom.ru/doma/prodam/berezovskijj_rajjon/maganskaya_stanciya/",
    "https://www.sibdom.ru/dachi/prodam/berezovskijj_rajjon/maganskaya_stanciya/",
    "https://www.sibdom.ru/arenda/sdam/berezovskijj_rajjon/maganskaya_stanciya/dom/",
    "https://www.sibdom.ru/doma/prodam/berezovskijj_rajjon/maganskoe_podsobnoe_kh-vo/",
    "https://www.sibdom.ru/dachi/prodam/berezovskijj_rajjon/maganskoe_podsobnoe_kh-vo/",
    "https://www.sibdom.ru/arenda/sdam/berezovskijj_rajjon/maganskoe_podsobnoe_kh-vo/dom/",
    "https://www.sibdom.ru/doma/prodam/emelyanovskijj_rajjon/magistral-49918/",
    "https://www.sibdom.ru/dachi/prodam/emelyanovskijj_rajjon/magistral-49918/",
    "https://www.sibdom.ru/arenda/sdam/emelyanovskijj_rajjon/magistral-49918/dom/",
    "https://www.sibdom.ru/doma/prodam/emelyanovskijj_rajjon/malaya_elovaya/",
    "https://www.sibdom.ru/dachi/prodam/emelyanovskijj_rajjon/malaya_elovaya/",
    "https://www.sibdom.ru/arenda/sdam/emelyanovskijj_rajjon/malaya_elovaya/dom/",
    "https://www.sibdom.ru/doma/prodam/manskijj_rajjon/malaya_kamarchaga/",
    "https://www.sibdom.ru/dachi/prodam/manskijj_rajjon/malaya_kamarchaga/",
    "https://www.sibdom.ru/arenda/sdam/manskijj_rajjon/malaya_kamarchaga/dom/",
    "https://www.sibdom.ru/doma/prodam/berezovskijj_rajjon/malaya_kuskunka/",
    "https://www.sibdom.ru/dachi/prodam/berezovskijj_rajjon/malaya_kuskunka/",
    "https://www.sibdom.ru/arenda/sdam/berezovskijj_rajjon/malaya_kuskunka/dom/",
    "https://www.sibdom.ru/doma/prodam/sukhobuzimskijj_rajjon/malinovka-38308/",
    "https://www.sibdom.ru/dachi/prodam/sukhobuzimskijj_rajjon/malinovka-38308/",
    "https://www.sibdom.ru/arenda/sdam/sukhobuzimskijj_rajjon/malinovka-38308/dom/",
    "https://www.sibdom.ru/doma/prodam/sukhobuzimskijj_rajjon/maloe_nakhvalskoe/",
    "https://www.sibdom.ru/dachi/prodam/sukhobuzimskijj_rajjon/maloe_nakhvalskoe/",
    "https://www.sibdom.ru/arenda/sdam/sukhobuzimskijj_rajjon/maloe_nakhvalskoe/dom/",
    "https://www.sibdom.ru/doma/prodam/emelyanovskijj_rajjon/malyjj_kemchug/",
    "https://www.sibdom.ru/dachi/prodam/emelyanovskijj_rajjon/malyjj_kemchug/",
    "https://www.sibdom.ru/arenda/sdam/emelyanovskijj_rajjon/malyjj_kemchug/dom/",
    "https://www.sibdom.ru/doma/prodam/manskijj/",
    "https://www.sibdom.ru/dachi/prodam/manskijj/",
    "https://www.sibdom.ru/arenda/sdam/manskijj/dom/",
    "https://www.sibdom.ru/doma/prodam/berezovskijj_rajjon/mayak_5/",
    "https://www.sibdom.ru/dachi/prodam/berezovskijj_rajjon/mayak_5/",
    "https://www.sibdom.ru/arenda/sdam/berezovskijj_rajjon/mayak_5/dom/",
    "https://www.sibdom.ru/doma/prodam/bolshemurtinskijj_rajjon/mezhovo-38352/",
    "https://www.sibdom.ru/dachi/prodam/bolshemurtinskijj_rajjon/mezhovo-38352/",
    "https://www.sibdom.ru/arenda/sdam/bolshemurtinskijj_rajjon/mezhovo-38352/dom/",
    "https://www.sibdom.ru/doma/prodam/emelyanovskijj_rajjon/meliorator-50084/",
    "https://www.sibdom.ru/dachi/prodam/emelyanovskijj_rajjon/meliorator-50084/",
    "https://www.sibdom.ru/arenda/sdam/emelyanovskijj_rajjon/meliorator-50084/dom/",
    "https://www.sibdom.ru/doma/prodam/sukhobuzimskijj_rajjon/minderla/",
    "https://www.sibdom.ru/dachi/prodam/sukhobuzimskijj_rajjon/minderla/",
    "https://www.sibdom.ru/arenda/sdam/sukhobuzimskijj_rajjon/minderla/dom/",
    "https://www.sibdom.ru/doma/prodam/emelyanovskijj_rajjon/minzhul/",
    "https://www.sibdom.ru/dachi/prodam/emelyanovskijj_rajjon/minzhul/",
    "https://www.sibdom.ru/arenda/sdam/emelyanovskijj_rajjon/minzhul/dom/",
    "https://www.sibdom.ru/doma/prodam/emelyanovskijj_rajjon/minino_stanciya/",
    "https://www.sibdom.ru/dachi/prodam/emelyanovskijj_rajjon/minino_stanciya/",
    "https://www.sibdom.ru/arenda/sdam/emelyanovskijj_rajjon/minino_stanciya/dom/",
    "https://www.sibdom.ru/doma/prodam/emelyanovskijj_rajjon/minino/",
    "https://www.sibdom.ru/dachi/prodam/emelyanovskijj_rajjon/minino/",
    "https://www.sibdom.ru/arenda/sdam/emelyanovskijj_rajjon/minino/dom/",
    "https://www.sibdom.ru/doma/prodam/emelyanovskijj_rajjon/minino-38366/",
    "https://www.sibdom.ru/dachi/prodam/emelyanovskijj_rajjon/minino-38366/",
    "https://www.sibdom.ru/arenda/sdam/emelyanovskijj_rajjon/minino-38366/dom/",
    "https://www.sibdom.ru/doma/prodam/minusinsk/",
    "https://www.sibdom.ru/dachi/prodam/minusinsk/",
    "https://www.sibdom.ru/arenda/sdam/minusinsk/dom/",
    "https://www.sibdom.ru/doma/prodam/berezovskijj_rajjon/michurinec/",
    "https://www.sibdom.ru/dachi/prodam/berezovskijj_rajjon/michurinec/",
    "https://www.sibdom.ru/arenda/sdam/berezovskijj_rajjon/michurinec/dom/",
    "https://www.sibdom.ru/doma/prodam/kozulskijj_rajjon/mozharskijj/",
    "https://www.sibdom.ru/dachi/prodam/kozulskijj_rajjon/mozharskijj/",
    "https://www.sibdom.ru/arenda/sdam/kozulskijj_rajjon/mozharskijj/dom/",
    "https://www.sibdom.ru/doma/prodam/emelyanovskijj_rajjon/monamur_kottedzhnyjj_poselok/",
    "https://www.sibdom.ru/dachi/prodam/emelyanovskijj_rajjon/monamur_kottedzhnyjj_poselok/",
    "https://www.sibdom.ru/arenda/sdam/emelyanovskijj_rajjon/monamur_kottedzhnyjj_poselok/dom/",
    "https://www.sibdom.ru/doma/prodam/motyginskijj_rajjon/motygino/",
    "https://www.sibdom.ru/dachi/prodam/motyginskijj_rajjon/motygino/",
    "https://www.sibdom.ru/arenda/sdam/motyginskijj_rajjon/motygino/dom/",
    "https://www.sibdom.ru/doma/prodam/emelyanovskijj_rajjon/muzhichkino/",
    "https://www.sibdom.ru/dachi/prodam/emelyanovskijj_rajjon/muzhichkino/",
    "https://www.sibdom.ru/arenda/sdam/emelyanovskijj_rajjon/muzhichkino/dom/",
    "https://www.sibdom.ru/doma/prodam/berezovskijj_rajjon/nadezhda_bychkov_log/",
    "https://www.sibdom.ru/dachi/prodam/berezovskijj_rajjon/nadezhda_bychkov_log/",
    "https://www.sibdom.ru/arenda/sdam/berezovskijj_rajjon/nadezhda_bychkov_log/dom/",
    "https://www.sibdom.ru/doma/prodam/emelyanovskijj_rajjon/nadezhda_sukhaya_balka/",
    "https://www.sibdom.ru/dachi/prodam/emelyanovskijj_rajjon/nadezhda_sukhaya_balka/",
    "https://www.sibdom.ru/arenda/sdam/emelyanovskijj_rajjon/nadezhda_sukhaya_balka/dom/",
    "https://www.sibdom.ru/doma/prodam/emelyanovskijj_rajjon/nadezhda_taskino/",
    "https://www.sibdom.ru/dachi/prodam/emelyanovskijj_rajjon/nadezhda_taskino/",
    "https://www.sibdom.ru/arenda/sdam/emelyanovskijj_rajjon/nadezhda_taskino/dom/",
    "https://www.sibdom.ru/doma/prodam/nazarovo/",
    "https://www.sibdom.ru/dachi/prodam/nazarovo/",
    "https://www.sibdom.ru/arenda/sdam/nazarovo/dom/",
    "https://www.sibdom.ru/doma/prodam/nazarovskijj_rajjon/nazarovo-50162/",
    "https://www.sibdom.ru/dachi/prodam/nazarovskijj_rajjon/nazarovo-50162/",
    "https://www.sibdom.ru/arenda/sdam/nazarovskijj_rajjon/nazarovo-50162/dom/",
    "https://www.sibdom.ru/doma/prodam/emelyanovskijj_rajjon/nanzhul-11/",
    "https://www.sibdom.ru/dachi/prodam/emelyanovskijj_rajjon/nanzhul-11/",
    "https://www.sibdom.ru/arenda/sdam/emelyanovskijj_rajjon/nanzhul-11/dom/",
    "https://www.sibdom.ru/doma/prodam/emelyanovskijj_rajjon/nanzhul-3/",
    "https://www.sibdom.ru/dachi/prodam/emelyanovskijj_rajjon/nanzhul-3/",
    "https://www.sibdom.ru/arenda/sdam/emelyanovskijj_rajjon/nanzhul-3/dom/",
    "https://www.sibdom.ru/doma/prodam/emelyanovskijj_rajjon/nanzhul/",
    "https://www.sibdom.ru/dachi/prodam/emelyanovskijj_rajjon/nanzhul/",
    "https://www.sibdom.ru/arenda/sdam/emelyanovskijj_rajjon/nanzhul/dom/",
    "https://www.sibdom.ru/doma/prodam/manskijj_rajjon/narva/",
    "https://www.sibdom.ru/dachi/prodam/manskijj_rajjon/narva/",
    "https://www.sibdom.ru/arenda/sdam/manskijj_rajjon/narva/dom/",
    "https://www.sibdom.ru/doma/prodam/emelyanovskijj_rajjon/niva_snezhnica/",
    "https://www.sibdom.ru/dachi/prodam/emelyanovskijj_rajjon/niva_snezhnica/",
    "https://www.sibdom.ru/arenda/sdam/emelyanovskijj_rajjon/niva_snezhnica/dom/",
    "https://www.sibdom.ru/doma/prodam/ermakovskijj_rajjon/nizhnijj_suehtuk/",
    "https://www.sibdom.ru/dachi/prodam/ermakovskijj_rajjon/nizhnijj_suehtuk/",
    "https://www.sibdom.ru/arenda/sdam/ermakovskijj_rajjon/nizhnijj_suehtuk/dom/",
    "https://www.sibdom.ru/doma/prodam/emelyanovskijj_rajjon/nikolskoe-38452/",
    "https://www.sibdom.ru/dachi/prodam/emelyanovskijj_rajjon/nikolskoe-38452/",
    "https://www.sibdom.ru/arenda/sdam/emelyanovskijj_rajjon/nikolskoe-38452/dom/",
    "https://www.sibdom.ru/doma/prodam/uyarskijj_rajjon/nikolskoe/",
    "https://www.sibdom.ru/dachi/prodam/uyarskijj_rajjon/nikolskoe/",
    "https://www.sibdom.ru/arenda/sdam/uyarskijj_rajjon/nikolskoe/dom/",
    "https://www.sibdom.ru/doma/prodam/emelyanovskijj_rajjon/novye_raskaty_zagorodnyjj_poselok/",
    "https://www.sibdom.ru/dachi/prodam/emelyanovskijj_rajjon/novye_raskaty_zagorodnyjj_poselok/",
    "https://www.sibdom.ru/arenda/sdam/emelyanovskijj_rajjon/novye_raskaty_zagorodnyjj_poselok/dom/",
    "https://www.sibdom.ru/doma/prodam/norilsk/",
    "https://www.sibdom.ru/dachi/prodam/norilsk/",
    "https://www.sibdom.ru/arenda/sdam/norilsk/dom/",
    "https://www.sibdom.ru/doma/prodam/emelyanovskijj_rajjon/ovinnyjj_stanciya/",
    "https://www.sibdom.ru/dachi/prodam/emelyanovskijj_rajjon/ovinnyjj_stanciya/",
    "https://www.sibdom.ru/arenda/sdam/emelyanovskijj_rajjon/ovinnyjj_stanciya/dom/",
    "https://www.sibdom.ru/doma/prodam/ovinnyjj/",
    "https://www.sibdom.ru/dachi/prodam/ovinnyjj/",
    "https://www.sibdom.ru/arenda/sdam/ovinnyjj/dom/",
    "https://www.sibdom.ru/doma/prodam/ovsyanka/",
    "https://www.sibdom.ru/dachi/prodam/ovsyanka/",
    "https://www.sibdom.ru/arenda/sdam/ovsyanka/dom/",
    "https://www.sibdom.ru/doma/prodam/berezovskijj_rajjon/ozerki_3_dnt/",
    "https://www.sibdom.ru/dachi/prodam/berezovskijj_rajjon/ozerki_3_dnt/",
    "https://www.sibdom.ru/arenda/sdam/berezovskijj_rajjon/ozerki_3_dnt/dom/",
    "https://www.sibdom.ru/doma/prodam/emelyanovskijj_rajjon/otdykh-50289/",
    "https://www.sibdom.ru/dachi/prodam/emelyanovskijj_rajjon/otdykh-50289/",
    "https://www.sibdom.ru/arenda/sdam/emelyanovskijj_rajjon/otdykh-50289/dom/",
    "https://www.sibdom.ru/doma/prodam/manskijj_rajjon/otradnoe/",
    "https://www.sibdom.ru/dachi/prodam/manskijj_rajjon/otradnoe/",
    "https://www.sibdom.ru/arenda/sdam/manskijj_rajjon/otradnoe/dom/",
    "https://www.sibdom.ru/doma/prodam/sukhobuzimskijj_rajjon/pavlovschina/",
    "https://www.sibdom.ru/dachi/prodam/sukhobuzimskijj_rajjon/pavlovschina/",
    "https://www.sibdom.ru/arenda/sdam/sukhobuzimskijj_rajjon/pavlovschina/dom/",
    "https://www.sibdom.ru/doma/prodam/emelyanovskijj_rajjon/palati/",
    "https://www.sibdom.ru/dachi/prodam/emelyanovskijj_rajjon/palati/",
    "https://www.sibdom.ru/arenda/sdam/emelyanovskijj_rajjon/palati/dom/",
    "https://www.sibdom.ru/doma/prodam/emelyanovskijj_rajjon/pamyati_13_borcov/",
    "https://www.sibdom.ru/dachi/prodam/emelyanovskijj_rajjon/pamyati_13_borcov/",
    "https://www.sibdom.ru/arenda/sdam/emelyanovskijj_rajjon/pamyati_13_borcov/dom/",
    "https://www.sibdom.ru/doma/prodam/partizanskijj_rajjon/partizanskoe/",
    "https://www.sibdom.ru/dachi/prodam/partizanskijj_rajjon/partizanskoe/",
    "https://www.sibdom.ru/arenda/sdam/partizanskijj_rajjon/partizanskoe/dom/",
    "https://www.sibdom.ru/doma/prodam/emelyanovskijj_rajjon/pedagog/",
    "https://www.sibdom.ru/dachi/prodam/emelyanovskijj_rajjon/pedagog/",
    "https://www.sibdom.ru/arenda/sdam/emelyanovskijj_rajjon/pedagog/dom/",
    "https://www.sibdom.ru/doma/prodam/manskijj_rajjon/pervomansk/",
    "https://www.sibdom.ru/dachi/prodam/manskijj_rajjon/pervomansk/",
    "https://www.sibdom.ru/arenda/sdam/manskijj_rajjon/pervomansk/dom/",
    "https://www.sibdom.ru/doma/prodam/emelyanovskijj_rajjon/plodovo-yagodnaya_stanciya/",
    "https://www.sibdom.ru/dachi/prodam/emelyanovskijj_rajjon/plodovo-yagodnaya_stanciya/",
    "https://www.sibdom.ru/arenda/sdam/emelyanovskijj_rajjon/plodovo-yagodnaya_stanciya/dom/",
    "https://www.sibdom.ru/doma/prodam/emelyanovskijj_rajjon/ploskoe/",
    "https://www.sibdom.ru/dachi/prodam/emelyanovskijj_rajjon/ploskoe/",
    "https://www.sibdom.ru/arenda/sdam/emelyanovskijj_rajjon/ploskoe/dom/",
    "https://www.sibdom.ru/doma/prodam/emelyanovskijj_rajjon/ploskoe-50346/",
    "https://www.sibdom.ru/dachi/prodam/emelyanovskijj_rajjon/ploskoe-50346/",
    "https://www.sibdom.ru/arenda/sdam/emelyanovskijj_rajjon/ploskoe-50346/dom/",
    "https://www.sibdom.ru/doma/prodam/emelyanovskijj_rajjon/pogorelka/",
    "https://www.sibdom.ru/dachi/prodam/emelyanovskijj_rajjon/pogorelka/",
    "https://www.sibdom.ru/arenda/sdam/emelyanovskijj_rajjon/pogorelka/dom/",
    "https://www.sibdom.ru/doma/prodam/podgornyjj/",
    "https://www.sibdom.ru/dachi/prodam/podgornyjj/",
    "https://www.sibdom.ru/arenda/sdam/podgornyjj/dom/",
    "https://www.sibdom.ru/doma/prodam/emelyanovskijj_rajjon/podolka/",
    "https://www.sibdom.ru/dachi/prodam/emelyanovskijj_rajjon/podolka/",
    "https://www.sibdom.ru/arenda/sdam/emelyanovskijj_rajjon/podolka/dom/",
    "https://www.sibdom.ru/doma/prodam/sukhobuzimskijj_rajjon/podsopki/",
    "https://www.sibdom.ru/dachi/prodam/sukhobuzimskijj_rajjon/podsopki/",
    "https://www.sibdom.ru/arenda/sdam/sukhobuzimskijj_rajjon/podsopki/dom/",
    "https://www.sibdom.ru/doma/prodam/emelyanovskijj_rajjon/pridorozhnyjj/",
    "https://www.sibdom.ru/dachi/prodam/emelyanovskijj_rajjon/pridorozhnyjj/",
    "https://www.sibdom.ru/arenda/sdam/emelyanovskijj_rajjon/pridorozhnyjj/dom/",
    "https://www.sibdom.ru/doma/prodam/balakhtinskijj_rajjon/primorsk/",
    "https://www.sibdom.ru/dachi/prodam/balakhtinskijj_rajjon/primorsk/",
    "https://www.sibdom.ru/arenda/sdam/balakhtinskijj_rajjon/primorsk/dom/",
    "https://www.sibdom.ru/doma/prodam/emelyanovskijj_rajjon/prometejj_arejjskoe/",
    "https://www.sibdom.ru/dachi/prodam/emelyanovskijj_rajjon/prometejj_arejjskoe/",
    "https://www.sibdom.ru/arenda/sdam/emelyanovskijj_rajjon/prometejj_arejjskoe/dom/",
    "https://www.sibdom.ru/doma/prodam/emelyanovskijj_rajjon/pugachevo_stanciya/",
    "https://www.sibdom.ru/dachi/prodam/emelyanovskijj_rajjon/pugachevo_stanciya/",
    "https://www.sibdom.ru/arenda/sdam/emelyanovskijj_rajjon/pugachevo_stanciya/dom/",
    "https://www.sibdom.ru/doma/prodam/emelyanovskijj_rajjon/radio/",
    "https://www.sibdom.ru/dachi/prodam/emelyanovskijj_rajjon/radio/",
    "https://www.sibdom.ru/arenda/sdam/emelyanovskijj_rajjon/radio/dom/",
    "https://www.sibdom.ru/doma/prodam/emelyanovskijj_rajjon/raduga_soloncy/",
    "https://www.sibdom.ru/dachi/prodam/emelyanovskijj_rajjon/raduga_soloncy/",
    "https://www.sibdom.ru/arenda/sdam/emelyanovskijj_rajjon/raduga_soloncy/dom/",
    "https://www.sibdom.ru/doma/prodam/emelyanovskijj_rajjon/raskaty/",
    "https://www.sibdom.ru/dachi/prodam/emelyanovskijj_rajjon/raskaty/",
    "https://www.sibdom.ru/arenda/sdam/emelyanovskijj_rajjon/raskaty/dom/",
    "https://www.sibdom.ru/doma/prodam/sukhobuzimskijj_rajjon/rodnikovyjj/",
    "https://www.sibdom.ru/dachi/prodam/sukhobuzimskijj_rajjon/rodnikovyjj/",
    "https://www.sibdom.ru/arenda/sdam/sukhobuzimskijj_rajjon/rodnikovyjj/dom/",
    "https://www.sibdom.ru/doma/prodam/rucheek/",
    "https://www.sibdom.ru/dachi/prodam/rucheek/",
    "https://www.sibdom.ru/arenda/sdam/rucheek/dom/",
    "https://www.sibdom.ru/doma/prodam/motyginskijj_rajjon/rybnoe-38744/",
    "https://www.sibdom.ru/dachi/prodam/motyginskijj_rajjon/rybnoe-38744/",
    "https://www.sibdom.ru/arenda/sdam/motyginskijj_rajjon/rybnoe-38744/dom/",
    "https://www.sibdom.ru/doma/prodam/emelyanovskijj_rajjon/ryabinino_stanciya/",
    "https://www.sibdom.ru/dachi/prodam/emelyanovskijj_rajjon/ryabinino_stanciya/",
    "https://www.sibdom.ru/arenda/sdam/emelyanovskijj_rajjon/ryabinino_stanciya/dom/",
    "https://www.sibdom.ru/doma/prodam/berezovskijj_rajjon/sayany_1-2_pole/",
    "https://www.sibdom.ru/dachi/prodam/berezovskijj_rajjon/sayany_1-2_pole/",
    "https://www.sibdom.ru/arenda/sdam/berezovskijj_rajjon/sayany_1-2_pole/dom/",
    "https://www.sibdom.ru/doma/prodam/berezovskijj_rajjon/svischevo_2_sibtyazhmash/",
    "https://www.sibdom.ru/dachi/prodam/berezovskijj_rajjon/svischevo_2_sibtyazhmash/",
    "https://www.sibdom.ru/arenda/sdam/berezovskijj_rajjon/svischevo_2_sibtyazhmash/dom/",
    "https://www.sibdom.ru/doma/prodam/emelyanovskijj_rajjon/svyazist/",
    "https://www.sibdom.ru/dachi/prodam/emelyanovskijj_rajjon/svyazist/",
    "https://www.sibdom.ru/arenda/sdam/emelyanovskijj_rajjon/svyazist/dom/",
    "https://www.sibdom.ru/doma/prodam/ermakovskijj_rajjon/semennikovo/",
    "https://www.sibdom.ru/dachi/prodam/ermakovskijj_rajjon/semennikovo/",
    "https://www.sibdom.ru/arenda/sdam/ermakovskijj_rajjon/semennikovo/dom/",
    "https://www.sibdom.ru/doma/prodam/berezovskijj_rajjon/serebryannyjj_klyuch_uchastok_1_dnt/",
    "https://www.sibdom.ru/dachi/prodam/berezovskijj_rajjon/serebryannyjj_klyuch_uchastok_1_dnt/",
    "https://www.sibdom.ru/arenda/sdam/berezovskijj_rajjon/serebryannyjj_klyuch_uchastok_1_dnt/dom/",
    "https://www.sibdom.ru/doma/prodam/emelyanovskijj_rajjon/sinegore_kottedzhnyjj_poselok/",
    "https://www.sibdom.ru/dachi/prodam/emelyanovskijj_rajjon/sinegore_kottedzhnyjj_poselok/",
    "https://www.sibdom.ru/arenda/sdam/emelyanovskijj_rajjon/sinegore_kottedzhnyjj_poselok/dom/",
    "https://www.sibdom.ru/doma/prodam/sliznevo/",
    "https://www.sibdom.ru/dachi/prodam/sliznevo/",
    "https://www.sibdom.ru/arenda/sdam/sliznevo/dom/",
    "https://www.sibdom.ru/doma/prodam/emelyanovskijj_rajjon/snezhnica_arejjskoe/",
    "https://www.sibdom.ru/dachi/prodam/emelyanovskijj_rajjon/snezhnica_arejjskoe/",
    "https://www.sibdom.ru/arenda/sdam/emelyanovskijj_rajjon/snezhnica_arejjskoe/dom/",
    "https://www.sibdom.ru/doma/prodam/emelyanovskijj_rajjon/snezhok/",
    "https://www.sibdom.ru/dachi/prodam/emelyanovskijj_rajjon/snezhok/",
    "https://www.sibdom.ru/arenda/sdam/emelyanovskijj_rajjon/snezhok/dom/",
    "https://www.sibdom.ru/doma/prodam/emelyanovskijj_rajjon/sovkhoz_sibiryak/",
    "https://www.sibdom.ru/dachi/prodam/emelyanovskijj_rajjon/sovkhoz_sibiryak/",
    "https://www.sibdom.ru/arenda/sdam/emelyanovskijj_rajjon/sovkhoz_sibiryak/dom/",
    "https://www.sibdom.ru/doma/prodam/sodruzhestvo/",
    "https://www.sibdom.ru/dachi/prodam/sodruzhestvo/",
    "https://www.sibdom.ru/arenda/sdam/sodruzhestvo/dom/",
    "https://www.sibdom.ru/doma/prodam/emelyanovskijj_rajjon/solnechnaya_polyana_borovoe/",
    "https://www.sibdom.ru/dachi/prodam/emelyanovskijj_rajjon/solnechnaya_polyana_borovoe/",
    "https://www.sibdom.ru/arenda/sdam/emelyanovskijj_rajjon/solnechnaya_polyana_borovoe/dom/",
    "https://www.sibdom.ru/doma/prodam/emelyanovskijj_rajjon/solnechnaya_polyana_ehlita/",
    "https://www.sibdom.ru/dachi/prodam/emelyanovskijj_rajjon/solnechnaya_polyana_ehlita/",
    "https://www.sibdom.ru/arenda/sdam/emelyanovskijj_rajjon/solnechnaya_polyana_ehlita/dom/",
    "https://www.sibdom.ru/doma/prodam/berezovskijj_rajjon/solnechnoe_12/",
    "https://www.sibdom.ru/dachi/prodam/berezovskijj_rajjon/solnechnoe_12/",
    "https://www.sibdom.ru/arenda/sdam/berezovskijj_rajjon/solnechnoe_12/dom/",
    "https://www.sibdom.ru/doma/prodam/emelyanovskijj_rajjon/solnechnyjj/",
    "https://www.sibdom.ru/dachi/prodam/emelyanovskijj_rajjon/solnechnyjj/",
    "https://www.sibdom.ru/arenda/sdam/emelyanovskijj_rajjon/solnechnyjj/dom/",
    "https://www.sibdom.ru/doma/prodam/partizanskijj_rajjon/solonechno-taloe/",
    "https://www.sibdom.ru/dachi/prodam/partizanskijj_rajjon/solonechno-taloe/",
    "https://www.sibdom.ru/arenda/sdam/partizanskijj_rajjon/solonechno-taloe/dom/",
    "https://www.sibdom.ru/doma/prodam/emelyanovskijj_rajjon/soloncovskijj_nanzhul/",
    "https://www.sibdom.ru/dachi/prodam/emelyanovskijj_rajjon/soloncovskijj_nanzhul/",
    "https://www.sibdom.ru/arenda/sdam/emelyanovskijj_rajjon/soloncovskijj_nanzhul/dom/",
    "https://www.sibdom.ru/doma/prodam/emelyanovskijj_rajjon/soloncy/",
    "https://www.sibdom.ru/dachi/prodam/emelyanovskijj_rajjon/soloncy/",
    "https://www.sibdom.ru/arenda/sdam/emelyanovskijj_rajjon/soloncy/dom/",
    "https://www.sibdom.ru/doma/prodam/emelyanovskijj_rajjon/sosna-2/",
    "https://www.sibdom.ru/dachi/prodam/emelyanovskijj_rajjon/sosna-2/",
    "https://www.sibdom.ru/arenda/sdam/emelyanovskijj_rajjon/sosna-2/dom/",
    "https://www.sibdom.ru/doma/prodam/sosnovoborsk/",
    "https://www.sibdom.ru/dachi/prodam/sosnovoborsk/",
    "https://www.sibdom.ru/arenda/sdam/sosnovoborsk/dom/",
    "https://www.sibdom.ru/doma/prodam/emelyanovskijj_rajjon/spartak/",
    "https://www.sibdom.ru/dachi/prodam/emelyanovskijj_rajjon/spartak/",
    "https://www.sibdom.ru/arenda/sdam/emelyanovskijj_rajjon/spartak/dom/",
    "https://www.sibdom.ru/doma/prodam/emelyanovskijj_rajjon/starcevo/",
    "https://www.sibdom.ru/dachi/prodam/emelyanovskijj_rajjon/starcevo/",
    "https://www.sibdom.ru/arenda/sdam/emelyanovskijj_rajjon/starcevo/dom/",
    "https://www.sibdom.ru/doma/prodam/severo-enisejjskijj_rajjon/suvorovskijj/",
    "https://www.sibdom.ru/dachi/prodam/severo-enisejjskijj_rajjon/suvorovskijj/",
    "https://www.sibdom.ru/arenda/sdam/severo-enisejjskijj_rajjon/suvorovskijj/dom/",
    "https://www.sibdom.ru/doma/prodam/emelyanovskijj_rajjon/sukhanovo-38885/",
    "https://www.sibdom.ru/dachi/prodam/emelyanovskijj_rajjon/sukhanovo-38885/",
    "https://www.sibdom.ru/arenda/sdam/emelyanovskijj_rajjon/sukhanovo-38885/dom/",
    "https://www.sibdom.ru/doma/prodam/emelyanovskijj_rajjon/sukhaya_balka-2/",
    "https://www.sibdom.ru/dachi/prodam/emelyanovskijj_rajjon/sukhaya_balka-2/",
    "https://www.sibdom.ru/arenda/sdam/emelyanovskijj_rajjon/sukhaya_balka-2/dom/",
    "https://www.sibdom.ru/doma/prodam/emelyanovskijj_rajjon/sukhaya_balka/",
    "https://www.sibdom.ru/dachi/prodam/emelyanovskijj_rajjon/sukhaya_balka/",
    "https://www.sibdom.ru/arenda/sdam/emelyanovskijj_rajjon/sukhaya_balka/dom/",
    "https://www.sibdom.ru/doma/prodam/emelyanovskijj_rajjon/sukhaya_derevnya/",
    "https://www.sibdom.ru/dachi/prodam/emelyanovskijj_rajjon/sukhaya_derevnya/",
    "https://www.sibdom.ru/arenda/sdam/emelyanovskijj_rajjon/sukhaya_derevnya/dom/",
    "https://www.sibdom.ru/doma/prodam/sukhobuzimskijj_rajjon/sukhobuzimskoe/",
    "https://www.sibdom.ru/dachi/prodam/sukhobuzimskijj_rajjon/sukhobuzimskoe/",
    "https://www.sibdom.ru/arenda/sdam/sukhobuzimskijj_rajjon/sukhobuzimskoe/dom/",
    "https://www.sibdom.ru/doma/prodam/emelyanovskijj_rajjon/tajjga-1/",
    "https://www.sibdom.ru/dachi/prodam/emelyanovskijj_rajjon/tajjga-1/",
    "https://www.sibdom.ru/arenda/sdam/emelyanovskijj_rajjon/tajjga-1/dom/",
    "https://www.sibdom.ru/doma/prodam/emelyanovskijj_rajjon/taloe/",
    "https://www.sibdom.ru/dachi/prodam/emelyanovskijj_rajjon/taloe/",
    "https://www.sibdom.ru/arenda/sdam/emelyanovskijj_rajjon/taloe/dom/",
    "https://www.sibdom.ru/doma/prodam/tartat/",
    "https://www.sibdom.ru/dachi/prodam/tartat/",
    "https://www.sibdom.ru/arenda/sdam/tartat/dom/",
    "https://www.sibdom.ru/doma/prodam/berezovskijj_rajjon/tartat-50790/",
    "https://www.sibdom.ru/dachi/prodam/berezovskijj_rajjon/tartat-50790/",
    "https://www.sibdom.ru/arenda/sdam/berezovskijj_rajjon/tartat-50790/dom/",
    "https://www.sibdom.ru/doma/prodam/taseevskijj_rajjon/taseevo/",
    "https://www.sibdom.ru/dachi/prodam/taseevskijj_rajjon/taseevo/",
    "https://www.sibdom.ru/arenda/sdam/taseevskijj_rajjon/taseevo/dom/",
    "https://www.sibdom.ru/doma/prodam/emelyanovskijj_rajjon/taskino-38938/",
    "https://www.sibdom.ru/dachi/prodam/emelyanovskijj_rajjon/taskino-38938/",
    "https://www.sibdom.ru/arenda/sdam/emelyanovskijj_rajjon/taskino-38938/dom/",
    "https://www.sibdom.ru/doma/prodam/berezovskijj_rajjon/teremok/",
    "https://www.sibdom.ru/dachi/prodam/berezovskijj_rajjon/teremok/",
    "https://www.sibdom.ru/arenda/sdam/berezovskijj_rajjon/teremok/dom/",
    "https://www.sibdom.ru/doma/prodam/berezovskijj_rajjon/terentevo_dnt/",
    "https://www.sibdom.ru/dachi/prodam/berezovskijj_rajjon/terentevo_dnt/",
    "https://www.sibdom.ru/arenda/sdam/berezovskijj_rajjon/terentevo_dnt/dom/",
    "https://www.sibdom.ru/doma/prodam/berezovskijj_rajjon/terentevo/",
    "https://www.sibdom.ru/dachi/prodam/berezovskijj_rajjon/terentevo/",
    "https://www.sibdom.ru/arenda/sdam/berezovskijj_rajjon/terentevo/dom/",
    "https://www.sibdom.ru/doma/prodam/emelyanovskijj_rajjon/trostencovo_stanciya/",
    "https://www.sibdom.ru/dachi/prodam/emelyanovskijj_rajjon/trostencovo_stanciya/",
    "https://www.sibdom.ru/arenda/sdam/emelyanovskijj_rajjon/trostencovo_stanciya/dom/",
    "https://www.sibdom.ru/doma/prodam/tyukhtetskijj_rajjon/tyukhtet/",
    "https://www.sibdom.ru/dachi/prodam/tyukhtetskijj_rajjon/tyukhtet/",
    "https://www.sibdom.ru/arenda/sdam/tyukhtetskijj_rajjon/tyukhtet/dom/",
    "https://www.sibdom.ru/doma/prodam/emelyanovskijj_rajjon/udachnyjj/",
    "https://www.sibdom.ru/dachi/prodam/emelyanovskijj_rajjon/udachnyjj/",
    "https://www.sibdom.ru/arenda/sdam/emelyanovskijj_rajjon/udachnyjj/dom/",
    "https://www.sibdom.ru/doma/prodam/uzhurskijj_rajjon/uzhur/",
    "https://www.sibdom.ru/dachi/prodam/uzhurskijj_rajjon/uzhur/",
    "https://www.sibdom.ru/arenda/sdam/uzhurskijj_rajjon/uzhur/dom/",
    "https://www.sibdom.ru/doma/prodam/manskijj_rajjon/ust-mana/",
    "https://www.sibdom.ru/dachi/prodam/manskijj_rajjon/ust-mana/",
    "https://www.sibdom.ru/arenda/sdam/manskijj_rajjon/ust-mana/dom/",
    "https://www.sibdom.ru/doma/prodam/emelyanovskijj_rajjon/ustyug/",
    "https://www.sibdom.ru/dachi/prodam/emelyanovskijj_rajjon/ustyug/",
    "https://www.sibdom.ru/arenda/sdam/emelyanovskijj_rajjon/ustyug/dom/",
    "https://www.sibdom.ru/doma/prodam/uyar/",
    "https://www.sibdom.ru/dachi/prodam/uyar/",
    "https://www.sibdom.ru/arenda/sdam/uyar/dom/",
    "https://www.sibdom.ru/doma/prodam/emelyanovskijj_rajjon/chastoostrovskoe/",
    "https://www.sibdom.ru/dachi/prodam/emelyanovskijj_rajjon/chastoostrovskoe/",
    "https://www.sibdom.ru/arenda/sdam/emelyanovskijj_rajjon/chastoostrovskoe/dom/",
    "https://www.sibdom.ru/doma/prodam/chernobyl/",
    "https://www.sibdom.ru/dachi/prodam/chernobyl/",
    "https://www.sibdom.ru/arenda/sdam/chernobyl/dom/",
    "https://www.sibdom.ru/doma/prodam/manskijj_rajjon/shalinskoe/",
    "https://www.sibdom.ru/dachi/prodam/manskijj_rajjon/shalinskoe/",
    "https://www.sibdom.ru/arenda/sdam/manskijj_rajjon/shalinskoe/dom/",
    "https://www.sibdom.ru/doma/prodam/emelyanovskijj_rajjon/shamoni_kottedzhnyjj_poselok/",
    "https://www.sibdom.ru/dachi/prodam/emelyanovskijj_rajjon/shamoni_kottedzhnyjj_poselok/",
    "https://www.sibdom.ru/arenda/sdam/emelyanovskijj_rajjon/shamoni_kottedzhnyjj_poselok/dom/",
    "https://www.sibdom.ru/doma/prodam/sharypovo/",
    "https://www.sibdom.ru/dachi/prodam/sharypovo/",
    "https://www.sibdom.ru/arenda/sdam/sharypovo/dom/",
    "https://www.sibdom.ru/doma/prodam/sharypovskijj_rajjon/sharypovo-50901/",
    "https://www.sibdom.ru/dachi/prodam/sharypovskijj_rajjon/sharypovo-50901/",
    "https://www.sibdom.ru/arenda/sdam/sharypovskijj_rajjon/sharypovo-50901/dom/",
    "https://www.sibdom.ru/doma/prodam/emelyanovskijj_rajjon/share/",
    "https://www.sibdom.ru/dachi/prodam/emelyanovskijj_rajjon/share/",
    "https://www.sibdom.ru/arenda/sdam/emelyanovskijj_rajjon/share/dom/",
    "https://www.sibdom.ru/doma/prodam/sukhobuzimskijj_rajjon/shila/",
    "https://www.sibdom.ru/dachi/prodam/sukhobuzimskijj_rajjon/shila/",
    "https://www.sibdom.ru/arenda/sdam/sukhobuzimskijj_rajjon/shila/dom/",
    "https://www.sibdom.ru/doma/prodam/emelyanovskijj_rajjon/shuvaevo/",
    "https://www.sibdom.ru/dachi/prodam/emelyanovskijj_rajjon/shuvaevo/",
    "https://www.sibdom.ru/arenda/sdam/emelyanovskijj_rajjon/shuvaevo/dom/",
    "https://www.sibdom.ru/doma/prodam/shushenskijj_rajjon/shushenskoe/",
    "https://www.sibdom.ru/dachi/prodam/shushenskijj_rajjon/shushenskoe/",
    "https://www.sibdom.ru/arenda/sdam/shushenskijj_rajjon/shushenskoe/dom/",
    "https://www.sibdom.ru/doma/prodam/emelyanovskijj_rajjon/ehlektromontazhnik/",
    "https://www.sibdom.ru/dachi/prodam/emelyanovskijj_rajjon/ehlektromontazhnik/",
    "https://www.sibdom.ru/arenda/sdam/emelyanovskijj_rajjon/ehlektromontazhnik/dom/",
    "https://www.sibdom.ru/doma/prodam/emelyanovskijj_rajjon/ehlektron_ryabinino/",
    "https://www.sibdom.ru/dachi/prodam/emelyanovskijj_rajjon/ehlektron_ryabinino/",
    "https://www.sibdom.ru/arenda/sdam/emelyanovskijj_rajjon/ehlektron_ryabinino/dom/",
    "https://www.sibdom.ru/doma/prodam/emelyanovskijj_rajjon/ehlita/",
    "https://www.sibdom.ru/dachi/prodam/emelyanovskijj_rajjon/ehlita/",
    "https://www.sibdom.ru/arenda/sdam/emelyanovskijj_rajjon/ehlita/dom/",
    "https://www.sibdom.ru/doma/prodam/bolshemurtinskijj_rajjon/yukseevo/",
    "https://www.sibdom.ru/dachi/prodam/bolshemurtinskijj_rajjon/yukseevo/",
    "https://www.sibdom.ru/arenda/sdam/bolshemurtinskijj_rajjon/yukseevo/dom/",
    "https://www.sibdom.ru/doma/prodam/emelyanovskijj_rajjon/yasnaya_polyana_dnt_soloncy/",
    "https://www.sibdom.ru/dachi/prodam/emelyanovskijj_rajjon/yasnaya_polyana_dnt_soloncy/",
    "https://www.sibdom.ru/arenda/sdam/emelyanovskijj_rajjon/yasnaya_polyana_dnt_soloncy/dom/",
    "https://www.sibdom.ru/doma/prodam/emelyanovskijj_rajjon/yasnaya_polyana_st_minino/",
    "https://www.sibdom.ru/dachi/prodam/emelyanovskijj_rajjon/yasnaya_polyana_st_minino/",
    "https://www.sibdom.ru/arenda/sdam/emelyanovskijj_rajjon/yasnaya_polyana_st_minino/dom/",
    "https://www.sibdom.ru/doma/prodam/emelyanovskijj_rajjon/yasnaya_polyana_raskaty/",
    "https://www.sibdom.ru/dachi/prodam/emelyanovskijj_rajjon/yasnaya_polyana_raskaty/",
    "https://www.sibdom.ru/arenda/sdam/emelyanovskijj_rajjon/yasnaya_polyana_raskaty/dom/",
    "https://www.sibdom.ru/doma/prodam/emelyanovskijj_rajjon/izumrudnyjj_lug_dnt/",
    "https://www.sibdom.ru/dachi/prodam/emelyanovskijj_rajjon/izumrudnyjj_lug_dnt/",
    "https://www.sibdom.ru/arenda/sdam/emelyanovskijj_rajjon/izumrudnyjj_lug_dnt/dom/",
    "https://www.sibdom.ru/doma/prodam/solnechnaya_polyana_dnt_sukhaya_balka/",
    "https://www.sibdom.ru/dachi/prodam/solnechnaya_polyana_dnt_sukhaya_balka/",
    "https://www.sibdom.ru/arenda/sdam/solnechnaya_polyana_dnt_sukhaya_balka/dom/",
    "https://www.sibdom.ru/doma/prodam/emelyanovskijj_rajjon/lesnaya_st/",
    "https://www.sibdom.ru/dachi/prodam/emelyanovskijj_rajjon/lesnaya_st/",
    "https://www.sibdom.ru/arenda/sdam/emelyanovskijj_rajjon/lesnaya_st/dom/",
    "https://www.sibdom.ru/u-morya/prodam/"
  ],
  "_segment": "Загородная недвижимость",
  "_operation": "",
  "_federal_subject": "",
  "_source": "https://www.sibdom.ru/",
  "project_id": "metaspider",
  "spider_id": "metacrawler",
  "global_settings": {
    "CONCURRENT_REQUESTS": 256,
    "SPLASH_URL": "http://0.0.0.0:8050",
    "LOG_LEVEL": "INFO",
    "AUTOTHROTTLE_ENABLED": false,
    "AUTOTHROTTLE_START_DELAY": 1,
    "AUTOTHROTTLE_MAX_DELAY": 60,
    "AUTOTHROTTLE_TARGET_CONCURRENCY": 256,
    "CONCURRENT_REQUESTS_PER_DOMAIN": 256,
    "RETRY_ENABLED": true,
    "RETRY_HTTP_CODES": [
      500,
      503,
      502,
      504,
      400,
      403,
      408,
      429,
      505,
      303,
      302,
      301,
      404,
      307,
      410,
      502,
      451
    ],
    "HTTPERROR_ALLOWED_CODES": [],
    "RETRY_TIMES": 20,
    "ROBOTSTXT_ENABLED": false,
    "ROBOTSTXT_OBEY": false,
    "REDIRECT_ENABLED": false,
    "COOKIES_ENABLED": false,
    "DOWNLOAD_FAIL_ON_DATALOSS": false,
    "RANDOM_UA_TYPE": "random",
    "DOWNLOAD_TIMEOUT": 60,
    "CLOSESPIDER_ITEMCOUNT": 0,
    "CLOSESPIDER_ERRORCOUNT": 0
  },
  "methods": {
    "crawling_type": "common",
    "allowed_domains": [],
    "proxy_settings": {
      "types": [
        "https"
      ],
      "amount": 10000,
      "save": false
    }
  },
  "crawl_tree": [{
    "pagination_urls": {
      "path": "//li[@class = 'page-pagination-item active']/following-sibling::li[1]/a/@href"
    },
    "item_urls": {
      "path": "//a[@class='catalog-product catalog-product-widened catalog-product--houses']/@href"
    }
  }],
  "item_page": {
    "fields": {
      "source_latitude": {
        "type": "float",
        "path": "//script[contains(., 'POINT')]/text()",
        "regex": "(?<=selection: 'POINT\\()[\\d\\.]+",
        "operations": []
      },
      "source_longitude": {
        "type": "float",
        "path": "//script[contains(., 'POINT')]/text()",
        "regex": "[\\d\\.]+(?=\\)', geopos)",
        "operations": []
      },
      "address": {
        "type": "string",
        "path": "normalize-space(//div[@class='card-info-name']/span[contains(text(), 'Адрес')]/parent::div/following-sibling::div/text())",
        "operations": []
      },
      "address_city": {
        "type": "list to string",
        "path": "//div[@class='card-info-block'][1]/div[@class='card-info-line'][1]/div[@class='card-info-name']/following-sibling::div//text()",
        "operations": []
      },
      "area_total": {
        "type": "float",
        "path": "normalize-space(//div[@class='card-info-name']/span[contains(text(), 'Общая площадь')]/parent::div/following-sibling::div/text())",
        "regex": "^[\\d\\.]+",
        "operations": []
      },
      "seller_name": {
        "type": "string",
        "path": "normalize-space(//div[@class='card-feedback-contacts card-feedback-margin']/a/text())",
        "operations": []
      },
      "date_info": {
        "type": "date",
        "time": "now",
        "operations": []
      },
      "operation": {
        "type": "string",
        "path": "//div[@class='card-title']/h1/text()",
        "regex": "[Аа]ренд|[Пп]род"
      },
      "title_name": {
        "type": "string",
        "path": "//div[@class = 'card-title']/h1/text()",
        "operations": []
      },
      "price_total": {
        "type": "float",
        "path": "//span[@class = 'card-banner-price--full']/text()",
        "regex": "[\\d\\. ]+",
        "operations": []
      },
      "federal_subject": {
        "type": "string",
        "value": "Красноярский край",
        "operations": []
      },
      "description": {
        "type": "string",
        "path": "//div[@class = 'card-text card-description']/p/text()",
        "operations": []
      },
      "wall_material": {
        "type": "string",
        "path": "normalize-space(//div[@class='card-info-name']/span[contains(text(), 'Тип дома')]/parent::div/following-sibling::div/text()|//div[@class='card-info-name']/span[contains(text(), 'Материал стен')]/parent::div/following-sibling::div/text())"
      },
      "is_internet": {
        "type": "string",
        "path": "normalize-space(//div[@class='card-info-name']/span[contains(text(), 'Интернет')]/parent::div/following-sibling::div/text())"
      },
      "reconstruction_type": {
        "type": "string",
        "path": "normalize-space(//div[@class='card-info-name']/span[contains(text(), 'Состояние объекта')]/parent::div/following-sibling::div/text())"
      },
      "is_balcony": {
        "type": "string",
        "path": "normalize-space(//div[@class='card-info-name']/span[contains(text(), 'Балкон')]/parent::div/following-sibling::div/text())"
      },
      "floors_cnt": {
        "type": "float",
        "path": "normalize-space(//div[@class='card-info-name']/span[contains(text(), 'Этажей')]/parent::div/following-sibling::div/text())",
        "regex": "^\\d+"
      },
      "land_area": {
        "type": "string",
        "path": "normalize-space(//div[@class='card-info-name']/span[contains(text(), 'Площадь участка')]/parent::div/following-sibling::div/text())",
        "regex": "^[\\d\\.]+"
      },
      "is_plumbing": {
        "type": "string",
        "path": "normalize-space(//div[@class='card-info-name']/span[contains(text(), 'Водопровод')]/parent::div/following-sibling::div/text())"
      },
      "is_sewage": {
        "type": "string",
        "path": "normalize-space(//div[@class='card-info-name']/span[contains(text(), 'Канализация')]/parent::div/following-sibling::div/text())"
      },
      "is_electricity": {
        "type": "string",
        "path": "normalize-space(//div[@class='card-info-name']/span[contains(text(), 'Электричество')]/parent::div/following-sibling::div/text())"
      },
      "date_created": {
        "type": "list to string",
        "regex": "\\d\\d\\.\\d\\d\\.\\d\\d\\d\\d",
        "path": "//div[@class='card-head']/div[@class='card-subtitle']//text()"
      },
      "price_term": {
        "type": "string",
        "path": "//span[@class = 'card-banner-price--full']/text()",
        "regex": "мес|год|нед"
      }
    },
    "follow": [{
      "url": "https://www.sibdom.ru/api/showphone",
      "methods": {
        "crawling_type": "post",
        "content_type": "json",
        "filter_duplicates": false,
        "allowed_domains": [],
        "proxy_settings": {
          "save": true
        }
      },
      "fields": {
        "phone": {
          "type": "phone",
          "path": "result",
          "regex": "(?<=tel:).*(?='>)"
        }
      },
      "post_params": {
        "fields": {
          "key": {
            "type": "string",
            "path": "string(//span[contains(@class, 'js-show_phones')]/@data-key)"
          }
        }
      }
    }]
  }
}