{
  "_task_id": "Широта/долгота везде одинаковая",
  "_start_urls": [
    "http://www.tatre.ru/db-prodazha-kommer?so_portion=100",
    "http://www.tatre.ru/db-arenda-kommer?so_portion=100"
  ],
  "_segment": "",
  "_operation": "",
  "_federal_subject": "",
  "_source": "TATRE",
  "global_settings": {
    "CONCURRENT_REQUESTS": 1024,
    "DOWNLOAD_TIMEOUT": 40,
    "SPLASH_URL": "http://0.0.0.0:8050",
    "LOG_LEVEL": "INFO",
    "AUTOTHROTTLE_ENABLED": false,
    "AUTOTHROTTLE_START_DELAY": 1.0,
    "AUTOTHROTTLE_MAX_DELAY": 40,
    "AUTOTHROTTLE_TARGET_CONCURRENCY": 1024,
    "HTTPERROR_ALLOWED_CODES": [],
    "CONCURRENT_REQUESTS_PER_DOMAIN": 1024,
    "RETRY_ENABLED": true,
    "RETRY_HTTP_CODES": [
      500,
      503,
      502,
      504,
      400,
      403,
      408,
      429,
      505,
      303,
      302,
      301,
      404,
      307,
      410,
      502,
      451
    ],
    "RETRY_TIMES": 40,
    "ROBOTSTXT_ENABLED": false,
    "ROBOTSTXT_OBEY": false,
    "REDIRECT_ENABLED": false,
    "COOKIES_ENABLED": false,
    "RANDOM_UA_TYPE": "random"
  },
  "methods": {
    "crawling_type": "common",
    "allowed_domains": [],
    "proxy_settings": {
      "types": [
        "https"
      ]
    }
  },
  "crawl_tree": [
    {
      "pagination_urls": {
        "path": "(//div[@class = '$11']/a[contains(@class,'active')]/following-sibling::a/@href)[1]"
      },
      "item_urls": {
        "path": "//a[@class='$7p']/@href"
      }
    }
  ],
  "item_page": {
    "fields": {
      "federal_subject": {
        "type": "string",
        "path": "(//span[@class='$2n']/text())[1]"
      },
      "title_name": {
        "type": "string",
        "path": "//title/text()"
      },
      "date_info": {
        "type": "date",
        "time": "now"
      },
       "date_created": {
        "type": "date",
        "path": "//div[@class='$b4']/text()",
        "time": "from string"
       },
       "date_updated": {
        "type": "date",
        "path": "//div[@class='$b5']/text()",
        "time": "from string"
       },
      "description": {
        "type": "list to string",
        "path": "//div[contains(@class,'$a1 full')]/text()"
      },
      "price_total": {
        "type": "string",
        "path": "(//div[contains(@class,'$b8') and contains(text(),'руб')]/text())[1]",
        "regex": "[\\d\\s.,]+(?=руб)"
      },
      "price_currency": {
        "type": "string",
        "path": "(//div[contains(@class,'$b8') and contains(text(),'руб')]/text())[1]",
        "regex": "[\\D]+"
      },
      "rent_price_per_area": {
        "type": "string",
        "path": "//div[@class='$b8 squareMeter']/text()",
        "regex": "[\\d\\s.,]+(?=\\sруб)"
      },      
      "area_total": {
        "type": "float",
        "path": "//div[contains(text(),'общ.')]/preceding-sibling::div[@class='$bd']/text()",
        "regex": "[\\d\\s.,]+(?=м²)"
      },
      "land_area": {
        "type": "float",
        "path": "//div[contains(text(),'общ.')]/preceding-sibling::div[@class='$bd']/text()",
        "regex": "[\\d\\s.,]+(?=сот)"
      },      
      "seller_name": {
        "type": "list to string",
        "path": "//div[@class='$bg']/text()"
      },
      "phone": {
        "type": "phone",
        "path": "//div[@class='$bh']/a/text()"
      },
      "address": {
        "type": "list to string",
        "path": "//*[@class='$9l']//text()"
      },
      "floor": {
        "type": "list to string",
        "path": "//div[contains(text(),'этаж')]/preceding-sibling::div[@class='$bd']/text()"

      },
      "floors_des": {
        "type": "list to string",
        "path": "//div[@class='$a1' and contains(text(),'этаж')]/text()"
        
      },
      "wall_material": {
        "type": "string",
        "path": "//div[@class='$1g']/nobr/text()"
        
      },
      "is_phone": {
        "type": "string",
        "path": "//div[@class='$1g']/nobr[contains(text(),'тел.')]/text()"
        
      },
      "purpose": {
        "type": "list to string",
        "path": "//div[@class='$2']//text()"
        
      },
      "metro_station": {
        "type": "list to string",
        "path": "//div[@class='$b7' and contains(text(),'Ближайшее метро')]/text()",
        "regex":"(?<=Ближайшее метро:\\s)[-()\\w]+"
        
      },
      "metro_minutes_leg": {
        "type": "list to string",
        "path": "//div[contains(text(),'Ближайшее метро')]/text()",
        "regex":"[\\d.,]+(?=\\sмин. пешком)"
        
      },
      "metro_minutes_avto": {
        "type": "list to string",
        "path": "//div[contains(text(),'Ближайшее метро')]/text()",
        "regex":"[\\d.,]+(?=\\sмин. на транспорте)"
      }
    }
  }
}