{
	"_task_id": "MoyaRec1xz",
	"_start_urls": [
"https://tvoyadres.ru/nedvizhimost/nezhilye-pomeshcheniya/prodazha/?region=ANY&city=&metro=&street=&house=&wall=ANY&year_built_min=&year_built_max=&deal=1&object=6&period=ANY&water=ANY&level=ANY&square_min=&square_max=&price_min=&price_max=&contractor=ANY&keyword=&time=ANY&status=1&type=11&uid=&user=&update=&category=&without=&dacha=&favorite=&archive=&similar=&bedrooms=&synonym=&private=&submit=",
"https://tvoyadres.ru/nedvizhimost/nezhilye-pomeshcheniya/prodazha/?region=ANY&city=&metro=&street=&house=&wall=ANY&year_built_min=&year_built_max=&deal=3&object=6&period=ANY&water=ANY&level=ANY&square_min=&square_max=&price_min=&price_max=&contractor=ANY&keyword=&time=ANY&status=1&type=11&uid=&user=&update=&category=&without=&dacha=&favorite=&archive=&similar=&bedrooms=&synonym=&private=&submit=",
"https://tvoyadres.ru/nedvizhimost/nezhilye-pomeshcheniya/prodazha/?region=ANY&city=&metro=&street=&house=&wall=ANY&year_built_min=&year_built_max=&deal=1&object=7&period=ANY&water=ANY&level=ANY&square_min=&square_max=&price_min=&price_max=&contractor=ANY&keyword=&time=ANY&status=1&type=11&uid=&user=&update=&category=&without=&dacha=&favorite=&archive=&similar=&bedrooms=&synonym=&private=&submit=",
"https://tvoyadres.ru/nedvizhimost/nezhilye-pomeshcheniya/prodazha/?region=ANY&city=&metro=&street=&house=&wall=ANY&year_built_min=&year_built_max=&deal=3&object=7&period=ANY&water=ANY&level=ANY&square_min=&square_max=&price_min=&price_max=&contractor=ANY&keyword=&time=ANY&status=1&type=11&uid=&user=&update=&category=&without=&dacha=&favorite=&archive=&similar=&bedrooms=&synonym=&private=&submit=",
"https://tvoyadres.ru/nedvizhimost/nezhilye-pomeshcheniya/prodazha/?region=ANY&city=&metro=&street=&house=&wall=ANY&year_built_min=&year_built_max=&deal=1&object=8&period=ANY&water=ANY&level=ANY&square_min=&square_max=&price_min=&price_max=&contractor=ANY&keyword=&time=ANY&status=1&type=11&uid=&user=&update=&category=&without=&dacha=&favorite=&archive=&similar=&bedrooms=&synonym=&private=&submit=",
"https://tvoyadres.ru/nedvizhimost/nezhilye-pomeshcheniya/prodazha/?region=ANY&city=&metro=&street=&house=&wall=ANY&year_built_min=&year_built_max=&deal=3&object=8&period=ANY&water=ANY&level=ANY&square_min=&square_max=&price_min=&price_max=&contractor=ANY&keyword=&time=ANY&status=1&type=11&uid=&user=&update=&category=&without=&dacha=&favorite=&archive=&similar=&bedrooms=&synonym=&private=&submit=",
"https://tvoyadres.ru/nedvizhimost/nezhilye-pomeshcheniya/prodazha/?region=ANY&city=&metro=&street=&house=&wall=ANY&year_built_min=&year_built_max=&deal=1&object=9&period=ANY&water=ANY&level=ANY&square_min=&square_max=&price_min=&price_max=&contractor=ANY&keyword=&time=ANY&status=1&type=11&uid=&user=&update=&category=&without=&dacha=&favorite=&archive=&similar=&bedrooms=&synonym=&private=&submit=",
"https://tvoyadres.ru/nedvizhimost/nezhilye-pomeshcheniya/prodazha/?region=ANY&city=&metro=&street=&house=&wall=ANY&year_built_min=&year_built_max=&deal=3&object=9&period=ANY&water=ANY&level=ANY&square_min=&square_max=&price_min=&price_max=&contractor=ANY&keyword=&time=ANY&status=1&type=11&uid=&user=&update=&category=&without=&dacha=&favorite=&archive=&similar=&bedrooms=&synonym=&private=&submit=",
"https://tvoyadres.ru/nedvizhimost/nezhilye-pomeshcheniya/prodazha/?region=ANY&city=&metro=&street=&house=&wall=ANY&year_built_min=&year_built_max=&deal=1&object=10&period=ANY&water=ANY&level=ANY&square_min=&square_max=&price_min=&price_max=&contractor=ANY&keyword=&time=ANY&status=1&type=11&uid=&user=&update=&category=&without=&dacha=&favorite=&archive=&similar=&bedrooms=&synonym=&private=&submit=",
"https://tvoyadres.ru/nedvizhimost/nezhilye-pomeshcheniya/prodazha/?region=ANY&city=&metro=&street=&house=&wall=ANY&year_built_min=&year_built_max=&deal=3&object=10&period=ANY&water=ANY&level=ANY&square_min=&square_max=&price_min=&price_max=&contractor=ANY&keyword=&time=ANY&status=1&type=11&uid=&user=&update=&category=&without=&dacha=&favorite=&archive=&similar=&bedrooms=&synonym=&private=&submit=",
"https://tvoyadres.ru/nedvizhimost/nezhilye-pomeshcheniya/prodazha/?region=ANY&city=&metro=&street=&house=&wall=ANY&year_built_min=&year_built_max=&deal=1&object=11&period=ANY&water=ANY&level=ANY&square_min=&square_max=&price_min=&price_max=&contractor=ANY&keyword=&time=ANY&status=1&type=11&uid=&user=&update=&category=&without=&dacha=&favorite=&archive=&similar=&bedrooms=&synonym=&private=&submit=",
"https://tvoyadres.ru/nedvizhimost/nezhilye-pomeshcheniya/prodazha/?region=ANY&city=&metro=&street=&house=&wall=ANY&year_built_min=&year_built_max=&deal=3&object=11&period=ANY&water=ANY&level=ANY&square_min=&square_max=&price_min=&price_max=&contractor=ANY&keyword=&time=ANY&status=1&type=11&uid=&user=&update=&category=&without=&dacha=&favorite=&archive=&similar=&bedrooms=&synonym=&private=&submit="

	],
	"_segment": "Коммерция",
	"_operation": "",
	"_federal_subject": "",
	"_source": "TVOYADR",
	"global_settings": {
		"CONCURRENT_REQUESTS": 256,
		"DOWNLOAD_TIMEOUT": 60,
		"SPLASH_URL": "http://0.0.0.0:8050",
		"LOG_LEVEL": "INFO",
		"AUTOTHROTTLE_ENABLED": false,
		"AUTOTHROTTLE_START_DELAY": 1.0,
		"AUTOTHROTTLE_MAX_DELAY": 60,
		"AUTOTHROTTLE_TARGET_CONCURRENCY": 256,
		"HTTPERROR_ALLOWED_CODES": [],
		"CONCURRENT_REQUESTS_PER_DOMAIN": 256,
		"RETRY_ENABLED": true,
		"RETRY_HTTP_CODES": [
			500,
			503,
			502,
			504,
			400,
			403,
			408,
			429,
			505,
			303,
			302,
			301,
            404,
            307,
            410,
            502,
            451
		],
		"RETRY_TIMES": 20,
		"ROBOTSTXT_ENABLED": false,
		"ROBOTSTXT_OBEY": false,
		"REDIRECT_ENABLED": false,
		"COOKIES_ENABLED": false,
		"RANDOM_UA_TYPE": "random"
	},

	"methods": {
		"crawling_type": "common",
		"allowed_domains": [],
		"proxy_settings": {
			"types": [
				"https"
			]
		}
	},
	"crawl_tree": [
           {
               "pagination_urls": {
                       "path":"(//li[@class = 'active']/following-sibling::li[1]/a/@href)[1]"
               },
               "item_urls": {
                       "path": "//div[@class = 'title']/a/@href"
               }
           }],
	"item_page": {
		"fields": {
			"federal_subject": {
				"type": "string",
				"path": "(//a[@itemprop = 'item']//text())[2]"
			},

			"address_city": {
				"type": "string",
				"path": "//body/@data-city"
			},
			"parking_type": {
				"type": "string",
				"path": "//span[contains(., 'Парковка')]/following-sibling::span[@class = 'right']/text()"
			},
			"security_type_1": {
				"type": "string",
				"path": "//span[contains(., 'Безопасность')]/following-sibling::span[@class = 'right']/text()"
			},
			"security_type_2": {
				"type": "string",
				"path": "//span[contains(., 'Охрана')]/following-sibling::span[@class = 'right']/text()"
			},
			"title_name": {
				"type": "string",
				"path": "//div[@class = 'contents']/h1/text()"
			},
			"date_info": {
				"type": "date",
				"time": "now"
			},
			"date_created": {
				"type": "date",
				"path": "//span[contains(text(),'Дата публикации')]/following-sibling::span/text()",
				"time": "from string"
			},
			"date_updated": {
				"type": "date",
				"path": "//span[contains(text(),'Дата обновления')]/following-sibling::span/text()",
				"time": "from string",
				"regex": "[^-]+"
			},

			"description": {
				"type": "string",
				"path": "//meta[@name = 'description']/@content"
			},
			"source_latitude": {
				"type": "float",
				"path": "//span[@id = 'map']/@data-coordinates",
				"regex": "\\d+[\\,\\.]{0,1}\\d{1,100}(?=\\,)"

			},
			"source_longitude": {
				"type": "float",
				"path": "//span[@id = 'map']/@data-coordinates",
				"regex": "(?<=\\,)\\d+[\\,\\.]{0,1}\\d{1,100}"
			},
			"price_total": {
				"type": "float",
				"path": "//span/span[@class = 'number_format']/text()",
				"regex": "\\d+"
			},
			"price_per_m": {
				"type": "float",
				"path": "//li/span[@class = 'number_format']/text()",
				"regex": "\\d+"
			},
			"area_total": {
						"type": "float",
						"regex": "[\\d]+(?= м)",
						"path": "//span[contains(., 'Площадь')]/following-sibling::span/text()"
			},
			"address": {
						"type": "list to string",
						"path": "//span[contains(., 'Карта')]/following-sibling::span[@class = 'right']//text()"
			},
			"operation": {
				"type": "string",
				"path": "//span[contains(., 'Сделка')]/following-sibling::span//text()"
			},
			"purpose": {
				"type": "string",
				"path": "//span[contains(., 'Объект')]/following-sibling::span//text()"
			},
            "seller_name": {
                "type": "string",
                "path": "//span[contains(text(),'Имя')]/following-sibling::span/a/text()",
                "operations": []
            },
            "phone": {
                "type": "phone",
                "path": "//span[@class='tel']/following-sibling::span/text()",
                "operations": []
            },
			"floor": {
				"type": "float",
				"path": "//span[contains(text(),'Этаж')]/following-sibling::span/text()",
				"regex": "[\\d ]+(?=\/)"
			},
			"floor_cnt": {
				"type": "float",
				"path": "//span[contains(text(),'Этаж')]/following-sibling::span/text()",
				"regex": "(?<=/)[\\d ]+"
			},
			"year_built": {
				"type": "float",
				"path": "//span[contains(text(),'Год постройки')]/following-sibling::span/text()"
			},
			"wall_material": {
				"type": "string",
				"path": "//span[contains(text(),'Тип дома')]/following-sibling::span/text()"
			},
			"layout_type": {
				"type": "string",
				"path": "//span[contains(text(),'Планировка')]/following-sibling::span/text()"
			}
		}
	}
}

	
