{
  "_task_id": "VSE42_DEBUG_3",
  "_start_urls": [
    "https://dom.vse42.ru/property/commercial/"
  ],
  "_segment": "",
  "_operation": "",
  "_federal_subject": "",
  "_source": "VSE42",
  "project_id": "metaspider",
  "spider_id": "metacrawler",
  "global_settings": {
    "CONCURRENT_REQUESTS": 1024,
    "SPLASH_URL": "http://0.0.0.0:8050",
    "LOG_LEVEL": "INFO",
    "AUTOTHROTTLE_ENABLED": false,
    "AUTOTHROTTLE_START_DELAY": 1.0,
    "AUTOTHROTTLE_MAX_DELAY": 60.0,
    "AUTOTHROTTLE_TARGET_CONCURRENCY": 1024,
    "CONCURRENT_REQUESTS_PER_DOMAIN": 1024,
    "RETRY_ENABLED": true,
    "RETRY_HTTP_CODES": [
      500,
      503,
      502,
      504,
      400,
      403,
      408,
      429,
      505,
      303,
      302,
      301,
      404,
      307,
      410,
      502,
      451
    ],
    "HTTPERROR_ALLOWED_CODES": [],
    "RETRY_TIMES": 20,
    "ROBOTSTXT_ENABLED": false,
    "ROBOTSTXT_OBEY": false,
    "REDIRECT_ENABLED": false,
    "COOKIES_ENABLED": true,
    "DOWNLOAD_FAIL_ON_DATALOSS": false,
    "RANDOM_UA_TYPE": "random",
    "DOWNLOAD_TIMEOUT": 60.0,
    "CLOSESPIDER_ITEMCOUNT": 0,
    "CLOSESPIDER_ERRORCOUNT": 0
  },
  "methods": {
    "crawling_type": "common",
    "allowed_domains": [],
    "proxy_settings": {
      "types": [
        "https"
      ],
      "amount": 10000,
      "save": false
    }
  },
  "crawl_tree": [{
    "pagination_urls": {
      "path": "//div[@class = 'la s']/following-sibling::div[1]//@href"
    },
    "item_urls": {
      "path": "//span[@class = 'act-btn']//@href",
      "methods": {
        "allowed_domains": [],
        "proxy_settings": {
          "types": [
            "https"
          ],
          "amount": 10000,
          "save": false
        },
        "save_cookies": true
      }
    }
  }],
  "item_page": {
    "fields": {
      "federal_subject": {
        "type": "string",
        "value": "Кемеровская обл",
        "operations": []
      },
      "title_name": {
        "type": "string",
        "path": "//h1[@class = 'title']/text()",
        "operations": []
      },
      "date_info": {
        "type": "date",
        "time": "now",
        "operations": []
      },
      "description": {
        "type": "string",
        "path": "//h3[contains(., 'Дополнительная информация')]/following-sibling::div[1]/text()",
        "operations": []
      },
      "price_total": {
        "type": "float",
        "path": "//div[@class = 'grid_3 omega cost-value']/text()",
        "regex": "\\d+",
        "operations": []
      },
      "price_term": {
        "type": "string",
        "path": "//div[@class = 'grid_3 omega cost-value']/text()",
        "regex": "\\D+",
        "operations": []
      },      
      "area_total": {
        "type": "float",
        "path": "(//div[@class = 'section']/div[contains(., 'Площадь объекта')]//div[@class = 'value grid_3 omega']/text())[1]",
        "regex": "\\d+[\\,\\.]{0,1}\\d{1,100}",
        "operations": []
      },
      "seller_name": {
        "type": "string",
        "path": "//a[@class = 'radvert-agency-link']/text()",
        "operations": []
      },
      "address": {
        "type": "string",
        "path": "//span[@class='beforeheader']/text()",
        "operations": []
      },
      "address_city": {
        "type": "string",
        "path": "//h1[@class = 'title']/text()",
        "regex": "(?<=недвижимость )(.*)",
        "operations": []
      },
      "source_longitude": {
        "type": "float",
        "path": "//div[@class = 'block map ']//img/@src",
        "regex": "(?<=map&ll=)\\d+[\\,\\.]{0,1}\\d{1,10}",
        "operations": []
      },
      "source_latitude": {
        "type": "float",
        "path": "//div[@class = 'block map ']//img/@src",
        "regex": "(?<=markers=)\\d+[\\,\\.]{0,1}\\d{1,10}(?=,)",
        "operations": []
      },
      "purpose": {
        "type": "string",
        "path": "(//div[@class = 'section']/div[contains(., 'Назначение')]//div[@class = 'value grid_3 omega']/text())[2]",
        "operations": []
      },
      "date_created": {
        "type": "date",
        "path": "//span[@class='afterheader']/span[1]/text()",
        "time": "from string",
        "regex": "(?<=: )(.*)",
        "operations": []
      },
      "date_updated": {
        "type": "date",
        "path": "//span[@class='afterheader']/span[2]/text()",
        "time": "from string",
        "regex": "(?<=: )(.*)",
        "operations": []
      }

    },
    "follow": [{
      "url_constructor": {
        "insert": {
          "place_to_insert": {
            "type": "string",
            "path": "//a[@class = 'get_contacts']/@data-href"
          }
        }
      },
      "fields": {
        "phone": {
          "type": "phone",
          "path": "text"
        }
      },
      "methods": {
        "crawling_type": "common",
        "content_type": "json",
        "filter_duplicates": false,
        "allowed_domains": [],
        "proxy_settings": {
          "types": [
            "https"
          ],
          "amount": 10000,
          "save": true
        }
      },
      "url": "https://dom.vse42.ruplace_to_insert"
    }]
  }
}